(const nomodify byte) BLACK = (byte) 0
(const nomodify byte*) COLS = (byte*) 55296
(const nomodify byte*) D016 = (byte*) 53270
(const nomodify byte*) D018 = (byte*) 53272
(const nomodify byte) DARK_GREY = (byte) $b
(const byte*) LOGO[(number) 6*(number) $28*(number) 8]  = kickasm {{ .var logoPic = LoadPicture("logo.png", List().add($444444, $808080, $000000, $ffffff))
    .for (var y=0; y<6	; y++)
        .for (var x=0;x<40; x++)
            .for(var cp=0; cp<8; cp++)
                .byte logoPic.getMulticolorByte(x,cp+y*8)
 }}
(byte) MOS6526_CIA::INTERRUPT
(byte) MOS6526_CIA::PORT_A
(byte) MOS6526_CIA::PORT_A_DDR
(byte) MOS6526_CIA::PORT_B
(byte) MOS6526_CIA::PORT_B_DDR
(byte) MOS6526_CIA::SERIAL_DATA
(word) MOS6526_CIA::TIMER_A
(byte) MOS6526_CIA::TIMER_A_CONTROL
(word) MOS6526_CIA::TIMER_B
(byte) MOS6526_CIA::TIMER_B_CONTROL
(byte) MOS6526_CIA::TOD_10THS
(byte) MOS6526_CIA::TOD_HOURS
(byte) MOS6526_CIA::TOD_MIN
(byte) MOS6526_CIA::TOD_SEC
(byte) MOS6569_VICII::BG_COLOR
(byte) MOS6569_VICII::BG_COLOR1
(byte) MOS6569_VICII::BG_COLOR2
(byte) MOS6569_VICII::BG_COLOR3
(byte) MOS6569_VICII::BORDER_COLOR
(byte) MOS6569_VICII::CONTROL1
(byte) MOS6569_VICII::CONTROL2
(byte) MOS6569_VICII::IRQ_ENABLE
(byte) MOS6569_VICII::IRQ_STATUS
(byte) MOS6569_VICII::LIGHTPEN_X
(byte) MOS6569_VICII::LIGHTPEN_Y
(byte) MOS6569_VICII::MEMORY
(byte) MOS6569_VICII::RASTER
(byte) MOS6569_VICII::SPRITE0_COLOR
(byte) MOS6569_VICII::SPRITE0_X
(byte) MOS6569_VICII::SPRITE0_Y
(byte) MOS6569_VICII::SPRITE1_COLOR
(byte) MOS6569_VICII::SPRITE1_X
(byte) MOS6569_VICII::SPRITE1_Y
(byte) MOS6569_VICII::SPRITE2_COLOR
(byte) MOS6569_VICII::SPRITE2_X
(byte) MOS6569_VICII::SPRITE2_Y
(byte) MOS6569_VICII::SPRITE3_COLOR
(byte) MOS6569_VICII::SPRITE3_X
(byte) MOS6569_VICII::SPRITE3_Y
(byte) MOS6569_VICII::SPRITE4_COLOR
(byte) MOS6569_VICII::SPRITE4_X
(byte) MOS6569_VICII::SPRITE4_Y
(byte) MOS6569_VICII::SPRITE5_COLOR
(byte) MOS6569_VICII::SPRITE5_X
(byte) MOS6569_VICII::SPRITE5_Y
(byte) MOS6569_VICII::SPRITE6_COLOR
(byte) MOS6569_VICII::SPRITE6_X
(byte) MOS6569_VICII::SPRITE6_Y
(byte) MOS6569_VICII::SPRITE7_COLOR
(byte) MOS6569_VICII::SPRITE7_X
(byte) MOS6569_VICII::SPRITE7_Y
(byte) MOS6569_VICII::SPRITES_BG_COLLISION
(byte) MOS6569_VICII::SPRITES_COLLISION
(byte) MOS6569_VICII::SPRITES_ENABLE
(byte) MOS6569_VICII::SPRITES_EXPAND_X
(byte) MOS6569_VICII::SPRITES_EXPAND_Y
(byte) MOS6569_VICII::SPRITES_MC
(byte) MOS6569_VICII::SPRITES_MCOLOR1
(byte) MOS6569_VICII::SPRITES_MCOLOR2
(byte) MOS6569_VICII::SPRITES_PRIORITY
(byte) MOS6569_VICII::SPRITES_XMSB
(byte) MOS6581_SID::CH1_ATTACK_DECAY
(byte) MOS6581_SID::CH1_CONTROL
(word) MOS6581_SID::CH1_FREQ
(word) MOS6581_SID::CH1_PULSE_WIDTH
(byte) MOS6581_SID::CH1_SUSTAIN_RELEASE
(byte) MOS6581_SID::CH2_ATTACK_DECAY
(byte) MOS6581_SID::CH2_CONTROL
(word) MOS6581_SID::CH2_FREQ
(word) MOS6581_SID::CH2_PULSE_WIDTH
(byte) MOS6581_SID::CH2_SUSTAIN_RELEASE
(byte) MOS6581_SID::CH3_ATTACK_DECAY
(byte) MOS6581_SID::CH3_CONTROL
(byte) MOS6581_SID::CH3_ENV
(word) MOS6581_SID::CH3_FREQ
(byte) MOS6581_SID::CH3_OSC
(word) MOS6581_SID::CH3_PULSE_WIDTH
(byte) MOS6581_SID::CH3_SUSTAIN_RELEASE
(byte) MOS6581_SID::FILTER_CUTOFF_HIGH
(byte) MOS6581_SID::FILTER_CUTOFF_LOW
(byte) MOS6581_SID::FILTER_SETUP
(byte) MOS6581_SID::POT_X
(byte) MOS6581_SID::POT_Y
(byte) MOS6581_SID::VOLUME_FILTER_MODE
(const byte) OFFSET_STRUCT_MOS6569_VICII_BG_COLOR = (byte) $21
(const byte) OFFSET_STRUCT_MOS6569_VICII_BG_COLOR1 = (byte) $22
(const byte) OFFSET_STRUCT_MOS6569_VICII_BG_COLOR2 = (byte) $23
(const byte) OFFSET_STRUCT_MOS6569_VICII_BORDER_COLOR = (byte) $20
(const byte*) SCREEN = (byte*) 1024
(const nomodify struct MOS6569_VICII*) VICII = (struct MOS6569_VICII*) 53248
(const nomodify byte) VIC_CSEL = (byte) 8
(const nomodify byte) VIC_MCM = (byte) $10
(const nomodify byte) WHITE = (byte) 1
(void()) main()
(label) main::@1
(label) main::@2
(label) main::@3
(label) main::@4
(byte) main::ch
(byte) main::ch#1 reg byte x 16.5
(byte) main::ch#2 reg byte x 22.0
(label) main::toD0181
(byte*) main::toD0181_gfx
(byte) main::toD0181_return
(const byte) main::toD0181_return#0 toD0181_return = >(word)(const byte*) SCREEN&(word) $3fff*(byte) 4|>(word)(const byte*) LOGO/(byte) 4&(byte) $f
(byte*) main::toD0181_screen
(void*()) memset((void*) memset::str , (byte) memset::c , (word) memset::num)
(label) memset::@1
(label) memset::@2
(label) memset::@3
(label) memset::@return
(byte) memset::c
(byte) memset::c#4 reg byte x 14.428571428571429
(byte*) memset::dst
(byte*) memset::dst#1 dst zp[2]:2 202.0
(byte*) memset::dst#2 dst zp[2]:2 138.33333333333331
(byte*) memset::dst#4 dst zp[2]:2 22.0
(byte*) memset::end
(byte*) memset::end#0 end zp[2]:4 18.666666666666664
(word) memset::num
(void*) memset::return
(void*) memset::str
(void*) memset::str#3 str zp[2]:2

reg byte x [ main::ch#2 main::ch#1 ]
zp[2]:2 [ memset::str#3 memset::dst#2 memset::dst#4 memset::dst#1 ]
reg byte x [ memset::c#4 ]
zp[2]:4 [ memset::end#0 ]
