(const nomodify byte) GREEN = (byte) 5
(const nomodify byte*) LOAD_SPRITE = (byte*) 12288
(byte) MOS6526_CIA::INTERRUPT
(byte) MOS6526_CIA::PORT_A
(byte) MOS6526_CIA::PORT_A_DDR
(byte) MOS6526_CIA::PORT_B
(byte) MOS6526_CIA::PORT_B_DDR
(byte) MOS6526_CIA::SERIAL_DATA
(word) MOS6526_CIA::TIMER_A
(byte) MOS6526_CIA::TIMER_A_CONTROL
(word) MOS6526_CIA::TIMER_B
(byte) MOS6526_CIA::TIMER_B_CONTROL
(byte) MOS6526_CIA::TOD_10THS
(byte) MOS6526_CIA::TOD_HOURS
(byte) MOS6526_CIA::TOD_MIN
(byte) MOS6526_CIA::TOD_SEC
(byte) MOS6569_VICII::BG_COLOR
(byte) MOS6569_VICII::BG_COLOR1
(byte) MOS6569_VICII::BG_COLOR2
(byte) MOS6569_VICII::BG_COLOR3
(byte) MOS6569_VICII::BORDER_COLOR
(byte) MOS6569_VICII::CONTROL1
(byte) MOS6569_VICII::CONTROL2
(byte) MOS6569_VICII::IRQ_ENABLE
(byte) MOS6569_VICII::IRQ_STATUS
(byte) MOS6569_VICII::LIGHTPEN_X
(byte) MOS6569_VICII::LIGHTPEN_Y
(byte) MOS6569_VICII::MEMORY
(byte) MOS6569_VICII::RASTER
(byte) MOS6569_VICII::SPRITE0_COLOR
(byte) MOS6569_VICII::SPRITE0_X
(byte) MOS6569_VICII::SPRITE0_Y
(byte) MOS6569_VICII::SPRITE1_COLOR
(byte) MOS6569_VICII::SPRITE1_X
(byte) MOS6569_VICII::SPRITE1_Y
(byte) MOS6569_VICII::SPRITE2_COLOR
(byte) MOS6569_VICII::SPRITE2_X
(byte) MOS6569_VICII::SPRITE2_Y
(byte) MOS6569_VICII::SPRITE3_COLOR
(byte) MOS6569_VICII::SPRITE3_X
(byte) MOS6569_VICII::SPRITE3_Y
(byte) MOS6569_VICII::SPRITE4_COLOR
(byte) MOS6569_VICII::SPRITE4_X
(byte) MOS6569_VICII::SPRITE4_Y
(byte) MOS6569_VICII::SPRITE5_COLOR
(byte) MOS6569_VICII::SPRITE5_X
(byte) MOS6569_VICII::SPRITE5_Y
(byte) MOS6569_VICII::SPRITE6_COLOR
(byte) MOS6569_VICII::SPRITE6_X
(byte) MOS6569_VICII::SPRITE6_Y
(byte) MOS6569_VICII::SPRITE7_COLOR
(byte) MOS6569_VICII::SPRITE7_X
(byte) MOS6569_VICII::SPRITE7_Y
(byte) MOS6569_VICII::SPRITES_BG_COLLISION
(byte) MOS6569_VICII::SPRITES_COLLISION
(byte) MOS6569_VICII::SPRITES_ENABLE
(byte) MOS6569_VICII::SPRITES_EXPAND_X
(byte) MOS6569_VICII::SPRITES_EXPAND_Y
(byte) MOS6569_VICII::SPRITES_MC
(byte) MOS6569_VICII::SPRITES_MCOLOR1
(byte) MOS6569_VICII::SPRITES_MCOLOR2
(byte) MOS6569_VICII::SPRITES_PRIORITY
(byte) MOS6569_VICII::SPRITES_XMSB
(byte) MOS6581_SID::CH1_ATTACK_DECAY
(byte) MOS6581_SID::CH1_CONTROL
(word) MOS6581_SID::CH1_FREQ
(word) MOS6581_SID::CH1_PULSE_WIDTH
(byte) MOS6581_SID::CH1_SUSTAIN_RELEASE
(byte) MOS6581_SID::CH2_ATTACK_DECAY
(byte) MOS6581_SID::CH2_CONTROL
(word) MOS6581_SID::CH2_FREQ
(word) MOS6581_SID::CH2_PULSE_WIDTH
(byte) MOS6581_SID::CH2_SUSTAIN_RELEASE
(byte) MOS6581_SID::CH3_ATTACK_DECAY
(byte) MOS6581_SID::CH3_CONTROL
(byte) MOS6581_SID::CH3_ENV
(word) MOS6581_SID::CH3_FREQ
(byte) MOS6581_SID::CH3_OSC
(word) MOS6581_SID::CH3_PULSE_WIDTH
(byte) MOS6581_SID::CH3_SUSTAIN_RELEASE
(byte) MOS6581_SID::FILTER_CUTOFF_HIGH
(byte) MOS6581_SID::FILTER_CUTOFF_LOW
(byte) MOS6581_SID::FILTER_SETUP
(byte) MOS6581_SID::POT_X
(byte) MOS6581_SID::POT_Y
(byte) MOS6581_SID::VOLUME_FILTER_MODE
(const byte) OFFSET_STRUCT_MOS6569_VICII_BORDER_COLOR = (byte) $20
(const byte) OFFSET_STRUCT_MOS6569_VICII_SPRITES_ENABLE = (byte) $15
(const nomodify byte*) SCREEN = (byte*) 1024
(const byte*) SPRITE[]  = kickasm {{ .var pic = LoadPicture("sprite.png", List().add($000000, $ffffff))
    .for (var y=0; y<21; y++)
        .for (var x=0;x<3; x++)
            .byte pic.getSinglecolorByte(x,y)
 }}
(const nomodify byte*) SPRITES_COLOR = (byte*) 53287
(const nomodify byte*) SPRITES_PTR = (const nomodify byte*) SCREEN+(const nomodify word) SPRITE_PTRS
(const nomodify byte*) SPRITES_XPOS = (byte*) 53248
(const nomodify byte*) SPRITES_YPOS = (byte*) 53249
(const nomodify word) SPRITE_PTRS = (word) $3f8
(const nomodify struct MOS6569_VICII*) VICII = (struct MOS6569_VICII*) 53248
(void()) error((byte) error::err)
(label) error::@return
(byte) error::err
(byte) error::err#0 reg byte a 13.0
(const nomodify byte*) error::errCode = (byte*) 255
(byte()) load((byte*) load::address , (bool) load::verify)
(label) load::@return
(byte*) load::address
(const byte**) load::loadAddress = (byte**) 254
(const byte*) load::loadOrVerify = (byte*) 253
(byte) load::return
(byte) load::return#0 reg byte a 22.0
(byte) load::return#1 reg byte a 37.33333333333333
(const byte*) load::status = (byte*) 253
(bool) load::verify
(byte()) loadFileToMemory((byte) loadFileToMemory::device , (byte*) loadFileToMemory::filename , (byte*) loadFileToMemory::address)
(label) loadFileToMemory::@1
(label) loadFileToMemory::@2
(label) loadFileToMemory::@3
(label) loadFileToMemory::@return
(byte*) loadFileToMemory::address
(byte) loadFileToMemory::device
(const byte) loadFileToMemory::device#0 device = (byte) 8
(byte*) loadFileToMemory::filename
(byte) loadFileToMemory::return
(byte) loadFileToMemory::return#0 reg byte a 4.0
(byte) loadFileToMemory::return#1 reg byte a 4.333333333333333
(void()) main()
(label) main::@1
(label) main::@2
(label) main::@3
(label) main::@4
(label) main::@return
(const byte*) main::filename[(byte) 7]  = (byte*) "SPRITE"
(byte) main::status
(byte) main::status#0 reg byte x 2.0
(label) main::toSpritePtr1
(byte) main::toSpritePtr1_return
(const byte) main::toSpritePtr1_return#0 toSpritePtr1_return = (byte)(word)(const nomodify byte*) LOAD_SPRITE/(byte) $40
(byte*) main::toSpritePtr1_sprite
(void()) setlfs((byte) setlfs::device)
(label) setlfs::@return
(byte) setlfs::device
(const nomodify byte*) setlfs::deviceNum = (byte*) 255
(void()) setnam((byte*) setnam::filename)
(word~) setnam::$0 zp[2]:4 101.0
(label) setnam::@1
(label) setnam::@return
(byte*) setnam::filename
(const nomodify byte*) setnam::filename_len = (byte*) 253
(const nomodify byte**) setnam::filename_ptr = (byte**) 254
(word()) strlen((byte*) strlen::str)
(label) strlen::@1
(label) strlen::@2
(label) strlen::@return
(word) strlen::len
(word) strlen::len#1 len zp[2]:4 10001.0
(word) strlen::len#2 len zp[2]:4 5025.75
(word) strlen::return
(word) strlen::return#2 return zp[2]:4 202.0
(byte*) strlen::str
(byte*) strlen::str#0 str zp[2]:2 20002.0
(byte*) strlen::str#2 str zp[2]:2 10001.0

zp[2]:2 [ strlen::str#2 strlen::str#0 ]
zp[2]:4 [ strlen::len#2 strlen::len#1 strlen::return#2 setnam::$0 ]
reg byte a [ loadFileToMemory::return#0 ]
reg byte x [ main::status#0 ]
reg byte a [ error::err#0 ]
reg byte a [ load::return#0 ]
reg byte a [ loadFileToMemory::return#1 ]
reg byte a [ load::return#1 ]
