(void()) __start()
(label) __start::@1
(label) __start::@return
(label) __start::__init1
(void()) main()
(label) main::@1
(label) main::@2
(label) main::@return
(const nomodify byte*) main::SCREEN1 = (byte*) 1024
(const nomodify byte*) main::SCREEN2 = (const nomodify byte*) main::SCREEN1+(byte) $28
(byte) main::idx
(const byte*) main::ptr = &(volatile byte) val
(void()) setp((byte*) setp::p , (byte) setp::v)
(label) setp::@return
(byte*) setp::p
(byte) setp::v
(const byte) setp::v#0 v = (byte) 5
(void()) setv((byte) setv::v)
(label) setv::@return
(byte) setv::v
(const byte) setv::v#0 v = (byte) 4
(volatile byte) val loadstore zp[1]:2 14.692307692307692

zp[1]:2 [ val ]
