(const nomodify byte) ITEM_COUNT = (byte) 3
(const nomodify byte) ITEM_SIZE = (byte) 5
(const byte*) items[(const nomodify byte) ITEM_COUNT*(const nomodify byte) ITEM_SIZE]  = { (byte) 0, (byte) 0, (byte) 0, (byte) 0, (byte) 0, (byte) 0, (byte) 0, (byte) 0, (byte) 0, (byte) 0, (byte) 0, (byte) 0, (byte) 0, (byte) 0, (byte) 0 }
(void()) main()
(byte~) main::$0 reg byte a 202.0
(byte~) main::$1 reg byte a 202.0
(label) main::@1
(label) main::@2
(label) main::@3
(label) main::@return
(byte*) main::cur_item
(byte*) main::cur_item#1 cur_item zp[2]:2 7.333333333333333
(byte*) main::cur_item#4 cur_item zp[2]:2 17.571428571428573
(byte) main::item
(byte) main::item#1 reg byte x 16.5
(byte) main::item#4 reg byte x 15.375
(byte) main::sub
(byte) main::sub#1 reg byte y 151.5
(byte) main::sub#2 reg byte y 101.0

reg byte x [ main::item#4 main::item#1 ]
zp[2]:2 [ main::cur_item#4 main::cur_item#1 ]
reg byte y [ main::sub#2 main::sub#1 ]
reg byte a [ main::$0 ]
reg byte a [ main::$1 ]
