(const nomodify byte*) BITMAP = (byte*) 8192
(const nomodify byte) BLUE = (byte) 6
(const nomodify byte*) BORDER_COLOR = (byte*) 53280
(const nomodify byte*) D011 = (byte*) 53265
(byte) MOS6526_CIA::INTERRUPT
(byte) MOS6526_CIA::PORT_A
(byte) MOS6526_CIA::PORT_A_DDR
(byte) MOS6526_CIA::PORT_B
(byte) MOS6526_CIA::PORT_B_DDR
(byte) MOS6526_CIA::SERIAL_DATA
(word) MOS6526_CIA::TIMER_A
(byte) MOS6526_CIA::TIMER_A_CONTROL
(word) MOS6526_CIA::TIMER_B
(byte) MOS6526_CIA::TIMER_B_CONTROL
(byte) MOS6526_CIA::TOD_10THS
(byte) MOS6526_CIA::TOD_HOURS
(byte) MOS6526_CIA::TOD_MIN
(byte) MOS6526_CIA::TOD_SEC
(byte) MOS6569_VICII::BG_COLOR
(byte) MOS6569_VICII::BG_COLOR1
(byte) MOS6569_VICII::BG_COLOR2
(byte) MOS6569_VICII::BG_COLOR3
(byte) MOS6569_VICII::BORDER_COLOR
(byte) MOS6569_VICII::CONTROL1
(byte) MOS6569_VICII::CONTROL2
(byte) MOS6569_VICII::IRQ_ENABLE
(byte) MOS6569_VICII::IRQ_STATUS
(byte) MOS6569_VICII::LIGHTPEN_X
(byte) MOS6569_VICII::LIGHTPEN_Y
(byte) MOS6569_VICII::MEMORY
(byte) MOS6569_VICII::RASTER
(byte) MOS6569_VICII::SPRITE0_COLOR
(byte) MOS6569_VICII::SPRITE0_X
(byte) MOS6569_VICII::SPRITE0_Y
(byte) MOS6569_VICII::SPRITE1_COLOR
(byte) MOS6569_VICII::SPRITE1_X
(byte) MOS6569_VICII::SPRITE1_Y
(byte) MOS6569_VICII::SPRITE2_COLOR
(byte) MOS6569_VICII::SPRITE2_X
(byte) MOS6569_VICII::SPRITE2_Y
(byte) MOS6569_VICII::SPRITE3_COLOR
(byte) MOS6569_VICII::SPRITE3_X
(byte) MOS6569_VICII::SPRITE3_Y
(byte) MOS6569_VICII::SPRITE4_COLOR
(byte) MOS6569_VICII::SPRITE4_X
(byte) MOS6569_VICII::SPRITE4_Y
(byte) MOS6569_VICII::SPRITE5_COLOR
(byte) MOS6569_VICII::SPRITE5_X
(byte) MOS6569_VICII::SPRITE5_Y
(byte) MOS6569_VICII::SPRITE6_COLOR
(byte) MOS6569_VICII::SPRITE6_X
(byte) MOS6569_VICII::SPRITE6_Y
(byte) MOS6569_VICII::SPRITE7_COLOR
(byte) MOS6569_VICII::SPRITE7_X
(byte) MOS6569_VICII::SPRITE7_Y
(byte) MOS6569_VICII::SPRITES_BG_COLLISION
(byte) MOS6569_VICII::SPRITES_COLLISION
(byte) MOS6569_VICII::SPRITES_ENABLE
(byte) MOS6569_VICII::SPRITES_EXPAND_X
(byte) MOS6569_VICII::SPRITES_EXPAND_Y
(byte) MOS6569_VICII::SPRITES_MC
(byte) MOS6569_VICII::SPRITES_MCOLOR1
(byte) MOS6569_VICII::SPRITES_MCOLOR2
(byte) MOS6569_VICII::SPRITES_PRIORITY
(byte) MOS6569_VICII::SPRITES_XMSB
(byte) MOS6581_SID::CH1_ATTACK_DECAY
(byte) MOS6581_SID::CH1_CONTROL
(word) MOS6581_SID::CH1_FREQ
(word) MOS6581_SID::CH1_PULSE_WIDTH
(byte) MOS6581_SID::CH1_SUSTAIN_RELEASE
(byte) MOS6581_SID::CH2_ATTACK_DECAY
(byte) MOS6581_SID::CH2_CONTROL
(word) MOS6581_SID::CH2_FREQ
(word) MOS6581_SID::CH2_PULSE_WIDTH
(byte) MOS6581_SID::CH2_SUSTAIN_RELEASE
(byte) MOS6581_SID::CH3_ATTACK_DECAY
(byte) MOS6581_SID::CH3_CONTROL
(byte) MOS6581_SID::CH3_ENV
(word) MOS6581_SID::CH3_FREQ
(byte) MOS6581_SID::CH3_OSC
(word) MOS6581_SID::CH3_PULSE_WIDTH
(byte) MOS6581_SID::CH3_SUSTAIN_RELEASE
(byte) MOS6581_SID::FILTER_CUTOFF_HIGH
(byte) MOS6581_SID::FILTER_CUTOFF_LOW
(byte) MOS6581_SID::FILTER_SETUP
(byte) MOS6581_SID::POT_X
(byte) MOS6581_SID::POT_Y
(byte) MOS6581_SID::VOLUME_FILTER_MODE
(const nomodify byte*) SCREEN = (byte*) 1024
(const nomodify byte) VIC_BMM = (byte) $20
(const nomodify byte) VIC_DEN = (byte) $10
(const nomodify byte*) VIC_MEMORY = (byte*) 53272
(const nomodify byte) VIC_RSEL = (byte) 8
(const byte*) bitmask[]  = { (byte) $80, (byte) $40, (byte) $20, (byte) $10, (byte) 8, (byte) 4, (byte) 2, (byte) 1 }
(void()) circle((signed word) circle::xc , (signed word) circle::yc , (signed word) circle::r)
(signed word~) circle::$0 zp[2]:8 202.0
(signed word~) circle::$10 zp[2]:8 20002.0
(signed word~) circle::$5 zp[2]:10 20002.0
(signed word~) circle::$6 zp[2]:10 20002.0
(signed word~) circle::$7 zp[2]:8 20002.0
(signed word~) circle::$9 zp[2]:12 20002.0
(label) circle::@1
(label) circle::@10
(label) circle::@11
(label) circle::@12
(label) circle::@13
(label) circle::@2
(label) circle::@3
(label) circle::@4
(label) circle::@5
(label) circle::@6
(label) circle::@7
(label) circle::@8
(label) circle::@9
(label) circle::@return
(signed word) circle::p
(signed word) circle::p#0 p zp[2]:8 202.0
(signed word) circle::p#1 p zp[2]:8 20002.0
(signed word) circle::p#10 p zp[2]:8 1153.9615384615383
(signed word) circle::p#2 p zp[2]:8 20002.0
(signed word) circle::p#3 p zp[2]:8 5729.285714285716
(signed word) circle::r
(signed word) circle::r#0 r zp[2]:6 71.0
(signed word) circle::x1
(signed word) circle::x1#1 x1 zp[2]:4 20002.0
(signed word) circle::x1#10 x1 zp[2]:4 3611.472222222223
(signed word) circle::xc
(const signed word) circle::xc#0 xc = (signed word) $a0
(signed word) circle::y
(signed word) circle::y#1 y zp[2]:6 6000.6
(signed word) circle::y#10 y zp[2]:6 4231.192307692308
(signed word) circle::y#13 y zp[2]:6 6684.166666666666
(signed word) circle::yc
(const signed word) circle::yc#0 yc = (signed byte) $64
(void()) fill((byte*) fill::start , (signed word) fill::size , (byte) fill::val)
(label) fill::@1
(label) fill::@2
(label) fill::@return
(byte*) fill::addr
(byte*) fill::addr#0 addr zp[2]:6 11.0
(byte*) fill::addr#1 addr zp[2]:6 202.0
(byte*) fill::addr#2 addr zp[2]:6 138.33333333333331
(byte*) fill::end
(byte*) fill::end#0 end zp[2]:4 22.4
(signed word) fill::size
(signed word) fill::size#2 size zp[2]:4 11.0
(byte*) fill::start
(byte) fill::val
(byte) fill::val#4 reg byte x 16.833333333333332
(void()) main()
(label) main::@1
(label) main::@2
(label) main::@3
(label) main::@4
(label) main::@5
(label) main::@6
(signed word) main::i
(signed word) main::i#1 i zp[2]:2 22.0
(signed word) main::i#2 i zp[2]:2 11.0
(void()) plot((signed word) plot::x , (signed word) plot::y)
(byte~) plot::$10 reg byte a 200002.0
(signed word~) plot::$11 zp[2]:12 150001.5
(signed word~) plot::$12 zp[2]:16 200002.0
(signed byte~) plot::$13 reg byte a 200002.0
(byte~) plot::$14 reg byte a 200002.0
(signed word~) plot::$15 zp[2]:16 200002.0
(signed word~) plot::$16 zp[2]:16 200002.0
(signed word~) plot::$8 zp[2]:14 200002.0
(byte~) plot::$9 reg byte a 200002.0
(label) plot::@1
(label) plot::@2
(label) plot::@3
(label) plot::@4
(label) plot::@return
(byte*) plot::location
(byte*) plot::location#1 location zp[2]:14 66667.33333333333
(byte*) plot::location#2 location zp[2]:14 40000.4
(byte*) plot::location#3 location zp[2]:14 100001.0
(signed word) plot::x
(signed word) plot::x#0 x zp[2]:10 10001.0
(signed word) plot::x#1 x zp[2]:10 10001.0
(signed word) plot::x#2 x zp[2]:10 10001.0
(signed word) plot::x#3 x zp[2]:10 10001.0
(signed word) plot::x#4 x zp[2]:10 10001.0
(signed word) plot::x#5 x zp[2]:10 10001.0
(signed word) plot::x#6 x zp[2]:10 10001.0
(signed word) plot::x#7 x zp[2]:10 10001.0
(signed word) plot::x#8 x zp[2]:10 32000.800000000003
(signed word) plot::y
(signed word) plot::y#0 y zp[2]:12 20002.0
(signed word) plot::y#1 y zp[2]:12 20002.0
(signed word) plot::y#2 y zp[2]:12 20002.0
(signed word) plot::y#3 y zp[2]:12 20002.0
(signed word) plot::y#4 y zp[2]:12 20002.0
(signed word) plot::y#5 y zp[2]:12 20002.0
(signed word) plot::y#6 y zp[2]:12 20002.0
(signed word) plot::y#7 y zp[2]:12 20002.0
(signed word) plot::y#8 y zp[2]:12 48001.2

zp[2]:2 [ main::i#2 main::i#1 ]
reg byte x [ fill::val#4 ]
zp[2]:4 [ circle::x1#10 circle::x1#1 fill::size#2 fill::end#0 ]
zp[2]:6 [ circle::y#13 circle::r#0 circle::y#10 circle::y#1 fill::addr#2 fill::addr#0 fill::addr#1 ]
zp[2]:8 [ circle::p#3 circle::p#0 circle::p#10 circle::p#1 circle::p#2 circle::$7 circle::$10 circle::$0 ]
zp[2]:10 [ circle::$5 circle::$6 plot::x#8 plot::x#5 plot::x#6 plot::x#7 plot::x#0 plot::x#1 plot::x#2 plot::x#3 plot::x#4 ]
zp[2]:12 [ circle::$9 plot::y#8 plot::y#5 plot::y#6 plot::y#7 plot::y#0 plot::y#1 plot::y#2 plot::y#3 plot::y#4 plot::$11 ]
zp[2]:14 [ plot::$8 plot::location#1 plot::location#2 plot::location#3 ]
reg byte a [ plot::$9 ]
reg byte a [ plot::$10 ]
zp[2]:16 [ plot::$15 plot::$16 plot::$12 ]
reg byte a [ plot::$13 ]
reg byte a [ plot::$14 ]
