(void()) main()
(byte~) main::$0 reg byte a 22.0
(label) main::@1
(label) main::@return
(const byte*) main::SCREEN = (byte*) 1024
(byte) main::c
(byte) main::c#1 reg byte x 16.5
(byte) main::c#2 reg byte x 14.666666666666666

reg byte x [ main::c#2 main::c#1 ]
reg byte a [ main::$0 ]
