(const nomodify byte*) CHARGEN = (byte*) 53248
(const nomodify struct MOS6526_CIA*) CIA1 = (struct MOS6526_CIA*) 56320
(const nomodify struct MOS6526_CIA*) CIA2 = (struct MOS6526_CIA*) 56576
(const nomodify byte*) COLS = (byte*) 55296
(const nomodify byte) DTV_BORDER_OFF = (byte) 2
(const nomodify byte) DTV_CHUNKY = (byte) $40
(const nomodify byte) DTV_COLORRAM_OFF = (byte) $10
(const nomodify dword) DTV_COLOR_BANK_DEFAULT = (dword) $1d800
(const nomodify byte*) DTV_COLOR_BANK_HI = (byte*) 53303
(const nomodify byte*) DTV_COLOR_BANK_LO = (byte*) 53302
(const nomodify byte*) DTV_CONTROL = (byte*) 53308
(const nomodify byte*) DTV_FEATURE = (byte*) 53311
(const nomodify byte) DTV_FEATURE_ENABLE = (byte) 1
(const nomodify byte*) DTV_GRAPHICS_VIC_BANK = (byte*) 53309
(const nomodify byte) DTV_HIGHCOLOR = (byte) 4
(const nomodify byte) DTV_LINEAR = (byte) 1
(const nomodify byte) DTV_OVERSCAN = (byte) 8
(const nomodify byte*) DTV_PALETTE = (byte*) 53760
(const byte*) DTV_PALETTE_DEFAULT[(number) $10]  = { (byte) 0, (byte) $f, (byte) $36, (byte) $be, (byte) $58, (byte) $db, (byte) $86, (byte) $ff, (byte) $29, (byte) $26, (byte) $3b, (byte) 5, (byte) 7, (byte) $df, (byte) $9a, (byte) $a }
(const nomodify byte*) DTV_PLANEA_MODULO_HI = (byte*) 53305
(const nomodify byte*) DTV_PLANEA_MODULO_LO = (byte*) 53304
(const nomodify byte*) DTV_PLANEA_START_HI = (byte*) 53317
(const nomodify byte*) DTV_PLANEA_START_LO = (byte*) 53306
(const nomodify byte*) DTV_PLANEA_START_MI = (byte*) 53307
(const nomodify byte*) DTV_PLANEA_STEP = (byte*) 53318
(const nomodify byte*) DTV_PLANEB_MODULO_HI = (byte*) 53320
(const nomodify byte*) DTV_PLANEB_MODULO_LO = (byte*) 53319
(const nomodify byte*) DTV_PLANEB_START_HI = (byte*) 53323
(const nomodify byte*) DTV_PLANEB_START_LO = (byte*) 53321
(const nomodify byte*) DTV_PLANEB_START_MI = (byte*) 53322
(const nomodify byte*) DTV_PLANEB_STEP = (byte*) 53324
(const nomodify byte*) FORM_CHARSET = (byte*) 6144
(const byte*) FORM_COLS[]  = (byte*) "aaaaaaaaaaaaaaaaaaaaaaaaaaaaaaaaaaaaaaaa@                                        @aaaaaaaaaaaaaaaaaaaaaaaaaaaaaaaaaaaaaaaa@                                        @ nnnnnnnnnnnn   mmmmmmmmmm   ooooooooo  @ nnnnnnnnnnnn   mmmmmmmmmm   ooooooooo  @ nnnnnnnnnnnn   mmmmmmmmmm   ooooooooo  @ nnnnnnnnnnnn   mmmmmmmmmm   ooooooooo  @ nnnnnnnnnnnn   mmmmmmmmmm              @ nnnnnnnnnnnn                jjjjjjjjj  @ nnnnnnnnnnnn   mmmmmmmmmm   jjjjjjjjj  @ nnnnnnnnnnnn   mmmmmmmmmm   jjjjjjjjj  @ nnnnnnnnnnnn   mmmmmmmmmm   jjjjjjjjj  @ nnnnnnnnnnnn   mmmmmmmmmm   jjjjjjjjj  @ nnnnnnnnnnnn   mmmmmmmmmm   jjjjjjjjj  @ nnnnnnnnnnnn   mmmmmmmmmm   jjjjjjjjj  @"
(const nomodify signed byte) FORM_CURSOR_BLINK = (signed byte) $28
(const nomodify byte*) FORM_SCREEN = (byte*) 1024
(const byte*) FORM_TEXT[]  = (byte*) " C64 DTV Graphics Mode Explorer         @                                        @ PRESET 0 Standard Charset              @                                        @ CONTROL        PLANE  A     VIC II     @ bmm        0   pattern p0   screen s0  @ mcm        0   start   00   gfx    g0  @ ecm        0   step    00   colors c0  @ hicolor    0   modulo  00              @ linear     0                COLORS     @ color off  0   PLANE  B     palet   0  @ chunky     0   pattern p0   bgcol0 00  @ border off 0   start   00   bgcol1 00  @ overscan   0   step    00   bgcol2 00  @                modulo  00   bgcol3 00  @"
(const nomodify byte) KEY_COMMODORE = (byte) $3d
(const nomodify byte) KEY_CRSR_DOWN = (byte) 7
(const nomodify byte) KEY_CRSR_RIGHT = (byte) 2
(const nomodify byte) KEY_CTRL = (byte) $3a
(const nomodify byte) KEY_LSHIFT = (byte) $f
(const nomodify byte) KEY_MODIFIER_COMMODORE = (byte) 8
(const nomodify byte) KEY_MODIFIER_CTRL = (byte) 4
(const nomodify byte) KEY_MODIFIER_LSHIFT = (byte) 1
(const nomodify byte) KEY_MODIFIER_RSHIFT = (byte) 2
(const nomodify byte) KEY_MODIFIER_SHIFT = (const nomodify byte) KEY_MODIFIER_LSHIFT|(const nomodify byte) KEY_MODIFIER_RSHIFT
(const nomodify byte) KEY_RSHIFT = (byte) $34
(const nomodify byte) KEY_SPACE = (byte) $3c
(byte) MOS6526_CIA::INTERRUPT
(byte) MOS6526_CIA::PORT_A
(byte) MOS6526_CIA::PORT_A_DDR
(byte) MOS6526_CIA::PORT_B
(byte) MOS6526_CIA::PORT_B_DDR
(byte) MOS6526_CIA::SERIAL_DATA
(word) MOS6526_CIA::TIMER_A
(byte) MOS6526_CIA::TIMER_A_CONTROL
(word) MOS6526_CIA::TIMER_B
(byte) MOS6526_CIA::TIMER_B_CONTROL
(byte) MOS6526_CIA::TOD_10THS
(byte) MOS6526_CIA::TOD_HOURS
(byte) MOS6526_CIA::TOD_MIN
(byte) MOS6526_CIA::TOD_SEC
(byte) MOS6569_VICII::BG_COLOR
(byte) MOS6569_VICII::BG_COLOR1
(byte) MOS6569_VICII::BG_COLOR2
(byte) MOS6569_VICII::BG_COLOR3
(byte) MOS6569_VICII::BORDER_COLOR
(byte) MOS6569_VICII::CONTROL1
(byte) MOS6569_VICII::CONTROL2
(byte) MOS6569_VICII::IRQ_ENABLE
(byte) MOS6569_VICII::IRQ_STATUS
(byte) MOS6569_VICII::LIGHTPEN_X
(byte) MOS6569_VICII::LIGHTPEN_Y
(byte) MOS6569_VICII::MEMORY
(byte) MOS6569_VICII::RASTER
(byte) MOS6569_VICII::SPRITE0_COLOR
(byte) MOS6569_VICII::SPRITE0_X
(byte) MOS6569_VICII::SPRITE0_Y
(byte) MOS6569_VICII::SPRITE1_COLOR
(byte) MOS6569_VICII::SPRITE1_X
(byte) MOS6569_VICII::SPRITE1_Y
(byte) MOS6569_VICII::SPRITE2_COLOR
(byte) MOS6569_VICII::SPRITE2_X
(byte) MOS6569_VICII::SPRITE2_Y
(byte) MOS6569_VICII::SPRITE3_COLOR
(byte) MOS6569_VICII::SPRITE3_X
(byte) MOS6569_VICII::SPRITE3_Y
(byte) MOS6569_VICII::SPRITE4_COLOR
(byte) MOS6569_VICII::SPRITE4_X
(byte) MOS6569_VICII::SPRITE4_Y
(byte) MOS6569_VICII::SPRITE5_COLOR
(byte) MOS6569_VICII::SPRITE5_X
(byte) MOS6569_VICII::SPRITE5_Y
(byte) MOS6569_VICII::SPRITE6_COLOR
(byte) MOS6569_VICII::SPRITE6_X
(byte) MOS6569_VICII::SPRITE6_Y
(byte) MOS6569_VICII::SPRITE7_COLOR
(byte) MOS6569_VICII::SPRITE7_X
(byte) MOS6569_VICII::SPRITE7_Y
(byte) MOS6569_VICII::SPRITES_BG_COLLISION
(byte) MOS6569_VICII::SPRITES_COLLISION
(byte) MOS6569_VICII::SPRITES_ENABLE
(byte) MOS6569_VICII::SPRITES_EXPAND_X
(byte) MOS6569_VICII::SPRITES_EXPAND_Y
(byte) MOS6569_VICII::SPRITES_MC
(byte) MOS6569_VICII::SPRITES_MCOLOR1
(byte) MOS6569_VICII::SPRITES_MCOLOR2
(byte) MOS6569_VICII::SPRITES_PRIORITY
(byte) MOS6569_VICII::SPRITES_XMSB
(byte) MOS6581_SID::CH1_ATTACK_DECAY
(byte) MOS6581_SID::CH1_CONTROL
(word) MOS6581_SID::CH1_FREQ
(word) MOS6581_SID::CH1_PULSE_WIDTH
(byte) MOS6581_SID::CH1_SUSTAIN_RELEASE
(byte) MOS6581_SID::CH2_ATTACK_DECAY
(byte) MOS6581_SID::CH2_CONTROL
(word) MOS6581_SID::CH2_FREQ
(word) MOS6581_SID::CH2_PULSE_WIDTH
(byte) MOS6581_SID::CH2_SUSTAIN_RELEASE
(byte) MOS6581_SID::CH3_ATTACK_DECAY
(byte) MOS6581_SID::CH3_CONTROL
(byte) MOS6581_SID::CH3_ENV
(word) MOS6581_SID::CH3_FREQ
(byte) MOS6581_SID::CH3_OSC
(word) MOS6581_SID::CH3_PULSE_WIDTH
(byte) MOS6581_SID::CH3_SUSTAIN_RELEASE
(byte) MOS6581_SID::FILTER_CUTOFF_HIGH
(byte) MOS6581_SID::FILTER_CUTOFF_LOW
(byte) MOS6581_SID::FILTER_SETUP
(byte) MOS6581_SID::POT_X
(byte) MOS6581_SID::POT_Y
(byte) MOS6581_SID::VOLUME_FILTER_MODE
(const byte) OFFSET_STRUCT_MOS6526_CIA_PORT_A_DDR = (byte) 2
(const byte) OFFSET_STRUCT_MOS6526_CIA_PORT_B = (byte) 1
(const byte) OFFSET_STRUCT_MOS6526_CIA_PORT_B_DDR = (byte) 3
(const byte) OFFSET_STRUCT_MOS6569_VICII_BG_COLOR = (byte) $21
(const byte) OFFSET_STRUCT_MOS6569_VICII_BG_COLOR1 = (byte) $22
(const byte) OFFSET_STRUCT_MOS6569_VICII_BG_COLOR2 = (byte) $23
(const byte) OFFSET_STRUCT_MOS6569_VICII_BG_COLOR3 = (byte) $24
(const byte) OFFSET_STRUCT_MOS6569_VICII_BORDER_COLOR = (byte) $20
(const byte) OFFSET_STRUCT_MOS6569_VICII_CONTROL1 = (byte) $11
(const byte) OFFSET_STRUCT_MOS6569_VICII_CONTROL2 = (byte) $16
(const byte) OFFSET_STRUCT_MOS6569_VICII_MEMORY = (byte) $18
(const byte) OFFSET_STRUCT_MOS6569_VICII_RASTER = (byte) $12
(const nomodify dword) PLANE_8BPP_CHUNKY = (dword) $20000
(const nomodify dword) PLANE_BLANK = (dword) $38000
(const nomodify dword) PLANE_CHARSET8 = (dword) $3c000
(const nomodify dword) PLANE_FULL = (dword) $3a000
(const nomodify dword) PLANE_HORISONTAL = (dword) $30000
(const nomodify dword) PLANE_HORISONTAL2 = (dword) $34000
(const nomodify dword) PLANE_VERTICAL = (dword) $32000
(const nomodify dword) PLANE_VERTICAL2 = (dword) $36000
(const nomodify byte*) PROCPORT = (byte*) 1
(const nomodify byte*) PROCPORT_DDR = (byte*) 0
(const nomodify byte) PROCPORT_DDR_MEMORY_MASK = (byte) 7
(const nomodify byte) PROCPORT_RAM_CHARROM = (byte) 1
(const nomodify byte) PROCPORT_RAM_IO = (byte) 5
(const byte) RADIX::BINARY = (number) 2
(const byte) RADIX::DECIMAL = (number) $a
(const byte) RADIX::HEXADECIMAL = (number) $10
(const byte) RADIX::OCTAL = (number) 8
(const nomodify struct MOS6569_VICII*) VICII = (struct MOS6569_VICII*) 53248
(const nomodify byte*) VIC_BITMAP = (byte*) 24576
(const nomodify byte) VIC_BMM = (byte) $20
(const nomodify byte*) VIC_CHARSET_ROM = (byte*) 22528
(const nomodify byte*) VIC_CONTROL = (byte*) 53265
(const nomodify byte*) VIC_CONTROL2 = (byte*) 53270
(const nomodify byte) VIC_CSEL = (byte) 8
(const nomodify byte) VIC_DEN = (byte) $10
(const nomodify byte) VIC_ECM = (byte) $40
(const nomodify byte) VIC_MCM = (byte) $10
(const nomodify byte*) VIC_MEMORY = (byte*) 53272
(const nomodify byte) VIC_RSEL = (byte) 8
(const nomodify byte*) VIC_SCREEN0 = (byte*) 16384
(const nomodify byte*) VIC_SCREEN1 = (byte*) 17408
(const nomodify byte*) VIC_SCREEN2 = (byte*) 18432
(const nomodify byte*) VIC_SCREEN3 = (byte*) 19456
(const nomodify byte*) VIC_SCREEN4 = (byte*) 20480
(void()) apply_preset((byte) apply_preset::idx)
(label) apply_preset::@1
(label) apply_preset::@10
(label) apply_preset::@11
(label) apply_preset::@12
(label) apply_preset::@13
(label) apply_preset::@14
(label) apply_preset::@2
(label) apply_preset::@3
(label) apply_preset::@4
(label) apply_preset::@5
(label) apply_preset::@6
(label) apply_preset::@7
(label) apply_preset::@8
(label) apply_preset::@9
(label) apply_preset::@return
(byte) apply_preset::i
(byte) apply_preset::i#1 reg byte y 2.00000002E8
(byte) apply_preset::i#2 reg byte y 1.6666666833333334E8
(byte) apply_preset::idx
(byte) apply_preset::idx#0 reg byte a 100910.18181818182
(byte*) apply_preset::preset
(byte*) apply_preset::preset#15 preset zp[2]:24 2.00000002E7
(void()) bitmap_clear()
(label) bitmap_clear::@1
(label) bitmap_clear::@2
(label) bitmap_clear::@3
(label) bitmap_clear::@return
(byte*) bitmap_clear::bitmap
(word) bitmap_clear::bitmap#0 bitmap zp[2]:26 1001.0
(byte*) bitmap_clear::bitmap#1 bitmap zp[2]:26 42000.600000000006
(byte*) bitmap_clear::bitmap#2 bitmap zp[2]:26 155002.0
(byte*) bitmap_clear::bitmap#3 bitmap zp[2]:26 21003.0
(byte*) bitmap_clear::bitmap#5 bitmap zp[2]:26 2002.0
(byte) bitmap_clear::x
(byte) bitmap_clear::x#1 reg byte x 150001.5
(byte) bitmap_clear::x#2 reg byte x 66667.33333333333
(byte) bitmap_clear::y
(byte) bitmap_clear::y#1 y zp[1]:15 15001.5
(byte) bitmap_clear::y#4 y zp[1]:15 3333.6666666666665
(void()) bitmap_init((byte*) bitmap_init::bitmap)
(byte~) bitmap_init::$0 reg byte a 20002.0
(byte~) bitmap_init::$10 zp[1]:19 5000.5
(byte~) bitmap_init::$7 reg byte a 20002.0
(byte~) bitmap_init::$8 reg byte a 20002.0
(byte~) bitmap_init::$9 reg byte a 20002.0
(label) bitmap_init::@1
(label) bitmap_init::@2
(label) bitmap_init::@3
(label) bitmap_init::@4
(label) bitmap_init::@5
(label) bitmap_init::@6
(label) bitmap_init::@return
(byte*) bitmap_init::bitmap
(byte) bitmap_init::bits
(byte) bitmap_init::bits#1 reg byte y 10001.0
(byte) bitmap_init::bits#3 reg byte y 6000.6
(byte) bitmap_init::bits#4 reg byte y 6667.333333333333
(byte) bitmap_init::x
(byte) bitmap_init::x#1 reg byte x 15001.5
(byte) bitmap_init::x#2 reg byte x 6667.333333333334
(byte) bitmap_init::y
(byte) bitmap_init::y#1 reg byte x 15001.5
(byte) bitmap_init::y#2 reg byte x 5000.5
(byte*) bitmap_init::yoffs
(byte*) bitmap_init::yoffs#1 yoffs zp[2]:7 20002.0
(byte*) bitmap_init::yoffs#2 yoffs zp[2]:7 6250.625
(byte*) bitmap_init::yoffs#4 yoffs zp[2]:7 10001.0
(void()) bitmap_line((byte) bitmap_line::x0 , (byte) bitmap_line::x1 , (byte) bitmap_line::y0 , (byte) bitmap_line::y1)
(label) bitmap_line::@1
(label) bitmap_line::@10
(label) bitmap_line::@11
(label) bitmap_line::@12
(label) bitmap_line::@13
(label) bitmap_line::@14
(label) bitmap_line::@2
(label) bitmap_line::@3
(label) bitmap_line::@4
(label) bitmap_line::@5
(label) bitmap_line::@6
(label) bitmap_line::@7
(label) bitmap_line::@8
(label) bitmap_line::@9
(label) bitmap_line::@return
(byte) bitmap_line::x0
(byte) bitmap_line::x0#0 x0 zp[1]:17 3956.956521739131
(byte) bitmap_line::x1
(byte) bitmap_line::x1#0 x1 zp[1]:19 4136.818181818182
(byte) bitmap_line::xd
(byte) bitmap_line::xd#1 xd zp[1]:15 3500.3500000000004
(byte) bitmap_line::xd#2 xd zp[1]:15 3500.3500000000004
(byte) bitmap_line::y0
(byte) bitmap_line::y0#0 reg byte x 5762.52380952381
(byte) bitmap_line::y1
(byte) bitmap_line::y1#0 y1 zp[1]:16 6050.6500000000015
(byte) bitmap_line::yd
(byte) bitmap_line::yd#1 reg byte y 4444.888888888889
(byte) bitmap_line::yd#10 reg byte y 4444.888888888889
(byte) bitmap_line::yd#11 reg byte y 4444.888888888889
(byte) bitmap_line::yd#2 reg byte y 4444.888888888889
(void()) bitmap_line_xdyd((byte) bitmap_line_xdyd::x , (byte) bitmap_line_xdyd::y , (byte) bitmap_line_xdyd::x1 , (byte) bitmap_line_xdyd::xd , (byte) bitmap_line_xdyd::yd)
(byte~) bitmap_line_xdyd::$6 reg byte a 2.0000002E7
(label) bitmap_line_xdyd::@1
(label) bitmap_line_xdyd::@2
(label) bitmap_line_xdyd::@3
(label) bitmap_line_xdyd::@4
(label) bitmap_line_xdyd::@return
(byte) bitmap_line_xdyd::e
(byte) bitmap_line_xdyd::e#0 e zp[1]:18 200002.0
(byte) bitmap_line_xdyd::e#1 e zp[1]:18 1.3333334666666666E7
(byte) bitmap_line_xdyd::e#2 e zp[1]:18 2.0000002E7
(byte) bitmap_line_xdyd::e#3 e zp[1]:18 4020000.5999999996
(byte) bitmap_line_xdyd::e#6 e zp[1]:18 1.0000001E7
(byte) bitmap_line_xdyd::x
(byte) bitmap_line_xdyd::x#0 x zp[1]:28 4000.4
(byte) bitmap_line_xdyd::x#1 x zp[1]:28 4000.4
(byte) bitmap_line_xdyd::x#2 x zp[1]:28 3750000.375
(byte) bitmap_line_xdyd::x#3 x zp[1]:28 7525001.0
(byte) bitmap_line_xdyd::x#6 x zp[1]:28 60001.5
(byte) bitmap_line_xdyd::x1
(byte) bitmap_line_xdyd::x1#0 x1 zp[1]:17 6667.333333333333
(byte) bitmap_line_xdyd::x1#1 x1 zp[1]:17 6667.333333333333
(byte) bitmap_line_xdyd::x1#6 x1 zp[1]:17 715714.5
(byte) bitmap_line_xdyd::xd
(byte) bitmap_line_xdyd::xd#0 xd zp[1]:15 10001.0
(byte) bitmap_line_xdyd::xd#1 xd zp[1]:15 10001.0
(byte) bitmap_line_xdyd::xd#5 xd zp[1]:15 1430000.2857142857
(byte) bitmap_line_xdyd::y
(byte) bitmap_line_xdyd::y#0 reg byte x 5000.5
(byte) bitmap_line_xdyd::y#1 reg byte x 5000.5
(byte) bitmap_line_xdyd::y#2 reg byte x 1.0000001E7
(byte) bitmap_line_xdyd::y#3 reg byte x 5728572.142857142
(byte) bitmap_line_xdyd::y#5 reg byte x 60001.5
(byte) bitmap_line_xdyd::y#6 reg byte x 1.0000001E7
(byte) bitmap_line_xdyd::yd
(byte) bitmap_line_xdyd::yd#0 yd zp[1]:14 20002.0
(byte) bitmap_line_xdyd::yd#1 yd zp[1]:14 20002.0
(byte) bitmap_line_xdyd::yd#2 yd zp[1]:14 722857.4285714285
(void()) bitmap_line_xdyi((byte) bitmap_line_xdyi::x , (byte) bitmap_line_xdyi::y , (byte) bitmap_line_xdyi::x1 , (byte) bitmap_line_xdyi::xd , (byte) bitmap_line_xdyi::yd)
(byte~) bitmap_line_xdyi::$6 reg byte a 2.0000002E7
(label) bitmap_line_xdyi::@1
(label) bitmap_line_xdyi::@2
(label) bitmap_line_xdyi::@3
(label) bitmap_line_xdyi::@4
(label) bitmap_line_xdyi::@return
(byte) bitmap_line_xdyi::e
(byte) bitmap_line_xdyi::e#0 e zp[1]:18 200002.0
(byte) bitmap_line_xdyi::e#1 e zp[1]:18 1.3333334666666666E7
(byte) bitmap_line_xdyi::e#2 e zp[1]:18 2.0000002E7
(byte) bitmap_line_xdyi::e#3 e zp[1]:18 4020000.5999999996
(byte) bitmap_line_xdyi::e#6 e zp[1]:18 1.0000001E7
(byte) bitmap_line_xdyi::x
(byte) bitmap_line_xdyi::x#0 x zp[1]:14 4000.4
(byte) bitmap_line_xdyi::x#1 x zp[1]:14 4000.4
(byte) bitmap_line_xdyi::x#2 x zp[1]:14 3750000.375
(byte) bitmap_line_xdyi::x#3 x zp[1]:14 7525001.0
(byte) bitmap_line_xdyi::x#6 x zp[1]:14 60001.5
(byte) bitmap_line_xdyi::x1
(byte) bitmap_line_xdyi::x1#0 x1 zp[1]:19 6667.333333333333
(byte) bitmap_line_xdyi::x1#1 x1 zp[1]:19 6667.333333333333
(byte) bitmap_line_xdyi::x1#6 x1 zp[1]:19 715714.5
(byte) bitmap_line_xdyi::xd
(byte) bitmap_line_xdyi::xd#0 xd zp[1]:15 10001.0
(byte) bitmap_line_xdyi::xd#1 xd zp[1]:15 10001.0
(byte) bitmap_line_xdyi::xd#5 xd zp[1]:15 1430000.2857142857
(byte) bitmap_line_xdyi::y
(byte) bitmap_line_xdyi::y#0 reg byte x 5000.5
(byte) bitmap_line_xdyi::y#1 reg byte x 5000.5
(byte) bitmap_line_xdyi::y#2 reg byte x 1.0000001E7
(byte) bitmap_line_xdyi::y#3 reg byte x 5728572.142857142
(byte) bitmap_line_xdyi::y#5 reg byte x 60001.5
(byte) bitmap_line_xdyi::y#6 reg byte x 1.0000001E7
(byte) bitmap_line_xdyi::yd
(byte) bitmap_line_xdyi::yd#0 yd zp[1]:13 20002.0
(byte) bitmap_line_xdyi::yd#1 yd zp[1]:13 20002.0
(byte) bitmap_line_xdyi::yd#2 yd zp[1]:13 722857.4285714285
(void()) bitmap_line_ydxd((byte) bitmap_line_ydxd::y , (byte) bitmap_line_ydxd::x , (byte) bitmap_line_ydxd::y1 , (byte) bitmap_line_ydxd::yd , (byte) bitmap_line_ydxd::xd)
(byte~) bitmap_line_ydxd::$6 reg byte x 2.0000002E7
(label) bitmap_line_ydxd::@1
(label) bitmap_line_ydxd::@2
(label) bitmap_line_ydxd::@3
(label) bitmap_line_ydxd::@4
(label) bitmap_line_ydxd::@return
(byte) bitmap_line_ydxd::e
(byte) bitmap_line_ydxd::e#0 e zp[1]:28 200002.0
(byte) bitmap_line_ydxd::e#1 e zp[1]:28 1.3333334666666666E7
(byte) bitmap_line_ydxd::e#2 e zp[1]:28 2.0000002E7
(byte) bitmap_line_ydxd::e#3 e zp[1]:28 4020000.5999999996
(byte) bitmap_line_ydxd::e#6 e zp[1]:28 1.0000001E7
(byte) bitmap_line_ydxd::x
(byte) bitmap_line_ydxd::x#0 x zp[1]:17 5000.5
(byte) bitmap_line_ydxd::x#1 x zp[1]:17 5000.5
(byte) bitmap_line_ydxd::x#2 x zp[1]:17 1.0000001E7
(byte) bitmap_line_ydxd::x#3 x zp[1]:17 5728572.142857142
(byte) bitmap_line_ydxd::x#5 x zp[1]:17 60001.5
(byte) bitmap_line_ydxd::x#6 x zp[1]:17 1.0000001E7
(byte) bitmap_line_ydxd::xd
(byte) bitmap_line_ydxd::xd#0 xd zp[1]:15 20002.0
(byte) bitmap_line_ydxd::xd#1 xd zp[1]:15 20002.0
(byte) bitmap_line_ydxd::xd#2 xd zp[1]:15 722857.4285714285
(byte) bitmap_line_ydxd::y
(byte) bitmap_line_ydxd::y#0 y zp[1]:14 4000.4
(byte) bitmap_line_ydxd::y#1 y zp[1]:14 4000.4
(byte) bitmap_line_ydxd::y#2 y zp[1]:14 7525001.0
(byte) bitmap_line_ydxd::y#3 y zp[1]:14 3750000.375
(byte) bitmap_line_ydxd::y#7 y zp[1]:14 60001.5
(byte) bitmap_line_ydxd::y1
(byte) bitmap_line_ydxd::y1#0 y1 zp[1]:16 6667.333333333333
(byte) bitmap_line_ydxd::y1#1 y1 zp[1]:16 6667.333333333333
(byte) bitmap_line_ydxd::y1#6 y1 zp[1]:16 715714.5
(byte) bitmap_line_ydxd::yd
(byte) bitmap_line_ydxd::yd#0 yd zp[1]:18 10001.0
(byte) bitmap_line_ydxd::yd#1 yd zp[1]:18 10001.0
(byte) bitmap_line_ydxd::yd#5 yd zp[1]:18 1430000.2857142857
(void()) bitmap_line_ydxi((byte) bitmap_line_ydxi::y , (byte) bitmap_line_ydxi::x , (byte) bitmap_line_ydxi::y1 , (byte) bitmap_line_ydxi::yd , (byte) bitmap_line_ydxi::xd)
(byte~) bitmap_line_ydxi::$6 reg byte x 2.0000002E7
(label) bitmap_line_ydxi::@1
(label) bitmap_line_ydxi::@2
(label) bitmap_line_ydxi::@3
(label) bitmap_line_ydxi::@4
(label) bitmap_line_ydxi::@return
(byte) bitmap_line_ydxi::e
(byte) bitmap_line_ydxi::e#0 e zp[1]:19 200002.0
(byte) bitmap_line_ydxi::e#1 e zp[1]:19 1.3333334666666666E7
(byte) bitmap_line_ydxi::e#2 e zp[1]:19 2.0000002E7
(byte) bitmap_line_ydxi::e#3 e zp[1]:19 4020000.5999999996
(byte) bitmap_line_ydxi::e#6 e zp[1]:19 1.0000001E7
(byte) bitmap_line_ydxi::x
(byte) bitmap_line_ydxi::x#0 x zp[1]:17 5000.5
(byte) bitmap_line_ydxi::x#1 x zp[1]:17 5000.5
(byte) bitmap_line_ydxi::x#2 x zp[1]:17 1.0000001E7
(byte) bitmap_line_ydxi::x#3 x zp[1]:17 5728572.142857142
(byte) bitmap_line_ydxi::x#5 x zp[1]:17 60001.5
(byte) bitmap_line_ydxi::x#6 x zp[1]:17 1.0000001E7
(byte) bitmap_line_ydxi::xd
(byte) bitmap_line_ydxi::xd#0 xd zp[1]:15 20002.0
(byte) bitmap_line_ydxi::xd#1 xd zp[1]:15 20002.0
(byte) bitmap_line_ydxi::xd#2 xd zp[1]:15 722857.4285714285
(byte) bitmap_line_ydxi::y
(byte) bitmap_line_ydxi::y#0 y zp[1]:14 4000.4
(byte) bitmap_line_ydxi::y#1 y zp[1]:14 4000.4
(byte) bitmap_line_ydxi::y#2 y zp[1]:14 3750000.375
(byte) bitmap_line_ydxi::y#3 y zp[1]:14 7525001.0
(byte) bitmap_line_ydxi::y#6 y zp[1]:14 60001.5
(byte) bitmap_line_ydxi::y1
(byte) bitmap_line_ydxi::y1#0 y1 zp[1]:16 6667.333333333333
(byte) bitmap_line_ydxi::y1#1 y1 zp[1]:16 6667.333333333333
(byte) bitmap_line_ydxi::y1#6 y1 zp[1]:16 715714.5
(byte) bitmap_line_ydxi::yd
(byte) bitmap_line_ydxi::yd#0 yd zp[1]:13 10001.0
(byte) bitmap_line_ydxi::yd#1 yd zp[1]:13 10001.0
(byte) bitmap_line_ydxi::yd#5 yd zp[1]:13 1430000.2857142857
(void()) bitmap_plot((byte) bitmap_plot::x , (byte) bitmap_plot::y)
(byte~) bitmap_plot::$1 reg byte a 2.00000002E8
(label) bitmap_plot::@return
(byte*) bitmap_plot::plotter
(word) bitmap_plot::plotter#0 plotter zp[2]:29 5.00000005E7
(word) bitmap_plot::plotter_x
(word) bitmap_plot::plotter_x#0 plotter_x zp[2]:29 1.00000001E8
(word) bitmap_plot::plotter_y
(word) bitmap_plot::plotter_y#0 plotter_y zp[2]:31 2.00000002E8
(byte) bitmap_plot::x
(byte) bitmap_plot::x#0 reg byte y 1.0000001E7
(byte) bitmap_plot::x#1 reg byte y 1.0000001E7
(byte) bitmap_plot::x#2 reg byte y 1.0000001E7
(byte) bitmap_plot::x#3 reg byte y 1.0000001E7
(byte) bitmap_plot::x#4 reg byte y 8.500000175E7
(byte) bitmap_plot::y
(byte) bitmap_plot::y#0 reg byte x 2.0000002E7
(byte) bitmap_plot::y#1 reg byte x 2.0000002E7
(byte) bitmap_plot::y#2 reg byte x 2.0000002E7
(byte) bitmap_plot::y#3 reg byte x 2.0000002E7
(byte) bitmap_plot::y#4 reg byte x 1.20000003E8
(const to_nomodify byte*) bitmap_plot_bit[(number) $100]  = { fill( $100, 0) }
(const to_nomodify byte*) bitmap_plot_xhi[(number) $100]  = { fill( $100, 0) }
(const to_nomodify byte*) bitmap_plot_xlo[(number) $100]  = { fill( $100, 0) }
(const to_nomodify byte*) bitmap_plot_yhi[(number) $100]  = { fill( $100, 0) }
(const to_nomodify byte*) bitmap_plot_ylo[(number) $100]  = { fill( $100, 0) }
(void()) dtvSetCpuBankSegment1((byte) dtvSetCpuBankSegment1::cpuBankIdx)
(label) dtvSetCpuBankSegment1::@return
(const byte*) dtvSetCpuBankSegment1::cpuBank = (byte*) 255
(byte) dtvSetCpuBankSegment1::cpuBankIdx
(byte) dtvSetCpuBankSegment1::cpuBankIdx#1 reg byte a 20002.0
(byte) dtvSetCpuBankSegment1::cpuBankIdx#11 reg byte a 2002.0
(byte) dtvSetCpuBankSegment1::cpuBankIdx#13 reg byte a 111003.0
(const nomodify byte*) form_a_mod_hi = (const byte*) form_fields_val+(byte) $f
(const nomodify byte*) form_a_mod_lo = (const byte*) form_fields_val+(byte) $10
(const nomodify byte*) form_a_pattern = (const byte*) form_fields_val+(byte) $a
(const nomodify byte*) form_a_start_hi = (const byte*) form_fields_val+(byte) $b
(const nomodify byte*) form_a_start_lo = (const byte*) form_fields_val+(byte) $c
(const nomodify byte*) form_a_step_hi = (const byte*) form_fields_val+(byte) $d
(const nomodify byte*) form_a_step_lo = (const byte*) form_fields_val+(byte) $e
(const nomodify byte*) form_b_mod_hi = (const byte*) form_fields_val+(byte) $16
(const nomodify byte*) form_b_mod_lo = (const byte*) form_fields_val+(byte) $17
(const nomodify byte*) form_b_pattern = (const byte*) form_fields_val+(byte) $11
(const nomodify byte*) form_b_start_hi = (const byte*) form_fields_val+(byte) $12
(const nomodify byte*) form_b_start_lo = (const byte*) form_fields_val+(byte) $13
(const nomodify byte*) form_b_step_hi = (const byte*) form_fields_val+(byte) $14
(const nomodify byte*) form_b_step_lo = (const byte*) form_fields_val+(byte) $15
(byte()) form_control()
(byte~) form_control::$12 reg byte a 2000002.0
(byte~) form_control::$13 reg byte a 2000002.0
(byte~) form_control::$14 reg byte a 2000002.0
(byte~) form_control::$15 reg byte a 2000002.0
(byte~) form_control::$22 reg byte a 2000002.0
(label) form_control::@1
(label) form_control::@10
(label) form_control::@11
(label) form_control::@12
(label) form_control::@13
(label) form_control::@14
(label) form_control::@15
(label) form_control::@16
(label) form_control::@17
(label) form_control::@18
(label) form_control::@19
(label) form_control::@2
(label) form_control::@20
(label) form_control::@21
(label) form_control::@22
(label) form_control::@23
(label) form_control::@3
(label) form_control::@4
(label) form_control::@5
(label) form_control::@6
(label) form_control::@7
(label) form_control::@8
(label) form_control::@9
(label) form_control::@return
(byte*) form_control::field
(byte*) form_control::field#0 field zp[2]:31 296296.5925925926
(byte) form_control::key_event
(byte) form_control::key_event#0 reg byte a 1333334.6666666667
(byte) form_control::return
(byte) form_control::return#0 reg byte a 200002.0
(byte) form_control::return#2 reg byte x 33333.666666666664
(const nomodify byte*) form_ctrl_bmm = (const byte*) form_fields_val+(byte) 1
(const nomodify byte*) form_ctrl_borof = (const byte*) form_fields_val+(byte) 8
(const nomodify byte*) form_ctrl_chunk = (const byte*) form_fields_val+(byte) 7
(const nomodify byte*) form_ctrl_colof = (const byte*) form_fields_val+(byte) 6
(const nomodify byte*) form_ctrl_ecm = (const byte*) form_fields_val+(byte) 3
(const nomodify byte*) form_ctrl_hicol = (const byte*) form_fields_val+(byte) 4
(const nomodify byte*) form_ctrl_line = (const byte*) form_fields_val+(byte) 5
(const nomodify byte*) form_ctrl_mcm = (const byte*) form_fields_val+(byte) 2
(const nomodify byte*) form_ctrl_overs = (const byte*) form_fields_val+(byte) 9
(signed byte) form_cursor_count
(signed byte) form_cursor_count#1 form_cursor_count zp[1]:17 2.871794871794872
(signed byte) form_cursor_count#16 form_cursor_count zp[1]:17 200000.2
(signed byte) form_cursor_count#17 form_cursor_count zp[1]:17 182942.11764705883
(signed byte) form_cursor_count#23 form_cursor_count zp[1]:17 158586.2857142857
(signed byte) form_cursor_count#4 form_cursor_count zp[1]:17 1000001.0
(const nomodify byte*) form_dtv_palet = (const byte*) form_fields_val+(byte) $1b
(byte) form_field_idx
(byte) form_field_idx#1 form_field_idx zp[1]:2 2.871794871794872
(byte) form_field_idx#19 form_field_idx zp[1]:2 241765.70588235295
(byte) form_field_idx#30 form_field_idx zp[1]:2 438721.0256410255
(byte) form_field_idx#33 form_field_idx zp[1]:2 3000003.0
(byte) form_field_idx#4 form_field_idx zp[1]:2 1000001.0
(byte) form_field_idx#5 form_field_idx zp[1]:2 1000001.0
(byte*()) form_field_ptr((byte) form_field_ptr::field_idx)
(label) form_field_ptr::@return
(byte*) form_field_ptr::field
(byte) form_field_ptr::field_idx
(byte) form_field_ptr::field_idx#0 reg byte x 2.00000002E8
(byte) form_field_ptr::field_idx#1 reg byte x 2000002.0
(byte) form_field_ptr::field_idx#2 reg byte x 7.003333346666667E8
(byte*) form_field_ptr::line
(word) form_field_ptr::line#0 line zp[2]:29 2.000000002E8
(byte*) form_field_ptr::return
(byte*) form_field_ptr::return#0 return zp[2]:31 3.336666673333334E8
(byte*) form_field_ptr::return#3 return zp[2]:31 2000002.0
(byte) form_field_ptr::x
(byte) form_field_ptr::x#0 x zp[1]:28 5.2500000075E8
(byte) form_field_ptr::y
(byte) form_field_ptr::y#0 reg byte y 3.000000003E9
(const byte) form_fields_cnt = (byte) $24
(const byte*) form_fields_max[]  = { (byte) $a, (byte) 1, (byte) 1, (byte) 1, (byte) 1, (byte) 1, (byte) 1, (byte) 1, (byte) 1, (byte) 1, (byte) $d, (byte) $f, (byte) $f, (byte) $f, (byte) $f, (byte) $f, (byte) $f, (byte) $d, (byte) $f, (byte) $f, (byte) $f, (byte) $f, (byte) $f, (byte) $f, (byte) 3, (byte) 1, (byte) 4, (byte) 1, (byte) $f, (byte) $f, (byte) $f, (byte) $f, (byte) $f, (byte) $f, (byte) $f, (byte) $f }
(const byte*) form_fields_val[]  = { (byte) 0, (byte) 0, (byte) 0, (byte) 0, (byte) 0, (byte) 0, (byte) 0, (byte) 0, (byte) 0, (byte) 0, (byte) 0, (byte) 0, (byte) 0, (byte) 0, (byte) 0, (byte) 0, (byte) 0, (byte) 0, (byte) 0, (byte) 0, (byte) 0, (byte) 0, (byte) 0, (byte) 0, (byte) 0, (byte) 0, (byte) 0, (byte) 0, (byte) 0, (byte) 0, (byte) 0, (byte) 0, (byte) 0, (byte) 0, (byte) 0, (byte) 0 }
(const byte*) form_fields_x[]  = { (byte) 8, (byte) $c, (byte) $c, (byte) $c, (byte) $c, (byte) $c, (byte) $c, (byte) $c, (byte) $c, (byte) $c, (byte) $19, (byte) $18, (byte) $19, (byte) $18, (byte) $19, (byte) $18, (byte) $19, (byte) $19, (byte) $18, (byte) $19, (byte) $18, (byte) $19, (byte) $18, (byte) $19, (byte) $25, (byte) $25, (byte) $25, (byte) $25, (byte) $24, (byte) $25, (byte) $24, (byte) $25, (byte) $24, (byte) $25, (byte) $24, (byte) $25 }
(const byte*) form_fields_y[]  = { (byte) 2, (byte) 5, (byte) 6, (byte) 7, (byte) 8, (byte) 9, (byte) $a, (byte) $b, (byte) $c, (byte) $d, (byte) 5, (byte) 6, (byte) 6, (byte) 7, (byte) 7, (byte) 8, (byte) 8, (byte) $b, (byte) $c, (byte) $c, (byte) $d, (byte) $d, (byte) $e, (byte) $e, (byte) 5, (byte) 6, (byte) 7, (byte) $a, (byte) $b, (byte) $b, (byte) $c, (byte) $c, (byte) $d, (byte) $d, (byte) $e, (byte) $e }
(const byte*) form_line_hi[(number) $19]  = { fill( $19, 0) }
(const byte*) form_line_lo[(number) $19]  = { fill( $19, 0) }
(void()) form_mode()
(byte~) form_mode::$11 reg byte a 200002.0
(label) form_mode::@1
(label) form_mode::@10
(label) form_mode::@11
(label) form_mode::@12
(label) form_mode::@13
(label) form_mode::@14
(label) form_mode::@15
(label) form_mode::@16
(label) form_mode::@17
(label) form_mode::@18
(label) form_mode::@19
(label) form_mode::@2
(label) form_mode::@3
(label) form_mode::@4
(label) form_mode::@5
(label) form_mode::@6
(label) form_mode::@7
(label) form_mode::@8
(label) form_mode::@9
(label) form_mode::@return
(byte) form_mode::i
(byte) form_mode::i#1 reg byte x 15001.5
(byte) form_mode::i#2 reg byte x 20002.0
(byte) form_mode::preset_current
(byte) form_mode::preset_current#0 preset_current zp[1]:14 202.0
(byte) form_mode::preset_current#1 preset_current zp[1]:14 5000.5
(byte) form_mode::preset_current#6 preset_current zp[1]:14 38763.125
(void()) form_render_values()
(label) form_render_values::@1
(label) form_render_values::@2
(label) form_render_values::@3
(label) form_render_values::@return
(byte*) form_render_values::field
(byte) form_render_values::idx
(byte) form_render_values::idx#1 reg byte x 2.00000002E8
(byte) form_render_values::idx#2 reg byte x 1.00000001E8
(void()) form_set_screen((byte*) form_set_screen::screen)
(byte~) form_set_screen::$0 reg byte a 200002.0
(byte~) form_set_screen::$1 reg byte a 200002.0
(label) form_set_screen::@1
(label) form_set_screen::@return
(byte*) form_set_screen::line
(byte*) form_set_screen::line#1 line zp[2]:7 66667.33333333333
(byte*) form_set_screen::line#2 line zp[2]:7 80000.8
(byte*) form_set_screen::screen
(byte) form_set_screen::y
(byte) form_set_screen::y#1 reg byte x 150001.5
(byte) form_set_screen::y#2 reg byte x 66667.33333333333
(const nomodify byte*) form_vic_bg0_hi = (const byte*) form_fields_val+(byte) $1c
(const nomodify byte*) form_vic_bg0_lo = (const byte*) form_fields_val+(byte) $1d
(const nomodify byte*) form_vic_bg1_hi = (const byte*) form_fields_val+(byte) $1e
(const nomodify byte*) form_vic_bg1_lo = (const byte*) form_fields_val+(byte) $1f
(const nomodify byte*) form_vic_bg2_hi = (const byte*) form_fields_val+(byte) $20
(const nomodify byte*) form_vic_bg2_lo = (const byte*) form_fields_val+(byte) $21
(const nomodify byte*) form_vic_bg3_hi = (const byte*) form_fields_val+(byte) $22
(const nomodify byte*) form_vic_bg3_lo = (const byte*) form_fields_val+(byte) $23
(const nomodify byte*) form_vic_cols = (const byte*) form_fields_val+(byte) $1a
(const nomodify byte*) form_vic_gfx = (const byte*) form_fields_val+(byte) $19
(const nomodify byte*) form_vic_screen = (const byte*) form_fields_val+(byte) $18
(dword()) get_plane((byte) get_plane::idx)
(label) get_plane::@1
(label) get_plane::@10
(label) get_plane::@11
(label) get_plane::@12
(label) get_plane::@13
(label) get_plane::@14
(label) get_plane::@2
(label) get_plane::@3
(label) get_plane::@4
(label) get_plane::@5
(label) get_plane::@6
(label) get_plane::@7
(label) get_plane::@8
(label) get_plane::@9
(label) get_plane::@return
(byte) get_plane::idx
(byte) get_plane::idx#0 reg byte a 202.0
(byte) get_plane::idx#1 reg byte a 202.0
(byte) get_plane::idx#10 reg byte a 1015.4285714285714
(dword) get_plane::return
(dword) get_plane::return#14 return zp[4]:9 50.5
(dword) get_plane::return#16 return zp[4]:9 202.0
(dword) get_plane::return#17 return zp[4]:9 202.0
(byte*()) get_vic_charset((byte) get_vic_charset::idx)
(label) get_vic_charset::@1
(label) get_vic_charset::@2
(label) get_vic_charset::@return
(byte) get_vic_charset::idx
(byte) get_vic_charset::idx#0 reg byte a 1051.5
(byte*) get_vic_charset::return
(byte*) get_vic_charset::return#2 return zp[2]:7 33.666666666666664
(byte*) get_vic_charset::return#4 return zp[2]:7 202.0
(byte*()) get_vic_screen((byte) get_vic_screen::idx)
(label) get_vic_screen::@1
(label) get_vic_screen::@2
(label) get_vic_screen::@3
(label) get_vic_screen::@4
(label) get_vic_screen::@5
(label) get_vic_screen::@return
(byte) get_vic_screen::idx
(byte) get_vic_screen::idx#0 reg byte a 202.0
(byte) get_vic_screen::idx#1 reg byte a 202.0
(byte) get_vic_screen::idx#2 reg byte a 1041.4
(byte*) get_vic_screen::return
(byte*) get_vic_screen::return#10 return zp[2]:3 202.0
(byte*) get_vic_screen::return#11 return zp[2]:3 202.0
(byte*) get_vic_screen::return#5 return zp[2]:3 50.5
(void()) gfx_init()
(label) gfx_init::@1
(label) gfx_init::@10
(label) gfx_init::@11
(label) gfx_init::@12
(label) gfx_init::@13
(label) gfx_init::@14
(label) gfx_init::@2
(label) gfx_init::@3
(label) gfx_init::@4
(label) gfx_init::@5
(label) gfx_init::@6
(label) gfx_init::@7
(label) gfx_init::@8
(label) gfx_init::@9
(label) gfx_init::@return
(void()) gfx_init_charset()
(label) gfx_init_charset::@1
(label) gfx_init_charset::@2
(label) gfx_init_charset::@3
(label) gfx_init_charset::@4
(label) gfx_init_charset::@return
(byte) gfx_init_charset::c
(byte) gfx_init_charset::c#1 c zp[1]:17 1501.5
(byte) gfx_init_charset::c#4 c zp[1]:17 286.0
(byte*) gfx_init_charset::chargen
(byte*) gfx_init_charset::chargen#1 chargen zp[2]:5 4200.6
(byte*) gfx_init_charset::chargen#2 chargen zp[2]:5 10334.666666666666
(byte*) gfx_init_charset::chargen#3 chargen zp[2]:5 2002.0
(byte*) gfx_init_charset::charset
(byte*) gfx_init_charset::charset#1 charset zp[2]:3 3500.5
(byte*) gfx_init_charset::charset#2 charset zp[2]:3 15502.0
(byte*) gfx_init_charset::charset#3 charset zp[2]:3 2002.0
(byte) gfx_init_charset::l
(byte) gfx_init_charset::l#1 reg byte x 15001.5
(byte) gfx_init_charset::l#2 reg byte x 5000.5
(void()) gfx_init_plane_8bppchunky()
(word~) gfx_init_plane_8bppchunky::$5 zp[2]:29 10001.0
(label) gfx_init_plane_8bppchunky::@1
(label) gfx_init_plane_8bppchunky::@2
(label) gfx_init_plane_8bppchunky::@3
(label) gfx_init_plane_8bppchunky::@4
(label) gfx_init_plane_8bppchunky::@5
(label) gfx_init_plane_8bppchunky::@6
(label) gfx_init_plane_8bppchunky::@7
(label) gfx_init_plane_8bppchunky::@return
(byte) gfx_init_plane_8bppchunky::c
(byte) gfx_init_plane_8bppchunky::c#0 reg byte a 20002.0
(byte*) gfx_init_plane_8bppchunky::gfxb
(byte*) gfx_init_plane_8bppchunky::gfxb#1 gfxb zp[2]:5 4200.6
(byte*) gfx_init_plane_8bppchunky::gfxb#3 gfxb zp[2]:5 15502.0
(byte*) gfx_init_plane_8bppchunky::gfxb#4 gfxb zp[2]:5 7500.75
(byte*) gfx_init_plane_8bppchunky::gfxb#5 gfxb zp[2]:5 2002.0
(byte) gfx_init_plane_8bppchunky::gfxbCpuBank
(byte) gfx_init_plane_8bppchunky::gfxbCpuBank#2 reg byte x 20002.0
(byte) gfx_init_plane_8bppchunky::gfxbCpuBank#4 reg byte x 10251.25
(byte) gfx_init_plane_8bppchunky::gfxbCpuBank#7 reg byte x 2002.0
(byte) gfx_init_plane_8bppchunky::gfxbCpuBank#8 reg byte x 3444.8888888888887
(word) gfx_init_plane_8bppchunky::x
(word) gfx_init_plane_8bppchunky::x#1 x zp[2]:3 15001.5
(word) gfx_init_plane_8bppchunky::x#2 x zp[2]:3 3000.3
(byte) gfx_init_plane_8bppchunky::y
(byte) gfx_init_plane_8bppchunky::y#1 y zp[1]:2 1501.5
(byte) gfx_init_plane_8bppchunky::y#6 y zp[1]:2 923.3076923076923
(void()) gfx_init_plane_blank()
(label) gfx_init_plane_blank::@return
(void()) gfx_init_plane_charset8()
(byte~) gfx_init_plane_charset8::$2 reg byte a 200002.0
(label) gfx_init_plane_charset8::@1
(label) gfx_init_plane_charset8::@2
(label) gfx_init_plane_charset8::@3
(label) gfx_init_plane_charset8::@4
(label) gfx_init_plane_charset8::@5
(label) gfx_init_plane_charset8::@6
(label) gfx_init_plane_charset8::@7
(label) gfx_init_plane_charset8::@8
(label) gfx_init_plane_charset8::@9
(label) gfx_init_plane_charset8::@return
(byte) gfx_init_plane_charset8::bits
(byte) gfx_init_plane_charset8::bits#0 bits zp[1]:18 10001.0
(byte) gfx_init_plane_charset8::bits#1 bits zp[1]:18 50000.5
(byte) gfx_init_plane_charset8::bits#2 bits zp[1]:18 44286.28571428572
(byte) gfx_init_plane_charset8::c
(byte) gfx_init_plane_charset8::c#2 reg byte a 200002.0
(byte) gfx_init_plane_charset8::c#3 reg byte a 200002.0
(byte) gfx_init_plane_charset8::ch
(byte) gfx_init_plane_charset8::ch#1 ch zp[1]:15 1501.5
(byte) gfx_init_plane_charset8::ch#8 ch zp[1]:15 117.76470588235294
(byte*) gfx_init_plane_charset8::chargen
(byte*) gfx_init_plane_charset8::chargen#1 chargen zp[2]:5 1312.6875
(byte*) gfx_init_plane_charset8::chargen#2 chargen zp[2]:5 15502.0
(byte*) gfx_init_plane_charset8::chargen#3 chargen zp[2]:5 2002.0
(byte) gfx_init_plane_charset8::col
(byte) gfx_init_plane_charset8::col#1 col zp[1]:13 30143.428571428572
(byte) gfx_init_plane_charset8::col#2 col zp[1]:13 38750.5
(byte) gfx_init_plane_charset8::col#5 col zp[1]:13 7001.0
(byte) gfx_init_plane_charset8::col#6 col zp[1]:13 2002.0
(byte) gfx_init_plane_charset8::cp
(byte) gfx_init_plane_charset8::cp#1 reg byte x 150001.5
(byte) gfx_init_plane_charset8::cp#2 reg byte x 22222.444444444445
(byte) gfx_init_plane_charset8::cr
(byte) gfx_init_plane_charset8::cr#1 cr zp[1]:16 15001.5
(byte) gfx_init_plane_charset8::cr#6 cr zp[1]:16 1428.7142857142858
(byte*) gfx_init_plane_charset8::gfxa
(byte*) gfx_init_plane_charset8::gfxa#1 gfxa zp[2]:3 23444.88888888889
(byte*) gfx_init_plane_charset8::gfxa#2 gfxa zp[2]:3 51667.33333333333
(byte*) gfx_init_plane_charset8::gfxa#5 gfxa zp[2]:3 7001.0
(byte*) gfx_init_plane_charset8::gfxa#6 gfxa zp[2]:3 2002.0
(byte) gfx_init_plane_charset8::gfxbCpuBank
(const byte) gfx_init_plane_charset8::gfxbCpuBank#0 gfxbCpuBank = (byte)(const nomodify dword) PLANE_CHARSET8/(word) $4000
(void()) gfx_init_plane_fill((dword) gfx_init_plane_fill::plane_addr , (byte) gfx_init_plane_fill::fill)
(dword~) gfx_init_plane_fill::$0 zp[4]:20 2002.0
(word~) gfx_init_plane_fill::$1 zp[2]:24 2002.0
(word~) gfx_init_plane_fill::$4 zp[2]:26 2002.0
(word~) gfx_init_plane_fill::$5 zp[2]:26 2002.0
(label) gfx_init_plane_fill::@1
(label) gfx_init_plane_fill::@2
(label) gfx_init_plane_fill::@3
(label) gfx_init_plane_fill::@4
(label) gfx_init_plane_fill::@5
(label) gfx_init_plane_fill::@return
(byte) gfx_init_plane_fill::bx
(byte) gfx_init_plane_fill::bx#1 reg byte x 150001.5
(byte) gfx_init_plane_fill::bx#2 reg byte x 66667.33333333333
(byte) gfx_init_plane_fill::by
(byte) gfx_init_plane_fill::by#1 by zp[1]:18 15001.5
(byte) gfx_init_plane_fill::by#4 by zp[1]:18 3333.6666666666665
(byte) gfx_init_plane_fill::fill
(byte) gfx_init_plane_fill::fill#6 fill zp[1]:16 5555.611111111111
(byte*) gfx_init_plane_fill::gfxb
(word) gfx_init_plane_fill::gfxb#0 gfxb zp[2]:26 1001.0
(byte*) gfx_init_plane_fill::gfxb#1 gfxb zp[2]:26 42000.600000000006
(byte*) gfx_init_plane_fill::gfxb#2 gfxb zp[2]:26 155002.0
(byte*) gfx_init_plane_fill::gfxb#3 gfxb zp[2]:26 21003.0
(byte*) gfx_init_plane_fill::gfxb#6 gfxb zp[2]:26 2002.0
(byte) gfx_init_plane_fill::gfxbCpuBank
(byte) gfx_init_plane_fill::gfxbCpuBank#0 reg byte a 2002.0
(dword) gfx_init_plane_fill::plane_addr
(dword) gfx_init_plane_fill::plane_addr#3 plane_addr zp[4]:9 333.6666666666667
(void()) gfx_init_plane_full()
(label) gfx_init_plane_full::@return
(void()) gfx_init_plane_horisontal()
(byte~) gfx_init_plane_horisontal::$2 reg byte a 20002.0
(label) gfx_init_plane_horisontal::@1
(label) gfx_init_plane_horisontal::@2
(label) gfx_init_plane_horisontal::@3
(label) gfx_init_plane_horisontal::@4
(label) gfx_init_plane_horisontal::@5
(label) gfx_init_plane_horisontal::@6
(label) gfx_init_plane_horisontal::@7
(label) gfx_init_plane_horisontal::@return
(byte) gfx_init_plane_horisontal::ax
(byte) gfx_init_plane_horisontal::ax#1 reg byte x 15001.5
(byte) gfx_init_plane_horisontal::ax#2 reg byte x 2500.25
(byte) gfx_init_plane_horisontal::ay
(byte) gfx_init_plane_horisontal::ay#1 ay zp[1]:15 1501.5
(byte) gfx_init_plane_horisontal::ay#4 ay zp[1]:15 1091.181818181818
(byte*) gfx_init_plane_horisontal::gfxa
(byte*) gfx_init_plane_horisontal::gfxa#1 gfxa zp[2]:3 20002.0
(byte*) gfx_init_plane_horisontal::gfxa#2 gfxa zp[2]:3 20002.0
(byte*) gfx_init_plane_horisontal::gfxa#3 gfxa zp[2]:3 10201.2
(byte*) gfx_init_plane_horisontal::gfxa#6 gfxa zp[2]:3 2002.0
(byte*) gfx_init_plane_horisontal::gfxa#7 gfxa zp[2]:3 6200.8
(byte) gfx_init_plane_horisontal::gfxbCpuBank
(const byte) gfx_init_plane_horisontal::gfxbCpuBank#0 gfxbCpuBank = (byte)(const nomodify dword) PLANE_HORISONTAL/(word) $4000
(void()) gfx_init_plane_horisontal2()
(byte~) gfx_init_plane_horisontal2::$2 reg byte a 20002.0
(label) gfx_init_plane_horisontal2::@1
(label) gfx_init_plane_horisontal2::@2
(label) gfx_init_plane_horisontal2::@3
(label) gfx_init_plane_horisontal2::@4
(label) gfx_init_plane_horisontal2::@return
(byte) gfx_init_plane_horisontal2::ax
(byte) gfx_init_plane_horisontal2::ax#1 reg byte x 15001.5
(byte) gfx_init_plane_horisontal2::ax#2 reg byte x 4000.4
(byte) gfx_init_plane_horisontal2::ay
(byte) gfx_init_plane_horisontal2::ay#1 ay zp[1]:18 1501.5
(byte) gfx_init_plane_horisontal2::ay#4 ay zp[1]:18 1500.375
(byte*) gfx_init_plane_horisontal2::gfxa
(byte*) gfx_init_plane_horisontal2::gfxa#1 gfxa zp[2]:5 4200.6
(byte*) gfx_init_plane_horisontal2::gfxa#2 gfxa zp[2]:5 7751.0
(byte*) gfx_init_plane_horisontal2::gfxa#3 gfxa zp[2]:5 2002.0
(byte) gfx_init_plane_horisontal2::gfxbCpuBank
(const byte) gfx_init_plane_horisontal2::gfxbCpuBank#0 gfxbCpuBank = (byte)(const nomodify dword) PLANE_HORISONTAL2/(word) $4000
(byte) gfx_init_plane_horisontal2::row
(byte) gfx_init_plane_horisontal2::row#0 reg byte a 20002.0
(const byte*) gfx_init_plane_horisontal2::row_bitmask[]  = { (byte) 0, (byte) $55, (byte) $aa, (byte) $ff }
(void()) gfx_init_plane_vertical()
(label) gfx_init_plane_vertical::@1
(label) gfx_init_plane_vertical::@2
(label) gfx_init_plane_vertical::@3
(label) gfx_init_plane_vertical::@4
(label) gfx_init_plane_vertical::@return
(byte) gfx_init_plane_vertical::bx
(byte) gfx_init_plane_vertical::bx#1 reg byte x 15001.5
(byte) gfx_init_plane_vertical::bx#2 reg byte x 6667.333333333333
(byte) gfx_init_plane_vertical::by
(byte) gfx_init_plane_vertical::by#1 by zp[1]:16 1501.5
(byte) gfx_init_plane_vertical::by#4 by zp[1]:16 333.6666666666667
(byte*) gfx_init_plane_vertical::gfxb
(byte*) gfx_init_plane_vertical::gfxb#1 gfxb zp[2]:5 4200.6
(byte*) gfx_init_plane_vertical::gfxb#2 gfxb zp[2]:5 15502.0
(byte*) gfx_init_plane_vertical::gfxb#3 gfxb zp[2]:5 2002.0
(byte) gfx_init_plane_vertical::gfxbCpuBank
(const byte) gfx_init_plane_vertical::gfxbCpuBank#0 gfxbCpuBank = (byte)(const nomodify dword) PLANE_VERTICAL/(word) $4000
(void()) gfx_init_plane_vertical2()
(label) gfx_init_plane_vertical2::@return
(void()) gfx_init_screen0()
(byte~) gfx_init_screen0::$0 reg byte a 20002.0
(byte~) gfx_init_screen0::$1 zp[1]:16 10001.0
(byte~) gfx_init_screen0::$2 reg byte a 20002.0
(byte~) gfx_init_screen0::$3 reg byte a 20002.0
(label) gfx_init_screen0::@1
(label) gfx_init_screen0::@2
(label) gfx_init_screen0::@3
(label) gfx_init_screen0::@return
(byte*) gfx_init_screen0::ch
(byte*) gfx_init_screen0::ch#1 ch zp[2]:3 4200.6
(byte*) gfx_init_screen0::ch#2 ch zp[2]:3 5167.333333333333
(byte*) gfx_init_screen0::ch#3 ch zp[2]:3 2002.0
(byte) gfx_init_screen0::cx
(byte) gfx_init_screen0::cx#1 reg byte x 15001.5
(byte) gfx_init_screen0::cx#2 reg byte x 4286.142857142857
(byte) gfx_init_screen0::cy
(byte) gfx_init_screen0::cy#1 cy zp[1]:17 1501.5
(byte) gfx_init_screen0::cy#4 cy zp[1]:17 1200.3
(void()) gfx_init_screen1()
(byte~) gfx_init_screen1::$0 reg byte a 20002.0
(byte~) gfx_init_screen1::$1 reg byte a 20002.0
(label) gfx_init_screen1::@1
(label) gfx_init_screen1::@2
(label) gfx_init_screen1::@3
(label) gfx_init_screen1::@return
(byte*) gfx_init_screen1::ch
(byte*) gfx_init_screen1::ch#1 ch zp[2]:5 4200.6
(byte*) gfx_init_screen1::ch#2 ch zp[2]:5 7751.0
(byte*) gfx_init_screen1::ch#3 ch zp[2]:5 2002.0
(byte) gfx_init_screen1::cx
(byte) gfx_init_screen1::cx#1 reg byte x 15001.5
(byte) gfx_init_screen1::cx#2 reg byte x 6000.6
(byte) gfx_init_screen1::cy
(byte) gfx_init_screen1::cy#1 cy zp[1]:2 1501.5
(byte) gfx_init_screen1::cy#4 cy zp[1]:2 1500.375
(void()) gfx_init_screen2()
(byte~) gfx_init_screen2::$0 reg byte a 20002.0
(byte~) gfx_init_screen2::$3 reg byte a 20002.0
(byte~) gfx_init_screen2::$4 reg byte a 20002.0
(label) gfx_init_screen2::@1
(label) gfx_init_screen2::@2
(label) gfx_init_screen2::@3
(label) gfx_init_screen2::@return
(byte*) gfx_init_screen2::ch
(byte*) gfx_init_screen2::ch#1 ch zp[2]:3 4200.6
(byte*) gfx_init_screen2::ch#2 ch zp[2]:3 4429.142857142857
(byte*) gfx_init_screen2::ch#3 ch zp[2]:3 2002.0
(byte) gfx_init_screen2::col
(byte) gfx_init_screen2::col#0 reg byte y 15001.5
(byte) gfx_init_screen2::col2
(byte) gfx_init_screen2::col2#0 col2 zp[1]:17 10001.0
(byte) gfx_init_screen2::cx
(byte) gfx_init_screen2::cx#1 reg byte x 15001.5
(byte) gfx_init_screen2::cx#2 reg byte x 3750.375
(byte) gfx_init_screen2::cy
(byte) gfx_init_screen2::cy#1 cy zp[1]:14 1501.5
(byte) gfx_init_screen2::cy#4 cy zp[1]:14 1091.181818181818
(void()) gfx_init_screen3()
(byte~) gfx_init_screen3::$0 reg byte a 20002.0
(byte~) gfx_init_screen3::$1 zp[1]:18 10001.0
(byte~) gfx_init_screen3::$2 reg byte a 20002.0
(byte~) gfx_init_screen3::$3 reg byte a 20002.0
(label) gfx_init_screen3::@1
(label) gfx_init_screen3::@2
(label) gfx_init_screen3::@3
(label) gfx_init_screen3::@return
(byte*) gfx_init_screen3::ch
(byte*) gfx_init_screen3::ch#1 ch zp[2]:3 4200.6
(byte*) gfx_init_screen3::ch#2 ch zp[2]:3 5167.333333333333
(byte*) gfx_init_screen3::ch#3 ch zp[2]:3 2002.0
(byte) gfx_init_screen3::cx
(byte) gfx_init_screen3::cx#1 reg byte x 15001.5
(byte) gfx_init_screen3::cx#2 reg byte x 4286.142857142857
(byte) gfx_init_screen3::cy
(byte) gfx_init_screen3::cy#1 cy zp[1]:14 1501.5
(byte) gfx_init_screen3::cy#4 cy zp[1]:14 1200.3
(void()) gfx_init_screen4()
(label) gfx_init_screen4::@1
(label) gfx_init_screen4::@2
(label) gfx_init_screen4::@3
(label) gfx_init_screen4::@return
(byte*) gfx_init_screen4::ch
(byte*) gfx_init_screen4::ch#1 ch zp[2]:5 4200.6
(byte*) gfx_init_screen4::ch#2 ch zp[2]:5 15502.0
(byte*) gfx_init_screen4::ch#3 ch zp[2]:5 2002.0
(byte) gfx_init_screen4::cx
(byte) gfx_init_screen4::cx#1 reg byte x 15001.5
(byte) gfx_init_screen4::cx#2 reg byte x 6667.333333333333
(byte) gfx_init_screen4::cy
(byte) gfx_init_screen4::cy#1 cy zp[1]:17 1501.5
(byte) gfx_init_screen4::cy#4 cy zp[1]:17 333.6666666666667
(void()) gfx_init_vic_bitmap()
(label) gfx_init_vic_bitmap::@1
(label) gfx_init_vic_bitmap::@2
(label) gfx_init_vic_bitmap::@3
(label) gfx_init_vic_bitmap::@4
(label) gfx_init_vic_bitmap::@return
(byte) gfx_init_vic_bitmap::l
(byte) gfx_init_vic_bitmap::l#1 l zp[1]:2 2002.0
(byte) gfx_init_vic_bitmap::l#2 l zp[1]:2 1001.0
(const byte) gfx_init_vic_bitmap::lines_cnt = (byte) 9
(const byte*) gfx_init_vic_bitmap::lines_x[]  = { (byte) 0, (byte) $ff, (byte) $ff, (byte) 0, (byte) 0, (byte) $80, (byte) $ff, (byte) $80, (byte) 0, (byte) $80 }
(const byte*) gfx_init_vic_bitmap::lines_y[]  = { (byte) 0, (byte) 0, (byte) $c7, (byte) $c7, (byte) 0, (byte) 0, (byte) $64, (byte) $c7, (byte) $64, (byte) 0 }
(void()) gfx_mode()
(byte~) gfx_mode::$18 reg byte a 202.0
(dword~) gfx_mode::$20 zp[4]:9 202.0
(byte~) gfx_mode::$23 reg byte a 202.0
(word~) gfx_mode::$24 zp[2]:29 101.0
(byte~) gfx_mode::$25 reg byte a 202.0
(word~) gfx_mode::$26 zp[2]:31 202.0
(byte~) gfx_mode::$27 reg byte a 202.0
(byte~) gfx_mode::$28 reg byte a 202.0
(byte~) gfx_mode::$29 reg byte a 202.0
(byte~) gfx_mode::$30 reg byte a 202.0
(byte~) gfx_mode::$31 reg byte a 202.0
(byte~) gfx_mode::$32 reg byte a 202.0
(dword~) gfx_mode::$34 zp[4]:9 202.0
(byte~) gfx_mode::$37 reg byte a 202.0
(word~) gfx_mode::$38 zp[2]:24 101.0
(byte~) gfx_mode::$39 reg byte a 202.0
(word~) gfx_mode::$40 zp[2]:26 202.0
(byte~) gfx_mode::$41 reg byte a 202.0
(byte~) gfx_mode::$42 reg byte a 202.0
(byte~) gfx_mode::$43 reg byte a 202.0
(byte~) gfx_mode::$44 reg byte a 202.0
(byte~) gfx_mode::$45 reg byte a 202.0
(word~) gfx_mode::$47 zp[2]:3 202.0
(word~) gfx_mode::$48 zp[2]:3 12.625
(word~) gfx_mode::$50 zp[2]:7 202.0
(byte~) gfx_mode::$51 reg byte a 202.0
(byte~) gfx_mode::$52 zp[1]:15 101.0
(byte~) gfx_mode::$53 reg byte a 202.0
(byte~) gfx_mode::$55 reg byte a 202.0
(byte~) gfx_mode::$56 reg byte a 202.0
(byte~) gfx_mode::$57 reg byte a 202.0
(byte~) gfx_mode::$58 reg byte a 202.0
(byte~) gfx_mode::$59 reg byte a 202.0
(byte~) gfx_mode::$60 reg byte a 202.0
(byte~) gfx_mode::$61 reg byte a 202.0
(byte~) gfx_mode::$62 reg byte a 202.0
(byte*~) gfx_mode::$82 zp[2]:3 101.0
(byte*~) gfx_mode::$83 zp[2]:7 101.0
(byte~) gfx_mode::$84 reg byte a 202.0
(label) gfx_mode::@1
(label) gfx_mode::@10
(label) gfx_mode::@11
(label) gfx_mode::@12
(label) gfx_mode::@13
(label) gfx_mode::@14
(label) gfx_mode::@15
(label) gfx_mode::@16
(label) gfx_mode::@17
(label) gfx_mode::@18
(label) gfx_mode::@19
(label) gfx_mode::@2
(label) gfx_mode::@20
(label) gfx_mode::@21
(label) gfx_mode::@22
(label) gfx_mode::@23
(label) gfx_mode::@24
(label) gfx_mode::@25
(label) gfx_mode::@26
(label) gfx_mode::@27
(label) gfx_mode::@28
(label) gfx_mode::@29
(label) gfx_mode::@3
(label) gfx_mode::@30
(label) gfx_mode::@31
(label) gfx_mode::@32
(label) gfx_mode::@33
(label) gfx_mode::@4
(label) gfx_mode::@5
(label) gfx_mode::@6
(label) gfx_mode::@7
(label) gfx_mode::@8
(label) gfx_mode::@9
(label) gfx_mode::@return
(byte*) gfx_mode::col
(byte*) gfx_mode::col#1 col zp[2]:5 35000.5
(byte*) gfx_mode::col#2 col zp[2]:5 155002.0
(byte*) gfx_mode::col#3 col zp[2]:5 20002.0
(byte) gfx_mode::cx
(byte) gfx_mode::cx#1 reg byte x 150001.5
(byte) gfx_mode::cx#2 reg byte x 50000.5
(byte) gfx_mode::cy
(byte) gfx_mode::cy#1 cy zp[1]:14 15001.5
(byte) gfx_mode::cy#4 cy zp[1]:14 2857.4285714285716
(byte) gfx_mode::dtv_control
(byte) gfx_mode::dtv_control#10 reg byte x 202.0
(byte) gfx_mode::dtv_control#11 reg byte x 202.0
(byte) gfx_mode::dtv_control#12 reg byte x 303.0
(byte) gfx_mode::dtv_control#13 reg byte x 202.0
(byte) gfx_mode::dtv_control#14 reg byte x 101.0
(byte) gfx_mode::dtv_control#15 reg byte x 202.0
(byte) gfx_mode::dtv_control#2 reg byte x 202.0
(byte) gfx_mode::dtv_control#3 reg byte x 202.0
(byte) gfx_mode::dtv_control#4 reg byte x 202.0
(byte) gfx_mode::dtv_control#5 reg byte x 202.0
(byte) gfx_mode::dtv_control#6 reg byte x 202.0
(byte) gfx_mode::i
(byte) gfx_mode::i#1 reg byte x 15001.5
(byte) gfx_mode::i#2 reg byte x 20002.0
(byte) gfx_mode::j
(byte) gfx_mode::j#1 reg byte x 15001.5
(byte) gfx_mode::j#2 reg byte x 20002.0
(byte) gfx_mode::keyboard_event
(byte) gfx_mode::keyboard_event#0 reg byte a 20002.0
(dword) gfx_mode::plane_a
(dword) gfx_mode::plane_a#0 plane_a zp[4]:9 50.5
(byte) gfx_mode::plane_a_offs
(byte) gfx_mode::plane_a_offs#0 reg byte x 40.4
(dword) gfx_mode::plane_b
(dword) gfx_mode::plane_b#0 plane_b zp[4]:9 50.5
(byte) gfx_mode::plane_b_offs
(byte) gfx_mode::plane_b_offs#0 reg byte x 40.4
(byte*) gfx_mode::vic_colors
(byte*) gfx_mode::vic_colors#0 vic_colors zp[2]:3 202.0
(byte*) gfx_mode::vic_colors#1 vic_colors zp[2]:3 42000.600000000006
(byte*) gfx_mode::vic_colors#2 vic_colors zp[2]:3 103334.66666666666
(byte*) gfx_mode::vic_colors#3 vic_colors zp[2]:3 20103.0
(byte) gfx_mode::vic_control
(byte) gfx_mode::vic_control#2 reg byte x 202.0
(byte) gfx_mode::vic_control#4 reg byte x 303.0
(byte) gfx_mode::vic_control#5 reg byte x 101.0
(byte) gfx_mode::vic_control2
(byte) gfx_mode::vic_control2#2 reg byte a 101.0
(byte()) keyboard_event_get()
(label) keyboard_event_get::@1
(label) keyboard_event_get::@return
(byte) keyboard_event_get::return
(byte) keyboard_event_get::return#1 reg byte a 2.0000002E7
(byte) keyboard_event_get::return#2 reg byte a 2752500.75
(byte) keyboard_event_get::return#3 reg byte a 20002.0
(byte) keyboard_event_get::return#4 reg byte a 2000002.0
(byte()) keyboard_event_pressed((byte) keyboard_event_pressed::keycode)
(byte~) keyboard_event_pressed::$0 reg byte a 2.00000002E8
(byte~) keyboard_event_pressed::$1 reg byte a 2.00000002E8
(label) keyboard_event_pressed::@return
(byte) keyboard_event_pressed::keycode
(byte) keyboard_event_pressed::keycode#4 keycode zp[1]:18 6.6666667333333336E7
(byte) keyboard_event_pressed::return
(byte) keyboard_event_pressed::return#0 reg byte a 2.0000002E7
(byte) keyboard_event_pressed::return#1 reg byte a 2.0000002E7
(byte) keyboard_event_pressed::return#10 reg byte a 2.3333334166666668E7
(byte) keyboard_event_pressed::return#2 reg byte a 2.0000002E7
(byte) keyboard_event_pressed::return#3 reg byte a 2.0000002E7
(byte) keyboard_event_pressed::row_bits
(byte) keyboard_event_pressed::row_bits#0 row_bits zp[1]:28 1.00000001E8
(void()) keyboard_event_scan()
(byte~) keyboard_event_scan::$0 reg byte a 2.0000002E7
(byte~) keyboard_event_scan::$15 reg byte a 2.000000000002E12
(byte~) keyboard_event_scan::$16 reg byte a 2.000000000002E12
(byte~) keyboard_event_scan::$23 reg byte a 2.000000000002E12
(byte~) keyboard_event_scan::$3 reg byte a 2.0000002E7
(byte~) keyboard_event_scan::$6 reg byte a 2.0000002E7
(byte~) keyboard_event_scan::$9 reg byte a 2.0000002E7
(label) keyboard_event_scan::@1
(label) keyboard_event_scan::@10
(label) keyboard_event_scan::@11
(label) keyboard_event_scan::@12
(label) keyboard_event_scan::@13
(label) keyboard_event_scan::@14
(label) keyboard_event_scan::@15
(label) keyboard_event_scan::@16
(label) keyboard_event_scan::@17
(label) keyboard_event_scan::@18
(label) keyboard_event_scan::@19
(label) keyboard_event_scan::@2
(label) keyboard_event_scan::@20
(label) keyboard_event_scan::@21
(label) keyboard_event_scan::@22
(label) keyboard_event_scan::@23
(label) keyboard_event_scan::@3
(label) keyboard_event_scan::@4
(label) keyboard_event_scan::@5
(label) keyboard_event_scan::@6
(label) keyboard_event_scan::@7
(label) keyboard_event_scan::@8
(label) keyboard_event_scan::@9
(label) keyboard_event_scan::@return
(byte) keyboard_event_scan::col
(byte) keyboard_event_scan::col#1 reg byte x 1.5000000000015E12
(byte) keyboard_event_scan::col#2 reg byte x 2.857142857145714E11
(byte) keyboard_event_scan::event_type
(byte) keyboard_event_scan::event_type#0 reg byte a 2.000000000002E12
(byte) keyboard_event_scan::keycode
(byte) keyboard_event_scan::keycode#1 keycode zp[1]:15 2.00000000002E11
(byte) keyboard_event_scan::keycode#10 keycode zp[1]:15 3.15384615385E11
(byte) keyboard_event_scan::keycode#11 keycode zp[1]:15 5.00000000005E10
(byte) keyboard_event_scan::keycode#13 keycode zp[1]:15 1.00000000001E11
(byte) keyboard_event_scan::keycode#14 keycode zp[1]:15 5.2500000000075E11
(byte) keyboard_event_scan::row
(byte) keyboard_event_scan::row#1 row zp[1]:13 1.500000000015E11
(byte) keyboard_event_scan::row#2 row zp[1]:13 6.000000000024E10
(byte) keyboard_event_scan::row_scan
(byte) keyboard_event_scan::row_scan#0 row_scan zp[1]:19 1.2777777777805557E11
(const byte*) keyboard_events[(number) 8]  = { fill( 8, 0) }
(byte) keyboard_events_size
(byte) keyboard_events_size#0 keyboard_events_size zp[1]:16 2.000000000002E12
(byte) keyboard_events_size#1 keyboard_events_size zp[1]:16 2.000000000002E12
(byte) keyboard_events_size#100 keyboard_events_size zp[1]:16 8.82441176488235E9
(byte) keyboard_events_size#106 keyboard_events_size zp[1]:16 1.0200000000012E12
(byte) keyboard_events_size#107 keyboard_events_size zp[1]:16 4.285857142914285E10
(byte) keyboard_events_size#19 keyboard_events_size zp[1]:16 8.100000000008999E11
(byte) keyboard_events_size#25 keyboard_events_size zp[1]:16 111777.86666666667
(byte) keyboard_events_size#28 keyboard_events_size zp[1]:16 2.871794871794872
(byte) keyboard_events_size#3 keyboard_events_size zp[1]:16 1.50000015E7
(byte) keyboard_events_size#49 keyboard_events_size zp[1]:16 65300.23529411765
(byte) keyboard_events_size#98 keyboard_events_size zp[1]:16 1.1010003E7
(void()) keyboard_init()
(label) keyboard_init::@return
(const byte*) keyboard_matrix_col_bitmask[(number) 8]  = { (byte) 1, (byte) 2, (byte) 4, (byte) 8, (byte) $10, (byte) $20, (byte) $40, (byte) $80 }
(byte()) keyboard_matrix_read((byte) keyboard_matrix_read::rowid)
(label) keyboard_matrix_read::@return
(byte) keyboard_matrix_read::return
(byte) keyboard_matrix_read::return#0 reg byte a 3.666666666673334E11
(byte) keyboard_matrix_read::return#2 reg byte a 2.00000000002E11
(byte) keyboard_matrix_read::row_pressed_bits
(byte) keyboard_matrix_read::rowid
(byte) keyboard_matrix_read::rowid#0 reg byte x 1.100000000002E12
(const byte*) keyboard_matrix_row_bitmask[(number) 8]  = { (byte) $fe, (byte) $fd, (byte) $fb, (byte) $f7, (byte) $ef, (byte) $df, (byte) $bf, (byte) $7f }
(byte) keyboard_modifiers
(byte) keyboard_modifiers#19 reg byte x 4000000.4
(byte) keyboard_modifiers#2 reg byte x 2.0000002E7
(byte) keyboard_modifiers#20 reg byte x 8000000.8
(byte) keyboard_modifiers#21 reg byte x 8000000.8
(byte) keyboard_modifiers#22 reg byte x 2000000.3636363638
(byte) keyboard_modifiers#3 reg byte x 2.0000002E7
(byte) keyboard_modifiers#4 reg byte x 2.0000002E7
(const byte*) keyboard_scan_values[(number) 8]  = { fill( 8, 0) }
(void()) main()
(label) main::@1
(label) main::@2
(label) main::@3
(label) main::@4
(void*()) memset((void*) memset::str , (byte) memset::c , (word) memset::num)
(label) memset::@1
(label) memset::@2
(label) memset::@3
(label) memset::@return
(byte) memset::c
(const byte) memset::c#0 c = (byte) ' '
(byte*) memset::dst
(byte*) memset::dst#1 dst zp[2]:24 2000002.0
(byte*) memset::dst#2 dst zp[2]:24 1336668.3333333335
(byte*) memset::dst#4 dst zp[2]:24 20002.0
(byte*) memset::end
(byte*) memset::end#0 end zp[2]:26 168333.6666666667
(word) memset::num
(const word) memset::num#0 num = (word) $3e8
(void*) memset::return
(void*) memset::str
(void*) memset::str#0 str zp[2]:24 333.6666666666667
(const byte*) preset_8bpppixelcell[]  = { (byte) $a, (byte) 0, (byte) 1, (byte) 1, (byte) 1, (byte) 1, (byte) 0, (byte) 1, (byte) 0, (byte) 0, (byte) 0, (byte) 0, (byte) 0, (byte) 0, (byte) 1, (byte) 0, (byte) 0, (byte) $b, (byte) 0, (byte) 0, (byte) 0, (byte) 0, (byte) 0, (byte) 0, (byte) 0, (byte) 0, (byte) 0, (byte) 1, (byte) 0, (byte) 0, (byte) 0, (byte) 0, (byte) 0, (byte) 0, (byte) 0, (byte) 0 }
(const byte*) preset_chunky[]  = { (byte) 7, (byte) 0, (byte) 1, (byte) 1, (byte) 1, (byte) 1, (byte) 1, (byte) 1, (byte) 0, (byte) 0, (byte) 0, (byte) 0, (byte) 0, (byte) 0, (byte) 0, (byte) 0, (byte) 0, (byte) 6, (byte) 0, (byte) 0, (byte) 0, (byte) 8, (byte) 0, (byte) 0, (byte) 0, (byte) 0, (byte) 0, (byte) 1, (byte) 0, (byte) 0, (byte) 0, (byte) 0, (byte) 0, (byte) 0, (byte) 0, (byte) 0 }
(const byte*) preset_ecmchar[]  = { (byte) 1, (byte) 0, (byte) 0, (byte) 1, (byte) 0, (byte) 0, (byte) 0, (byte) 0, (byte) 0, (byte) 0, (byte) 0, (byte) 0, (byte) 0, (byte) 0, (byte) 0, (byte) 0, (byte) 0, (byte) 0, (byte) 0, (byte) 0, (byte) 0, (byte) 0, (byte) 0, (byte) 0, (byte) 0, (byte) 0, (byte) 1, (byte) 0, (byte) 0, (byte) 0, (byte) 0, (byte) 2, (byte) 0, (byte) 5, (byte) 0, (byte) 6 }
(const byte*) preset_hi_ecmchar[]  = { (byte) 5, (byte) 0, (byte) 0, (byte) 1, (byte) 1, (byte) 0, (byte) 0, (byte) 0, (byte) 0, (byte) 0, (byte) 0, (byte) 0, (byte) 0, (byte) 0, (byte) 0, (byte) 0, (byte) 0, (byte) 0, (byte) 0, (byte) 0, (byte) 0, (byte) 0, (byte) 0, (byte) 0, (byte) 0, (byte) 0, (byte) 0, (byte) 1, (byte) 0, (byte) 3, (byte) 4, (byte) 6, (byte) 8, (byte) 9, (byte) $c, (byte) $c }
(const byte*) preset_hi_stdchar[]  = { (byte) 4, (byte) 0, (byte) 0, (byte) 0, (byte) 1, (byte) 0, (byte) 0, (byte) 0, (byte) 0, (byte) 0, (byte) 0, (byte) 0, (byte) 0, (byte) 0, (byte) 0, (byte) 0, (byte) 0, (byte) 0, (byte) 0, (byte) 0, (byte) 0, (byte) 0, (byte) 0, (byte) 0, (byte) 0, (byte) 0, (byte) 0, (byte) 1, (byte) 0, (byte) 0, (byte) 0, (byte) 0, (byte) 0, (byte) 0, (byte) 0, (byte) 0 }
(const byte*) preset_mcbm[]  = { (byte) 3, (byte) 1, (byte) 1, (byte) 0, (byte) 0, (byte) 0, (byte) 0, (byte) 0, (byte) 0, (byte) 0, (byte) 0, (byte) 0, (byte) 0, (byte) 0, (byte) 0, (byte) 0, (byte) 0, (byte) 0, (byte) 0, (byte) 0, (byte) 0, (byte) 0, (byte) 0, (byte) 0, (byte) 2, (byte) 1, (byte) 0, (byte) 0, (byte) 0, (byte) 9, (byte) 0, (byte) 0, (byte) 0, (byte) 0, (byte) 0, (byte) 0 }
(const byte*) preset_sixsfred[]  = { (byte) 8, (byte) 1, (byte) 1, (byte) 1, (byte) 1, (byte) 1, (byte) 0, (byte) 0, (byte) 0, (byte) 0, (byte) 9, (byte) 0, (byte) 0, (byte) 0, (byte) 1, (byte) 0, (byte) 0, (byte) $a, (byte) 0, (byte) 0, (byte) 0, (byte) 1, (byte) 0, (byte) 0, (byte) 0, (byte) 0, (byte) 1, (byte) 1, (byte) 0, (byte) 0, (byte) 0, (byte) 0, (byte) 0, (byte) 0, (byte) 0, (byte) 0 }
(const byte*) preset_sixsfred2[]  = { (byte) 9, (byte) 1, (byte) 1, (byte) 1, (byte) 0, (byte) 1, (byte) 0, (byte) 0, (byte) 0, (byte) 0, (byte) 9, (byte) 0, (byte) 0, (byte) 0, (byte) 1, (byte) 0, (byte) 0, (byte) $a, (byte) 0, (byte) 0, (byte) 0, (byte) 1, (byte) 0, (byte) 0, (byte) 0, (byte) 0, (byte) 0, (byte) 1, (byte) 0, (byte) 0, (byte) 0, (byte) 0, (byte) 0, (byte) 0, (byte) 0, (byte) 0 }
(const byte*) preset_stdbm[]  = { (byte) 2, (byte) 1, (byte) 0, (byte) 0, (byte) 0, (byte) 0, (byte) 0, (byte) 0, (byte) 0, (byte) 0, (byte) 0, (byte) 0, (byte) 0, (byte) 0, (byte) 0, (byte) 0, (byte) 0, (byte) 0, (byte) 0, (byte) 0, (byte) 0, (byte) 0, (byte) 0, (byte) 0, (byte) 2, (byte) 1, (byte) 0, (byte) 0, (byte) 0, (byte) 0, (byte) 0, (byte) 0, (byte) 0, (byte) 0, (byte) 0, (byte) 0 }
(const byte*) preset_stdchar[]  = { (byte) 0, (byte) 0, (byte) 0, (byte) 0, (byte) 0, (byte) 0, (byte) 0, (byte) 0, (byte) 0, (byte) 0, (byte) 0, (byte) 0, (byte) 0, (byte) 0, (byte) 0, (byte) 0, (byte) 0, (byte) 0, (byte) 0, (byte) 0, (byte) 0, (byte) 0, (byte) 0, (byte) 0, (byte) 0, (byte) 0, (byte) 1, (byte) 0, (byte) 0, (byte) 0, (byte) 0, (byte) 0, (byte) 0, (byte) 0, (byte) 0, (byte) 0 }
(const byte*) preset_twoplane[]  = { (byte) 6, (byte) 1, (byte) 0, (byte) 1, (byte) 1, (byte) 1, (byte) 0, (byte) 0, (byte) 0, (byte) 0, (byte) 7, (byte) 0, (byte) 0, (byte) 0, (byte) 1, (byte) 0, (byte) 0, (byte) 8, (byte) 0, (byte) 0, (byte) 0, (byte) 1, (byte) 0, (byte) 0, (byte) 0, (byte) 0, (byte) 0, (byte) 1, (byte) 7, (byte) 0, (byte) $d, (byte) 4, (byte) 0, (byte) 0, (byte) 0, (byte) 0 }
(void()) print_char((byte) print_char::ch)
(label) print_char::@return
(byte) print_char::ch
(byte) print_char::ch#0 reg byte a 1.1000002E7
(byte*) print_char_cursor
(byte*) print_char_cursor#2 print_char_cursor zp[2]:24 100501.5
(byte*) print_char_cursor#29 print_char_cursor zp[2]:24 3666667.333333333
(byte*) print_char_cursor#43 print_char_cursor zp[2]:24 3683334.1666666665
(byte*) print_char_cursor#44 print_char_cursor zp[2]:24 1.4328571485714287E8
(byte*) print_char_cursor#72 print_char_cursor zp[2]:24 2002.0
(byte*) print_char_cursor#73 print_char_cursor zp[2]:24 200002.0
(void()) print_cls()
(label) print_cls::@return
(const to_nomodify byte*) print_hextab[]  = (byte*) "0123456789abcdef"z
(byte*) print_line_cursor
(byte*) print_line_cursor#1 print_line_cursor zp[2]:7 91750.25
(byte*) print_line_cursor#2 print_line_cursor zp[2]:7 6.00040001E8
(byte*) print_line_cursor#22 print_line_cursor zp[2]:7 2.001000003E9
(void()) print_ln()
(label) print_ln::@1
(label) print_ln::@return
(byte*) print_screen
(byte*) print_screen#0 print_screen zp[2]:7 200.2
(void()) print_set_screen((byte*) print_set_screen::screen)
(label) print_set_screen::@return
(byte*) print_set_screen::screen
(byte*) print_set_screen::screen#2 screen zp[2]:7 1001.0
(void()) print_str_at((byte*) print_str_at::str , (byte*) print_str_at::at)
(label) print_str_at::@1
(label) print_str_at::@2
(label) print_str_at::@return
(byte*) print_str_at::at
(byte*) print_str_at::at#0 at zp[2]:24 1.000000001E9
(byte*) print_str_at::at#2 at zp[2]:24 1.000000001E9
(byte*) print_str_at::str
(byte*) print_str_at::str#0 str zp[2]:26 2.000000002E9
(byte*) print_str_at::str#1 str zp[2]:26 550001.0
(byte*) print_str_at::str#2 str zp[2]:26 1.00025000125E9
(void()) print_str_lines((byte*) print_str_lines::str)
(label) print_str_lines::@1
(label) print_str_lines::@2
(label) print_str_lines::@3
(label) print_str_lines::@4
(label) print_str_lines::@5
(label) print_str_lines::@6
(label) print_str_lines::@return
(byte) print_str_lines::ch
(byte) print_str_lines::ch#0 reg byte a 666667.3333333334
(byte*) print_str_lines::str
(byte*) print_str_lines::str#0 str zp[2]:26 233333.66666666666
(byte*) print_str_lines::str#3 str zp[2]:26 150502.0
(byte*) print_str_lines::str#4 str zp[2]:26 1550002.0
(byte*) print_str_lines::str#5 str zp[2]:26 500.5
(void()) render_preset_name((byte) render_preset_name::idx)
(label) render_preset_name::@1
(label) render_preset_name::@10
(label) render_preset_name::@11
(label) render_preset_name::@12
(label) render_preset_name::@2
(label) render_preset_name::@3
(label) render_preset_name::@4
(label) render_preset_name::@5
(label) render_preset_name::@6
(label) render_preset_name::@7
(label) render_preset_name::@8
(label) render_preset_name::@9
(label) render_preset_name::@return
(byte) render_preset_name::idx
(byte) render_preset_name::idx#0 reg byte a 202.0
(byte) render_preset_name::idx#1 reg byte a 20002.0
(byte) render_preset_name::idx#10 reg byte a 100919.36363636363
(byte*) render_preset_name::name
(const byte*) render_preset_name::name#1 name_1 = (byte*) "Standard Charset              "
(const byte*) render_preset_name::name#10 name_10 = (byte*) "Sixs Fred 2                   "
(const byte*) render_preset_name::name#11 name_11 = (byte*) "8bpp Pixel Cell               "
(byte*) render_preset_name::name#13 name zp[2]:26 100001.0
(const byte*) render_preset_name::name#2 name_2 = (byte*) "Extended Color Charset        "
(const byte*) render_preset_name::name#3 name_3 = (byte*) "Standard Bitmap               "
(const byte*) render_preset_name::name#4 name_4 = (byte*) "Multicolor Bitmap             "
(const byte*) render_preset_name::name#5 name_5 = (byte*) "Hicolor Charset               "
(const byte*) render_preset_name::name#6 name_6 = (byte*) "Hicolor Extended Color Charset"
(const byte*) render_preset_name::name#7 name_7 = (byte*) "Twoplane Bitmap               "
(const byte*) render_preset_name::name#8 name_8 = (byte*) "Chunky 8bpp                   "
(const byte*) render_preset_name::name#9 name_9 = (byte*) "Sixs Fred                     "

reg byte x [ form_mode::i#2 form_mode::i#1 ]
reg byte x [ gfx_mode::dtv_control#12 gfx_mode::dtv_control#6 gfx_mode::dtv_control#13 gfx_mode::dtv_control#5 gfx_mode::dtv_control#11 gfx_mode::dtv_control#4 gfx_mode::dtv_control#10 gfx_mode::dtv_control#3 gfx_mode::dtv_control#15 gfx_mode::dtv_control#14 gfx_mode::dtv_control#2 ]
reg byte x [ gfx_mode::vic_control#4 gfx_mode::vic_control#2 gfx_mode::vic_control#5 ]
reg byte a [ gfx_mode::vic_control2#2 ]
reg byte x [ gfx_mode::cx#2 gfx_mode::cx#1 ]
reg byte x [ gfx_mode::j#2 gfx_mode::j#1 ]
reg byte x [ gfx_mode::i#2 gfx_mode::i#1 ]
reg byte x [ gfx_init_screen0::cx#2 gfx_init_screen0::cx#1 ]
reg byte x [ gfx_init_screen1::cx#2 gfx_init_screen1::cx#1 ]
reg byte x [ gfx_init_screen2::cx#2 gfx_init_screen2::cx#1 ]
reg byte x [ gfx_init_screen3::cx#2 gfx_init_screen3::cx#1 ]
reg byte x [ gfx_init_screen4::cx#2 gfx_init_screen4::cx#1 ]
reg byte x [ gfx_init_charset::l#2 gfx_init_charset::l#1 ]
zp[1]:2 [ gfx_init_plane_8bppchunky::y#6 gfx_init_plane_8bppchunky::y#1 gfx_init_vic_bitmap::l#2 gfx_init_vic_bitmap::l#1 gfx_init_screen1::cy#4 gfx_init_screen1::cy#1 form_field_idx#30 form_field_idx#1 form_field_idx#19 form_field_idx#33 form_field_idx#5 form_field_idx#4 ]
reg byte x [ gfx_init_plane_8bppchunky::gfxbCpuBank#4 gfx_init_plane_8bppchunky::gfxbCpuBank#7 gfx_init_plane_8bppchunky::gfxbCpuBank#8 gfx_init_plane_8bppchunky::gfxbCpuBank#2 ]
reg byte x [ gfx_init_plane_charset8::cp#2 gfx_init_plane_charset8::cp#1 ]
reg byte a [ gfx_init_plane_charset8::c#2 gfx_init_plane_charset8::c#3 ]
zp[2]:3 [ gfx_init_plane_horisontal::gfxa#3 gfx_init_plane_horisontal::gfxa#6 gfx_init_plane_horisontal::gfxa#7 gfx_init_plane_horisontal::gfxa#1 gfx_init_plane_horisontal::gfxa#2 gfx_init_plane_charset8::gfxa#2 gfx_init_plane_charset8::gfxa#5 gfx_init_plane_charset8::gfxa#6 gfx_init_plane_charset8::gfxa#1 gfx_init_plane_8bppchunky::x#2 gfx_init_plane_8bppchunky::x#1 gfx_init_charset::charset#2 gfx_init_charset::charset#3 gfx_init_charset::charset#1 gfx_init_screen3::ch#2 gfx_init_screen3::ch#3 gfx_init_screen3::ch#1 gfx_init_screen2::ch#2 gfx_init_screen2::ch#3 gfx_init_screen2::ch#1 gfx_init_screen0::ch#2 gfx_init_screen0::ch#3 gfx_init_screen0::ch#1 gfx_mode::vic_colors#2 gfx_mode::vic_colors#3 gfx_mode::vic_colors#1 gfx_mode::vic_colors#0 get_vic_screen::return#11 get_vic_screen::return#5 get_vic_screen::return#10 gfx_mode::$82 gfx_mode::$47 gfx_mode::$48 ]
reg byte x [ gfx_init_plane_horisontal::ax#2 gfx_init_plane_horisontal::ax#1 ]
reg byte x [ gfx_init_plane_vertical::bx#2 gfx_init_plane_vertical::bx#1 ]
zp[2]:5 [ gfx_init_plane_horisontal2::gfxa#2 gfx_init_plane_horisontal2::gfxa#3 gfx_init_plane_horisontal2::gfxa#1 gfx_init_plane_vertical::gfxb#2 gfx_init_plane_vertical::gfxb#3 gfx_init_plane_vertical::gfxb#1 gfx_init_plane_charset8::chargen#2 gfx_init_plane_charset8::chargen#3 gfx_init_plane_charset8::chargen#1 gfx_init_plane_8bppchunky::gfxb#4 gfx_init_plane_8bppchunky::gfxb#3 gfx_init_plane_8bppchunky::gfxb#5 gfx_init_plane_8bppchunky::gfxb#1 gfx_init_charset::chargen#2 gfx_init_charset::chargen#3 gfx_init_charset::chargen#1 gfx_init_screen4::ch#2 gfx_init_screen4::ch#3 gfx_init_screen4::ch#1 gfx_init_screen1::ch#2 gfx_init_screen1::ch#3 gfx_init_screen1::ch#1 gfx_mode::col#2 gfx_mode::col#3 gfx_mode::col#1 ]
reg byte x [ gfx_init_plane_horisontal2::ax#2 gfx_init_plane_horisontal2::ax#1 ]
reg byte x [ form_set_screen::y#2 form_set_screen::y#1 ]
reg byte x [ form_render_values::idx#2 form_render_values::idx#1 ]
reg byte a [ render_preset_name::idx#10 render_preset_name::idx#0 render_preset_name::idx#1 ]
reg byte x [ form_control::return#2 ]
reg byte y [ apply_preset::i#2 apply_preset::i#1 ]
reg byte a [ get_plane::idx#10 get_plane::idx#1 get_plane::idx#0 ]
reg byte a [ get_vic_screen::idx#2 get_vic_screen::idx#0 get_vic_screen::idx#1 ]
reg byte x [ keyboard_modifiers#22 keyboard_modifiers#21 keyboard_modifiers#20 keyboard_modifiers#19 keyboard_modifiers#2 keyboard_modifiers#3 keyboard_modifiers#4 ]
reg byte x [ keyboard_event_scan::col#2 keyboard_event_scan::col#1 ]
reg byte a [ keyboard_event_get::return#2 keyboard_event_get::return#1 ]
reg byte x [ bitmap_init::x#2 bitmap_init::x#1 ]
reg byte y [ bitmap_init::bits#3 bitmap_init::bits#4 bitmap_init::bits#1 ]
reg byte x [ bitmap_init::y#2 bitmap_init::y#1 ]
zp[2]:7 [ bitmap_init::yoffs#2 bitmap_init::yoffs#4 bitmap_init::yoffs#1 get_vic_charset::return#2 get_vic_charset::return#4 gfx_mode::$83 gfx_mode::$50 form_set_screen::line#2 form_set_screen::line#1 print_set_screen::screen#2 print_line_cursor#22 print_line_cursor#1 print_screen#0 print_line_cursor#2 ]
reg byte x [ bitmap_clear::x#2 bitmap_clear::x#1 ]
reg byte a [ dtvSetCpuBankSegment1::cpuBankIdx#13 dtvSetCpuBankSegment1::cpuBankIdx#1 dtvSetCpuBankSegment1::cpuBankIdx#11 ]
zp[4]:9 [ gfx_init_plane_fill::plane_addr#3 get_plane::return#14 get_plane::return#16 get_plane::return#17 gfx_mode::$20 gfx_mode::plane_a#0 gfx_mode::$34 gfx_mode::plane_b#0 ]
reg byte x [ gfx_init_plane_fill::bx#2 gfx_init_plane_fill::bx#1 ]
reg byte x [ form_field_ptr::field_idx#2 form_field_ptr::field_idx#1 form_field_ptr::field_idx#0 ]
zp[1]:13 [ bitmap_line_xdyi::yd#2 bitmap_line_xdyi::yd#1 bitmap_line_xdyi::yd#0 bitmap_line_ydxi::yd#5 bitmap_line_ydxi::yd#1 bitmap_line_ydxi::yd#0 keyboard_event_scan::row#2 keyboard_event_scan::row#1 gfx_init_plane_charset8::col#2 gfx_init_plane_charset8::col#5 gfx_init_plane_charset8::col#6 gfx_init_plane_charset8::col#1 ]
reg byte x [ bitmap_line_xdyi::y#3 bitmap_line_xdyi::y#5 bitmap_line_xdyi::y#1 bitmap_line_xdyi::y#0 bitmap_line_xdyi::y#6 bitmap_line_xdyi::y#2 ]
zp[1]:14 [ bitmap_line_xdyd::yd#2 bitmap_line_xdyd::yd#1 bitmap_line_xdyd::yd#0 bitmap_line_ydxd::y#2 bitmap_line_ydxd::y#7 bitmap_line_ydxd::y#0 bitmap_line_ydxd::y#1 bitmap_line_ydxd::y#3 bitmap_line_xdyi::x#3 bitmap_line_xdyi::x#6 bitmap_line_xdyi::x#1 bitmap_line_xdyi::x#0 bitmap_line_xdyi::x#2 bitmap_line_ydxi::y#3 bitmap_line_ydxi::y#6 bitmap_line_ydxi::y#1 bitmap_line_ydxi::y#0 bitmap_line_ydxi::y#2 gfx_init_screen3::cy#4 gfx_init_screen3::cy#1 gfx_init_screen2::cy#4 gfx_init_screen2::cy#1 gfx_mode::cy#4 gfx_mode::cy#1 form_mode::preset_current#6 form_mode::preset_current#0 form_mode::preset_current#1 ]
reg byte x [ bitmap_line_xdyd::y#3 bitmap_line_xdyd::y#5 bitmap_line_xdyd::y#1 bitmap_line_xdyd::y#0 bitmap_line_xdyd::y#6 bitmap_line_xdyd::y#2 ]
reg byte y [ bitmap_plot::x#4 bitmap_plot::x#1 bitmap_plot::x#0 bitmap_plot::x#3 bitmap_plot::x#2 ]
reg byte x [ bitmap_plot::y#4 bitmap_plot::y#1 bitmap_plot::y#0 bitmap_plot::y#3 bitmap_plot::y#2 ]
reg byte a [ form_control::return#0 ]
reg byte a [ form_mode::$11 ]
reg byte a [ apply_preset::idx#0 ]
reg byte a [ gfx_mode::$18 ]
reg byte x [ gfx_mode::plane_a_offs#0 ]
reg byte a [ gfx_mode::$23 ]
reg byte a [ gfx_mode::$25 ]
reg byte a [ gfx_mode::$27 ]
reg byte a [ gfx_mode::$28 ]
reg byte a [ gfx_mode::$29 ]
reg byte a [ gfx_mode::$30 ]
reg byte a [ gfx_mode::$31 ]
reg byte a [ gfx_mode::$32 ]
reg byte x [ gfx_mode::plane_b_offs#0 ]
reg byte a [ gfx_mode::$37 ]
reg byte a [ gfx_mode::$39 ]
reg byte a [ gfx_mode::$41 ]
reg byte a [ gfx_mode::$42 ]
reg byte a [ gfx_mode::$43 ]
reg byte a [ gfx_mode::$44 ]
reg byte a [ gfx_mode::$45 ]
reg byte a [ get_vic_charset::idx#0 ]
reg byte a [ gfx_mode::$51 ]
zp[1]:15 [ gfx_mode::$52 bitmap_line_ydxi::xd#2 bitmap_line_ydxi::xd#1 bitmap_line_ydxi::xd#0 bitmap_line::xd#2 bitmap_line::xd#1 bitmap_line_xdyi::xd#5 bitmap_line_xdyi::xd#1 bitmap_line_xdyi::xd#0 bitmap_line_ydxd::xd#2 bitmap_line_ydxd::xd#0 bitmap_line_ydxd::xd#1 bitmap_line_xdyd::xd#5 bitmap_line_xdyd::xd#1 bitmap_line_xdyd::xd#0 bitmap_clear::y#4 bitmap_clear::y#1 keyboard_event_scan::keycode#10 keyboard_event_scan::keycode#11 keyboard_event_scan::keycode#13 keyboard_event_scan::keycode#14 keyboard_event_scan::keycode#1 gfx_init_plane_horisontal::ay#4 gfx_init_plane_horisontal::ay#1 gfx_init_plane_charset8::ch#8 gfx_init_plane_charset8::ch#1 ]
reg byte a [ gfx_mode::$84 ]
reg byte a [ gfx_mode::$53 ]
reg byte a [ gfx_mode::$55 ]
reg byte a [ gfx_mode::$56 ]
reg byte a [ gfx_mode::$57 ]
reg byte a [ gfx_mode::$58 ]
reg byte a [ gfx_mode::$59 ]
reg byte a [ gfx_mode::$60 ]
reg byte a [ gfx_mode::$61 ]
reg byte a [ gfx_mode::$62 ]
reg byte a [ keyboard_event_get::return#3 ]
reg byte a [ gfx_mode::keyboard_event#0 ]
reg byte a [ gfx_init_screen0::$0 ]
zp[1]:16 [ gfx_init_screen0::$1 bitmap_line_ydxi::y1#6 bitmap_line_ydxi::y1#1 bitmap_line_ydxi::y1#0 bitmap_line::y1#0 bitmap_line_ydxd::y1#6 bitmap_line_ydxd::y1#0 bitmap_line_ydxd::y1#1 gfx_init_plane_fill::fill#6 keyboard_events_size#19 keyboard_events_size#107 keyboard_events_size#98 keyboard_events_size#49 keyboard_events_size#28 keyboard_events_size#25 keyboard_events_size#100 keyboard_events_size#106 keyboard_events_size#0 keyboard_events_size#1 keyboard_events_size#3 gfx_init_plane_vertical::by#4 gfx_init_plane_vertical::by#1 gfx_init_plane_charset8::cr#6 gfx_init_plane_charset8::cr#1 ]
reg byte a [ gfx_init_screen0::$2 ]
reg byte a [ gfx_init_screen0::$3 ]
reg byte a [ gfx_init_screen1::$0 ]
reg byte a [ gfx_init_screen1::$1 ]
reg byte a [ gfx_init_screen2::$0 ]
reg byte y [ gfx_init_screen2::col#0 ]
zp[1]:17 [ gfx_init_screen2::col2#0 bitmap_line_ydxi::x#3 bitmap_line_ydxi::x#5 bitmap_line_ydxi::x#1 bitmap_line_ydxi::x#0 bitmap_line_ydxi::x#6 bitmap_line_ydxi::x#2 bitmap_line::x0#0 bitmap_line_ydxd::x#3 bitmap_line_ydxd::x#5 bitmap_line_ydxd::x#0 bitmap_line_ydxd::x#1 bitmap_line_ydxd::x#6 bitmap_line_ydxd::x#2 bitmap_line_xdyd::x1#6 bitmap_line_xdyd::x1#1 bitmap_line_xdyd::x1#0 gfx_init_charset::c#4 gfx_init_charset::c#1 gfx_init_screen4::cy#4 gfx_init_screen4::cy#1 gfx_init_screen0::cy#4 gfx_init_screen0::cy#1 form_cursor_count#23 form_cursor_count#1 form_cursor_count#17 form_cursor_count#16 form_cursor_count#4 ]
reg byte a [ gfx_init_screen2::$3 ]
reg byte a [ gfx_init_screen2::$4 ]
reg byte a [ gfx_init_screen3::$0 ]
zp[1]:18 [ gfx_init_screen3::$1 bitmap_line_xdyd::e#3 bitmap_line_xdyd::e#0 bitmap_line_xdyd::e#6 bitmap_line_xdyd::e#2 bitmap_line_xdyd::e#1 bitmap_line_ydxd::yd#5 bitmap_line_ydxd::yd#0 bitmap_line_ydxd::yd#1 bitmap_line_xdyi::e#3 bitmap_line_xdyi::e#0 bitmap_line_xdyi::e#6 bitmap_line_xdyi::e#2 bitmap_line_xdyi::e#1 keyboard_event_pressed::keycode#4 gfx_init_plane_fill::by#4 gfx_init_plane_fill::by#1 gfx_init_plane_horisontal2::ay#4 gfx_init_plane_horisontal2::ay#1 gfx_init_plane_charset8::bits#2 gfx_init_plane_charset8::bits#0 gfx_init_plane_charset8::bits#1 ]
reg byte a [ gfx_init_screen3::$2 ]
reg byte a [ gfx_init_screen3::$3 ]
reg byte x [ bitmap_line::y0#0 ]
reg byte a [ gfx_init_plane_8bppchunky::c#0 ]
reg byte a [ gfx_init_plane_charset8::$2 ]
reg byte a [ gfx_init_plane_horisontal::$2 ]
reg byte a [ gfx_init_plane_horisontal2::$2 ]
reg byte a [ gfx_init_plane_horisontal2::row#0 ]
reg byte a [ print_str_lines::ch#0 ]
reg byte a [ print_char::ch#0 ]
reg byte a [ form_set_screen::$0 ]
reg byte a [ form_set_screen::$1 ]
reg byte a [ form_control::$12 ]
reg byte a [ keyboard_event_get::return#4 ]
reg byte a [ form_control::key_event#0 ]
reg byte a [ form_control::$14 ]
reg byte a [ form_control::$15 ]
reg byte a [ form_control::$22 ]
reg byte a [ form_control::$13 ]
reg byte x [ keyboard_matrix_read::rowid#0 ]
reg byte a [ keyboard_matrix_read::return#2 ]
reg byte a [ keyboard_event_pressed::return#0 ]
reg byte a [ keyboard_event_scan::$0 ]
reg byte a [ keyboard_event_pressed::return#1 ]
reg byte a [ keyboard_event_scan::$3 ]
reg byte a [ keyboard_event_pressed::return#2 ]
reg byte a [ keyboard_event_scan::$6 ]
reg byte a [ keyboard_event_pressed::return#3 ]
reg byte a [ keyboard_event_scan::$9 ]
reg byte a [ keyboard_event_scan::$15 ]
reg byte a [ keyboard_event_scan::$16 ]
reg byte a [ keyboard_event_scan::event_type#0 ]
reg byte a [ keyboard_event_scan::$23 ]
reg byte a [ bitmap_init::$0 ]
zp[1]:19 [ bitmap_init::$10 keyboard_event_scan::row_scan#0 bitmap_line_xdyi::x1#6 bitmap_line_xdyi::x1#1 bitmap_line_xdyi::x1#0 bitmap_line::x1#0 bitmap_line_ydxi::e#3 bitmap_line_ydxi::e#0 bitmap_line_ydxi::e#6 bitmap_line_ydxi::e#2 bitmap_line_ydxi::e#1 ]
reg byte a [ bitmap_init::$7 ]
reg byte a [ bitmap_init::$8 ]
reg byte a [ bitmap_init::$9 ]
reg byte y [ bitmap_line::yd#2 ]
reg byte y [ bitmap_line::yd#1 ]
reg byte y [ bitmap_line::yd#10 ]
reg byte y [ bitmap_line::yd#11 ]
zp[4]:20 [ gfx_init_plane_fill::$0 ]
zp[2]:24 [ gfx_init_plane_fill::$1 gfx_mode::$38 print_str_at::at#2 print_str_at::at#0 memset::dst#2 memset::dst#4 memset::dst#1 memset::str#0 apply_preset::preset#15 print_char_cursor#43 print_char_cursor#2 print_char_cursor#72 print_char_cursor#73 print_char_cursor#44 print_char_cursor#29 ]
reg byte a [ gfx_init_plane_fill::gfxbCpuBank#0 ]
zp[2]:26 [ memset::end#0 gfx_mode::$40 gfx_init_plane_fill::gfxb#2 gfx_init_plane_fill::gfxb#3 gfx_init_plane_fill::gfxb#1 gfx_init_plane_fill::gfxb#6 gfx_init_plane_fill::gfxb#0 gfx_init_plane_fill::$4 gfx_init_plane_fill::$5 bitmap_clear::bitmap#2 bitmap_clear::bitmap#3 bitmap_clear::bitmap#5 bitmap_clear::bitmap#1 bitmap_clear::bitmap#0 render_preset_name::name#13 print_str_at::str#2 print_str_at::str#1 print_str_at::str#0 print_str_lines::str#4 print_str_lines::str#3 print_str_lines::str#5 print_str_lines::str#0 ]
reg byte y [ form_field_ptr::y#0 ]
reg byte a [ keyboard_matrix_read::return#0 ]
reg byte a [ keyboard_event_pressed::$0 ]
zp[1]:28 [ keyboard_event_pressed::row_bits#0 form_field_ptr::x#0 bitmap_line_xdyd::x#3 bitmap_line_xdyd::x#6 bitmap_line_xdyd::x#1 bitmap_line_xdyd::x#0 bitmap_line_xdyd::x#2 bitmap_line_ydxd::e#3 bitmap_line_ydxd::e#0 bitmap_line_ydxd::e#6 bitmap_line_ydxd::e#2 bitmap_line_ydxd::e#1 ]
reg byte a [ keyboard_event_pressed::$1 ]
reg byte a [ keyboard_event_pressed::return#10 ]
reg byte x [ bitmap_line_ydxi::$6 ]
reg byte a [ bitmap_line_xdyi::$6 ]
reg byte x [ bitmap_line_ydxd::$6 ]
reg byte a [ bitmap_line_xdyd::$6 ]
zp[2]:29 [ bitmap_plot::plotter_x#0 bitmap_plot::plotter#0 form_field_ptr::line#0 gfx_init_plane_8bppchunky::$5 gfx_mode::$24 ]
zp[2]:31 [ bitmap_plot::plotter_y#0 form_field_ptr::return#3 form_control::field#0 form_field_ptr::return#0 gfx_mode::$26 ]
reg byte a [ bitmap_plot::$1 ]
