(const byte*) DTV_BLITTER_ALU = (byte*) 54078
(const nomodify byte*) DTV_BLITTER_CONTROL = (byte*) 54074
(const nomodify byte*) DTV_BLITTER_CONTROL2 = (byte*) 54079
(const nomodify byte*) DTV_BLITTER_DEST_HI = (byte*) 54066
(const nomodify byte*) DTV_BLITTER_DEST_LIN_HI = (byte*) 54070
(const nomodify byte*) DTV_BLITTER_DEST_LIN_LO = (byte*) 54069
(const nomodify byte*) DTV_BLITTER_DEST_LO = (byte*) 54064
(const nomodify byte*) DTV_BLITTER_DEST_MI = (byte*) 54065
(const nomodify byte*) DTV_BLITTER_DEST_MOD_HI = (byte*) 54068
(const nomodify byte*) DTV_BLITTER_DEST_MOD_LO = (byte*) 54067
(const nomodify byte*) DTV_BLITTER_DEST_STEP = (byte*) 54071
(const nomodify byte*) DTV_BLITTER_LEN_HI = (byte*) 54073
(const nomodify byte*) DTV_BLITTER_LEN_LO = (byte*) 54072
(const nomodify byte*) DTV_BLITTER_SRCA_HI = (byte*) 54050
(const nomodify byte*) DTV_BLITTER_SRCA_LIN_HI = (byte*) 54054
(const nomodify byte*) DTV_BLITTER_SRCA_LIN_LO = (byte*) 54053
(const nomodify byte*) DTV_BLITTER_SRCA_LO = (byte*) 54048
(const nomodify byte*) DTV_BLITTER_SRCA_MI = (byte*) 54049
(const nomodify byte*) DTV_BLITTER_SRCA_MOD_HI = (byte*) 54052
(const nomodify byte*) DTV_BLITTER_SRCA_MOD_LO = (byte*) 54051
(const nomodify byte*) DTV_BLITTER_SRCA_STEP = (byte*) 54055
(const nomodify byte*) DTV_BLITTER_SRCB_HI = (byte*) 54058
(const nomodify byte*) DTV_BLITTER_SRCB_LIN_HI = (byte*) 54062
(const nomodify byte*) DTV_BLITTER_SRCB_LIN_LO = (byte*) 54061
(const nomodify byte*) DTV_BLITTER_SRCB_LO = (byte*) 54056
(const nomodify byte*) DTV_BLITTER_SRCB_MI = (byte*) 54057
(const nomodify byte*) DTV_BLITTER_SRCB_MOD_HI = (byte*) 54060
(const nomodify byte*) DTV_BLITTER_SRCB_MOD_LO = (byte*) 54059
(const nomodify byte*) DTV_BLITTER_SRCB_STEP = (byte*) 54063
(const nomodify byte*) DTV_BLITTER_TRANSPARANCY = (byte*) 54075
(const nomodify byte) DTV_BLIT_ADD = (byte) $30
(const nomodify byte) DTV_BLIT_CLEAR_IRQ = (byte) 1
(const nomodify byte) DTV_BLIT_DEST_CONT = (byte) 8
(const nomodify byte) DTV_BLIT_DEST_FWD = (byte) 8
(const nomodify byte) DTV_BLIT_FORCE_START = (byte) 1
(const nomodify byte) DTV_BLIT_SRCA_FWD = (byte) 2
(const nomodify byte) DTV_BLIT_SRCB_FWD = (byte) 4
(const nomodify byte) DTV_BLIT_STATUS_BUSY = (byte) 1
(const nomodify byte) DTV_BLIT_TRANSPARANCY_NONE = (byte) 0
(const nomodify byte*) DTV_FEATURE = (byte*) 53311
(const nomodify byte) DTV_FEATURE_ENABLE = (byte) 1
(byte) MOS6526_CIA::INTERRUPT
(byte) MOS6526_CIA::PORT_A
(byte) MOS6526_CIA::PORT_A_DDR
(byte) MOS6526_CIA::PORT_B
(byte) MOS6526_CIA::PORT_B_DDR
(byte) MOS6526_CIA::SERIAL_DATA
(word) MOS6526_CIA::TIMER_A
(byte) MOS6526_CIA::TIMER_A_CONTROL
(word) MOS6526_CIA::TIMER_B
(byte) MOS6526_CIA::TIMER_B_CONTROL
(byte) MOS6526_CIA::TOD_10THS
(byte) MOS6526_CIA::TOD_HOURS
(byte) MOS6526_CIA::TOD_MIN
(byte) MOS6526_CIA::TOD_SEC
(byte) MOS6569_VICII::BG_COLOR
(byte) MOS6569_VICII::BG_COLOR1
(byte) MOS6569_VICII::BG_COLOR2
(byte) MOS6569_VICII::BG_COLOR3
(byte) MOS6569_VICII::BORDER_COLOR
(byte) MOS6569_VICII::CONTROL1
(byte) MOS6569_VICII::CONTROL2
(byte) MOS6569_VICII::IRQ_ENABLE
(byte) MOS6569_VICII::IRQ_STATUS
(byte) MOS6569_VICII::LIGHTPEN_X
(byte) MOS6569_VICII::LIGHTPEN_Y
(byte) MOS6569_VICII::MEMORY
(byte) MOS6569_VICII::RASTER
(byte) MOS6569_VICII::SPRITE0_COLOR
(byte) MOS6569_VICII::SPRITE0_X
(byte) MOS6569_VICII::SPRITE0_Y
(byte) MOS6569_VICII::SPRITE1_COLOR
(byte) MOS6569_VICII::SPRITE1_X
(byte) MOS6569_VICII::SPRITE1_Y
(byte) MOS6569_VICII::SPRITE2_COLOR
(byte) MOS6569_VICII::SPRITE2_X
(byte) MOS6569_VICII::SPRITE2_Y
(byte) MOS6569_VICII::SPRITE3_COLOR
(byte) MOS6569_VICII::SPRITE3_X
(byte) MOS6569_VICII::SPRITE3_Y
(byte) MOS6569_VICII::SPRITE4_COLOR
(byte) MOS6569_VICII::SPRITE4_X
(byte) MOS6569_VICII::SPRITE4_Y
(byte) MOS6569_VICII::SPRITE5_COLOR
(byte) MOS6569_VICII::SPRITE5_X
(byte) MOS6569_VICII::SPRITE5_Y
(byte) MOS6569_VICII::SPRITE6_COLOR
(byte) MOS6569_VICII::SPRITE6_X
(byte) MOS6569_VICII::SPRITE6_Y
(byte) MOS6569_VICII::SPRITE7_COLOR
(byte) MOS6569_VICII::SPRITE7_X
(byte) MOS6569_VICII::SPRITE7_Y
(byte) MOS6569_VICII::SPRITES_BG_COLLISION
(byte) MOS6569_VICII::SPRITES_COLLISION
(byte) MOS6569_VICII::SPRITES_ENABLE
(byte) MOS6569_VICII::SPRITES_EXPAND_X
(byte) MOS6569_VICII::SPRITES_EXPAND_Y
(byte) MOS6569_VICII::SPRITES_MC
(byte) MOS6569_VICII::SPRITES_MCOLOR1
(byte) MOS6569_VICII::SPRITES_MCOLOR2
(byte) MOS6569_VICII::SPRITES_PRIORITY
(byte) MOS6569_VICII::SPRITES_XMSB
(byte) MOS6581_SID::CH1_ATTACK_DECAY
(byte) MOS6581_SID::CH1_CONTROL
(word) MOS6581_SID::CH1_FREQ
(word) MOS6581_SID::CH1_PULSE_WIDTH
(byte) MOS6581_SID::CH1_SUSTAIN_RELEASE
(byte) MOS6581_SID::CH2_ATTACK_DECAY
(byte) MOS6581_SID::CH2_CONTROL
(word) MOS6581_SID::CH2_FREQ
(word) MOS6581_SID::CH2_PULSE_WIDTH
(byte) MOS6581_SID::CH2_SUSTAIN_RELEASE
(byte) MOS6581_SID::CH3_ATTACK_DECAY
(byte) MOS6581_SID::CH3_CONTROL
(byte) MOS6581_SID::CH3_ENV
(word) MOS6581_SID::CH3_FREQ
(byte) MOS6581_SID::CH3_OSC
(word) MOS6581_SID::CH3_PULSE_WIDTH
(byte) MOS6581_SID::CH3_SUSTAIN_RELEASE
(byte) MOS6581_SID::FILTER_CUTOFF_HIGH
(byte) MOS6581_SID::FILTER_CUTOFF_LOW
(byte) MOS6581_SID::FILTER_SETUP
(byte) MOS6581_SID::POT_X
(byte) MOS6581_SID::POT_Y
(byte) MOS6581_SID::VOLUME_FILTER_MODE
(const nomodify byte*) SCREEN = (byte*) 1024
(const to_nomodify byte*) SRCA[]  = { (byte) 'c', (byte) 'a', (byte) 'm', (byte) 'e', (byte) 'l', (byte) 'o', (byte) 't', (byte) '!', (byte) ' ' }
(const nomodify byte) SRCA_LEN = (byte) 9
(const to_nomodify byte*) SRCB[]  = { (byte) $80 }
(void()) main()
(byte~) main::$0 reg byte a 202.0
(label) main::@1
(label) main::@2
(label) main::@return
(byte) main::r
(byte) main::r#1 reg byte x 16.5
(byte) main::r#2 reg byte x 56.0

reg byte x [ main::r#2 main::r#1 ]
reg byte a [ main::$0 ]
