(const byte*) SCREEN = (byte*) 17408
(void()) main()
(label) main::@return
(byte*) main::sprite_ptr
(const byte*) main::sprite_ptr#0 sprite_ptr = (const byte*) SCREEN+(word) $378
(const byte*) sprite = (byte*) 20480

