(const nomodify struct MOS6526_CIA*) CIA2 = (struct MOS6526_CIA*) 56576
(const nomodify dword*) CIA2_TIMER_AB = (dword*) 56580
(const nomodify byte) CIA_TIMER_CONTROL_B_COUNT_UNDERFLOW_A = (byte) $40
(const nomodify byte) CIA_TIMER_CONTROL_START = (byte) 1
(const nomodify dword) CLOCKS_PER_INIT = (dword) $12
(byte) MOS6526_CIA::INTERRUPT
(byte) MOS6526_CIA::PORT_A
(byte) MOS6526_CIA::PORT_A_DDR
(byte) MOS6526_CIA::PORT_B
(byte) MOS6526_CIA::PORT_B_DDR
(byte) MOS6526_CIA::SERIAL_DATA
(word) MOS6526_CIA::TIMER_A
(byte) MOS6526_CIA::TIMER_A_CONTROL
(word) MOS6526_CIA::TIMER_B
(byte) MOS6526_CIA::TIMER_B_CONTROL
(byte) MOS6526_CIA::TOD_10THS
(byte) MOS6526_CIA::TOD_HOURS
(byte) MOS6526_CIA::TOD_MIN
(byte) MOS6526_CIA::TOD_SEC
(byte) MOS6569_VICII::BG_COLOR
(byte) MOS6569_VICII::BG_COLOR1
(byte) MOS6569_VICII::BG_COLOR2
(byte) MOS6569_VICII::BG_COLOR3
(byte) MOS6569_VICII::BORDER_COLOR
(byte) MOS6569_VICII::CONTROL1
(byte) MOS6569_VICII::CONTROL2
(byte) MOS6569_VICII::IRQ_ENABLE
(byte) MOS6569_VICII::IRQ_STATUS
(byte) MOS6569_VICII::LIGHTPEN_X
(byte) MOS6569_VICII::LIGHTPEN_Y
(byte) MOS6569_VICII::MEMORY
(byte) MOS6569_VICII::RASTER
(byte) MOS6569_VICII::SPRITE0_COLOR
(byte) MOS6569_VICII::SPRITE0_X
(byte) MOS6569_VICII::SPRITE0_Y
(byte) MOS6569_VICII::SPRITE1_COLOR
(byte) MOS6569_VICII::SPRITE1_X
(byte) MOS6569_VICII::SPRITE1_Y
(byte) MOS6569_VICII::SPRITE2_COLOR
(byte) MOS6569_VICII::SPRITE2_X
(byte) MOS6569_VICII::SPRITE2_Y
(byte) MOS6569_VICII::SPRITE3_COLOR
(byte) MOS6569_VICII::SPRITE3_X
(byte) MOS6569_VICII::SPRITE3_Y
(byte) MOS6569_VICII::SPRITE4_COLOR
(byte) MOS6569_VICII::SPRITE4_X
(byte) MOS6569_VICII::SPRITE4_Y
(byte) MOS6569_VICII::SPRITE5_COLOR
(byte) MOS6569_VICII::SPRITE5_X
(byte) MOS6569_VICII::SPRITE5_Y
(byte) MOS6569_VICII::SPRITE6_COLOR
(byte) MOS6569_VICII::SPRITE6_X
(byte) MOS6569_VICII::SPRITE6_Y
(byte) MOS6569_VICII::SPRITE7_COLOR
(byte) MOS6569_VICII::SPRITE7_X
(byte) MOS6569_VICII::SPRITE7_Y
(byte) MOS6569_VICII::SPRITES_BG_COLLISION
(byte) MOS6569_VICII::SPRITES_COLLISION
(byte) MOS6569_VICII::SPRITES_ENABLE
(byte) MOS6569_VICII::SPRITES_EXPAND_X
(byte) MOS6569_VICII::SPRITES_EXPAND_Y
(byte) MOS6569_VICII::SPRITES_MC
(byte) MOS6569_VICII::SPRITES_MCOLOR1
(byte) MOS6569_VICII::SPRITES_MCOLOR2
(byte) MOS6569_VICII::SPRITES_PRIORITY
(byte) MOS6569_VICII::SPRITES_XMSB
(byte) MOS6581_SID::CH1_ATTACK_DECAY
(byte) MOS6581_SID::CH1_CONTROL
(word) MOS6581_SID::CH1_FREQ
(word) MOS6581_SID::CH1_PULSE_WIDTH
(byte) MOS6581_SID::CH1_SUSTAIN_RELEASE
(byte) MOS6581_SID::CH2_ATTACK_DECAY
(byte) MOS6581_SID::CH2_CONTROL
(word) MOS6581_SID::CH2_FREQ
(word) MOS6581_SID::CH2_PULSE_WIDTH
(byte) MOS6581_SID::CH2_SUSTAIN_RELEASE
(byte) MOS6581_SID::CH3_ATTACK_DECAY
(byte) MOS6581_SID::CH3_CONTROL
(byte) MOS6581_SID::CH3_ENV
(word) MOS6581_SID::CH3_FREQ
(byte) MOS6581_SID::CH3_OSC
(word) MOS6581_SID::CH3_PULSE_WIDTH
(byte) MOS6581_SID::CH3_SUSTAIN_RELEASE
(byte) MOS6581_SID::FILTER_CUTOFF_HIGH
(byte) MOS6581_SID::FILTER_CUTOFF_LOW
(byte) MOS6581_SID::FILTER_SETUP
(byte) MOS6581_SID::POT_X
(byte) MOS6581_SID::POT_Y
(byte) MOS6581_SID::VOLUME_FILTER_MODE
(const byte) OFFSET_STRUCT_MOS6526_CIA_TIMER_A_CONTROL = (byte) $e
(const byte) OFFSET_STRUCT_MOS6526_CIA_TIMER_B_CONTROL = (byte) $f
(const byte) RADIX::BINARY = (number) 2
(const byte) RADIX::DECIMAL = (number) $a
(const byte) RADIX::HEXADECIMAL = (number) $10
(const byte) RADIX::OCTAL = (number) 8
(const nomodify byte*) SCREEN = (byte*) 1024
(dword()) clock()
(label) clock::@return
(dword) clock::return
(dword) clock::return#0 return zp[4]:9 37.33333333333333
(dword) clock::return#2 return zp[4]:9 22.0
(void()) clock_start()
(label) clock_start::@return
(void()) main()
(dword~) main::$1 zp[4]:9 22.0
(label) main::@1
(label) main::@2
(label) main::@3
(dword) main::cyclecount
(dword) main::cyclecount#0 cyclecount zp[4]:9 22.0
(void()) print_char_at((byte) print_char_at::ch , (byte*) print_char_at::at)
(label) print_char_at::@return
(byte*) print_char_at::at
(byte*) print_char_at::at#0 at zp[2]:7 20002.0
(byte*) print_char_at::at#1 at zp[2]:7 10001.0
(byte*) print_char_at::at#2 at zp[2]:7 120003.0
(byte) print_char_at::ch
(byte) print_char_at::ch#0 reg byte x 10001.0
(byte) print_char_at::ch#1 reg byte x 20002.0
(byte) print_char_at::ch#2 reg byte x 120003.0
(const to_nomodify byte*) print_hextab[]  = (byte*) "0123456789abcdef"z
(void()) print_uchar_at((byte) print_uchar_at::b , (byte*) print_uchar_at::at)
(byte~) print_uchar_at::$0 reg byte a 20002.0
(byte~) print_uchar_at::$2 reg byte y 10001.0
(label) print_uchar_at::@1
(label) print_uchar_at::@return
(byte*) print_uchar_at::at
(byte*) print_uchar_at::at#0 at zp[2]:4 2002.0
(byte*) print_uchar_at::at#1 at zp[2]:4 2002.0
(byte*) print_uchar_at::at#2 at zp[2]:4 3667.333333333333
(byte) print_uchar_at::b
(byte) print_uchar_at::b#0 b zp[1]:6 1001.0
(byte) print_uchar_at::b#1 b zp[1]:6 1001.0
(byte) print_uchar_at::b#2 b zp[1]:6 4400.8
(void()) print_uint_at((word) print_uint_at::w , (byte*) print_uint_at::at)
(label) print_uint_at::@1
(label) print_uint_at::@return
(byte*) print_uint_at::at
(byte*) print_uint_at::at#2 at zp[2]:4 400.4
(word) print_uint_at::w
(word) print_uint_at::w#0 w zp[2]:2 202.0
(word) print_uint_at::w#1 w zp[2]:2 202.0
(word) print_uint_at::w#2 w zp[2]:2 551.0
(void()) print_ulong_at((dword) print_ulong_at::dw , (byte*) print_ulong_at::at)
(label) print_ulong_at::@1
(label) print_ulong_at::@return
(byte*) print_ulong_at::at
(dword) print_ulong_at::dw
(dword) print_ulong_at::dw#0 dw zp[4]:9 71.0

zp[2]:2 [ print_uint_at::w#2 print_uint_at::w#0 print_uint_at::w#1 ]
zp[2]:4 [ print_uint_at::at#2 print_uchar_at::at#2 print_uchar_at::at#0 print_uchar_at::at#1 ]
zp[1]:6 [ print_uchar_at::b#2 print_uchar_at::b#0 print_uchar_at::b#1 ]
reg byte x [ print_char_at::ch#2 print_char_at::ch#0 print_char_at::ch#1 ]
zp[2]:7 [ print_char_at::at#2 print_char_at::at#0 print_char_at::at#1 ]
zp[4]:9 [ clock::return#2 main::$1 clock::return#0 main::cyclecount#0 print_ulong_at::dw#0 ]
reg byte a [ print_uchar_at::$0 ]
reg byte y [ print_uchar_at::$2 ]
