(void()) main()
(label) main::@1
(label) main::@2
(label) main::@3
(label) main::@return
(const nomodify byte*) main::SCREEN = (byte*) 1024
(byte) main::a
(byte) main::a#1 a zp[1]:2 16.5
(byte) main::a#4 a zp[1]:2 24.888888888888886
(byte) main::b
(byte) main::b#1 reg byte y 151.5
(byte) main::c
(byte) main::d
(byte) main::d#0 reg byte y 67.33333333333333
(byte) main::e
(byte) main::e#0 e zp[1]:3 101.0
(byte) main::f
(byte) main::f#0 reg byte a 202.0
(byte) main::g
(byte) main::g#0 reg byte a 202.0
(byte) main::idx
(byte) main::idx#1 reg byte x 42.599999999999994
(byte) main::idx#2 reg byte x 62.8
(byte) main::idx#3 reg byte x 22.0

zp[1]:2 [ main::a#4 main::a#1 ]
reg byte y [ main::d#0 main::b#1 ]
reg byte x [ main::idx#2 main::idx#3 main::idx#1 ]
zp[1]:3 [ main::e#0 ]
reg byte a [ main::f#0 ]
reg byte a [ main::g#0 ]
