
CONTROL FLOW GRAPH SSA

(void()) main()
main: scope:[main]  from __start
  *((const nomodify byte*) SCREEN + (number) 0) ← (byte) 'a'
  to:main::@return
main::@return: scope:[main]  from main main::@1
  return 
  to:@return
main::@1: scope:[main]  from
  *((const nomodify byte*) SCREEN + (number) 1) ← (byte) 'a'
  to:main::@return

(void()) __start()
__start: scope:[__start]  from
  call main 
  to:__start::@1
__start::@1: scope:[__start]  from __start
  to:__start::@return
__start::@return: scope:[__start]  from __start::@1
  return 
  to:@return

SYMBOL TABLE SSA
(const nomodify byte*) SCREEN = (byte*)(number) $400
(void()) __start()
(label) __start::@1
(label) __start::@return
(void()) main()
(label) main::@1
(label) main::@return

Adding number conversion cast (unumber) 0 in *((const nomodify byte*) SCREEN + (number) 0) ← (byte) 'a'
Adding number conversion cast (unumber) 1 in *((const nomodify byte*) SCREEN + (number) 1) ← (byte) 'a'
Successful SSA optimization PassNAddNumberTypeConversions
Simplifying constant pointer cast (byte*) 1024
Simplifying constant integer cast 0
Simplifying constant integer cast 1
Successful SSA optimization PassNCastSimplification
Finalized unsigned number type (byte) 0
Finalized unsigned number type (byte) 1
Successful SSA optimization PassNFinalizeNumberTypeConversions
Simplifying expression containing zero SCREEN in [0] *((const nomodify byte*) SCREEN + (byte) 0) ← (byte) 'a'
Successful SSA optimization PassNSimplifyExpressionWithZero
Removing unused block main::@1
Successful SSA optimization Pass2EliminateUnusedBlocks
Removing unused procedure __start
Removing unused procedure block __start
Removing unused procedure block __start::@1
Removing unused procedure block __start::@return
Successful SSA optimization PassNEliminateEmptyStart
CALL GRAPH

Created 0 initial phi equivalence classes
Coalesced down to 0 phi equivalence classes

FINAL CONTROL FLOW GRAPH

(void()) main()
main: scope:[main]  from
  [0] *((const nomodify byte*) SCREEN) ← (byte) 'a'
  to:main::@return
main::@return: scope:[main]  from main
  [1] return 
  to:@return


VARIABLE REGISTER WEIGHTS
(void()) main()

Initial phi equivalence classes
Complete equivalence classes

INITIAL ASM
Target platform is c64basic / MOS6502X
  // File Comments
// Test code after return in main()
  // Upstart
.pc = $801 "Basic"
:BasicUpstart(main)
.pc = $80d "Program"
  // Global Constants & labels
  .label SCREEN = $400
  // main
main: {
    // [0] *((const nomodify byte*) SCREEN) ← (byte) 'a' -- _deref_pbuc1=vbuc2 
    lda #'a'
    sta SCREEN
    jmp __breturn
    // main::@return
  __breturn:
    // [1] return 
    rts
}
  // File Data

REGISTER UPLIFT POTENTIAL REGISTERS
Statement [0] *((const nomodify byte*) SCREEN) ← (byte) 'a' [ ] (  [ ] { }  ) always clobbers reg byte a 

REGISTER UPLIFT SCOPES
Uplift Scope [main] 
Uplift Scope [] 

Uplifting [main] best 15 combination 
Uplifting [] best 15 combination 

ASSEMBLER BEFORE OPTIMIZATION
  // File Comments
// Test code after return in main()
  // Upstart
.pc = $801 "Basic"
:BasicUpstart(main)
.pc = $80d "Program"
  // Global Constants & labels
  .label SCREEN = $400
  // main
main: {
    // [0] *((const nomodify byte*) SCREEN) ← (byte) 'a' -- _deref_pbuc1=vbuc2 
    lda #'a'
    sta SCREEN
    jmp __breturn
    // main::@return
  __breturn:
    // [1] return 
    rts
}
  // File Data

ASSEMBLER OPTIMIZATIONS
Removing instruction jmp __breturn
Succesful ASM optimization Pass5NextJumpElimination
Removing instruction __breturn:
Succesful ASM optimization Pass5UnusedLabelElimination

FINAL SYMBOL TABLE
(const nomodify byte*) SCREEN = (byte*) 1024
(void()) main()
(label) main::@return



FINAL ASSEMBLER
Score: 12

  // File Comments
// Test code after return in main()
  // Upstart
.pc = $801 "Basic"
:BasicUpstart(main)
.pc = $80d "Program"
  // Global Constants & labels
  .label SCREEN = $400
  // main
main: {
    // SCREEN[0] = 'a'
    // [0] *((const nomodify byte*) SCREEN) ← (byte) 'a' -- _deref_pbuc1=vbuc2 
    lda #'a'
    sta SCREEN
    // main::@return
    // }
    // [1] return 
    rts
}
  // File Data

