(void()) main()
(label) main::@return
(const nomodify byte*) main::SCREEN = (byte*) 1024
(const byte) main::b = (byte) 'c'
(byte) main::c
(const byte) main::c#0 c = (const byte) main::b+(byte) 1
(byte) main::d
(const byte) main::d#0 d = (const byte) main::c#0+(byte) 1

