(const nomodify byte*) SCREEN = (byte*) 1024
(void()) main()
(label) main::@1
(label) main::@2
(label) main::@3
(label) main::@return
(signed byte) main::i
(signed byte) main::i#1 reg byte y 16.5
(signed byte) main::i#2 reg byte y 5.5
(byte) main::idx
(byte) main::idx#1 reg byte x 7.333333333333333
(byte) main::idx#2 reg byte x 6.6000000000000005
(byte) main::j
(byte) main::j#0 reg byte a 11.0

reg byte y [ main::i#2 main::i#1 ]
reg byte x [ main::idx#2 main::idx#1 ]
reg byte a [ main::j#0 ]
