(const nomodify byte*) SCREEN = (byte*) 1024
(void()) line((byte) line::x0 , (byte) line::x1)
(label) line::@1
(label) line::@2
(label) line::@3
(label) line::@return
(byte) line::x
(byte) line::x#1 reg byte x 20002.0
(byte) line::x#2 reg byte x 10001.0
(byte) line::x0
(const byte) line::x0#0 x0 = (byte) 0
(byte) line::x1
(const byte) line::x1#0 x1 = (byte) $a
(void()) main()
(label) main::@1
(label) main::@2
(byte) main::i
(byte) main::i#1 reg byte x 16.5
(byte) main::i#2 reg byte x 18.333333333333332
(void()) plot((byte) plot::x)
(byte~) plot::$0 reg byte a 200002.0
(label) plot::@return
(byte) plot::idx
(byte) plot::idx#0 reg byte y 150001.5
(byte) plot::x
(byte) plot::x#1 reg byte x 110002.0
(const nomodify byte*) plots = (byte*) 4096

reg byte x [ main::i#2 main::i#1 ]
reg byte x [ line::x#2 line::x#1 ]
reg byte x [ plot::x#1 ]
reg byte y [ plot::idx#0 ]
reg byte a [ plot::$0 ]
