(const nomodify signed byte*) SCREEN = (signed byte*) 1024
(void()) main()
(signed byte~) main::$1 reg byte a 4.0
(label) main::@return
(signed byte) main::a
(signed byte) main::a#0 reg byte a 4.0
(signed byte) main::a#1 reg byte a 3.0

reg byte a [ main::a#0 ]
reg byte a [ main::a#1 ]
reg byte a [ main::$1 ]
