(const nomodify byte*) SCREEN = (byte*) 1024
(byte) idx loadstore mem[1] 5.5 = (byte) 0
(void()) main()
(label) main::@1
(label) main::@return
(byte) main::i
(byte) main::i#1 reg byte x 16.5
(byte) main::i#2 reg byte x 14.666666666666666

reg byte x [ main::i#2 main::i#1 ]
mem[1] [ idx ]
