(const byte) OFFSET_STRUCT_FOO_THING2 = (byte) 1
(const byte) OFFSET_STRUCT_FOO_THING3 = (byte) 2
(struct foo) bar loadstore mem[14] = { thing1: (byte) 'a', thing2: (byte) 'b', thing3: (byte*) "qwe" }
(byte) foo::thing1
(byte) foo::thing2
(const byte*) foo::thing3[(number) $c]  = { fill( $c, 0) }
(void()) main()
(label) main::@1
(label) main::@return
(const nomodify byte*) main::SCREEN = (byte*) 1024
(const struct foo*) main::barp = &(struct foo) bar
(byte) main::i
(byte) main::i#3 reg byte x 7.333333333333333
(byte) main::i#4 reg byte x 16.5
(byte) main::j
(byte) main::j#1 reg byte y 16.5
(byte) main::j#2 reg byte y 11.0

reg byte y [ main::j#2 main::j#1 ]
reg byte x [ main::i#4 main::i#3 ]
mem[14] [ bar ]
