(const nomodify byte*) DC00 = (byte*) 56320
(byte) key
(byte) key#0 reg byte x 151.5
(void()) main()
(byte~) main::$1 reg byte a 101.0
(label) main::@1
(label) main::@2
(label) main::@3

reg byte x [ key#0 ]
reg byte a [ main::$1 ]
