(const nomodify byte) ccpu = (byte) 'A'pu
(const nomodify byte) cpm = (byte) 'A'pm
(const nomodify byte) csm = (byte) 'A'
(const nomodify byte) csu = (byte) 'A'su
(void()) main()
(label) main::@return
(byte) main::idx
(const nomodify byte*) screen = (byte*) 1024
(const to_nomodify byte*) spm[]  = (byte*) "A"pm
(const to_nomodify byte*) spu[]  = (byte*) "A"pu
(const to_nomodify byte*) ssm[]  = (byte*) "A"
(const to_nomodify byte*) ssu[]  = (byte*) "A"su

