(void()) main()
(label) main::@1
(label) main::@2
(label) main::@return
(const nomodify byte*) main::SCREEN = (byte*) 1024
(byte) main::i
(byte) main::i#1 reg byte x 11.0
(byte) main::i#2 reg byte x 14.666666666666666
(byte*) main::sc
(byte*) main::sc#1 sc zp[2]:2 22.0
(byte*) main::sc#2 sc zp[2]:2 8.25

reg byte x [ main::i#2 main::i#1 ]
zp[2]:2 [ main::sc#2 main::sc#1 ]
