(void()) main()
(label) main::@1
(label) main::@return
(const nomodify byte*) main::BITMAP = (byte*) 8192
(byte*) main::b
(byte*) main::b#1 b zp[2]:2 16.5
(byte*) main::b#2 b zp[2]:2 16.5

zp[2]:2 [ main::b#2 main::b#1 ]
