(void()) main()
(byte~) main::$0 reg byte a 22.0
(byte~) main::$1 reg byte a 22.0
(byte~) main::$3 reg byte a 22.0
(byte~) main::$4 reg byte a 22.0
(label) main::@1
(label) main::@2
(label) main::@return
(const byte*) main::SCREEN = (byte*) 1024
(signed word) main::sw
(signed word) main::sw#1 sw zp[2]:4 16.5
(signed word) main::sw#2 sw zp[2]:4 8.8
(word) main::w
(word) main::w#1 w zp[2]:2 16.5
(word) main::w#2 w zp[2]:2 8.8

zp[2]:2 [ main::w#2 main::w#1 ]
zp[2]:4 [ main::sw#2 main::sw#1 ]
reg byte a [ main::$0 ]
reg byte a [ main::$1 ]
reg byte a [ main::$3 ]
reg byte a [ main::$4 ]
