(void()) fn1()
(label) fn1::@return
(const nomodify byte*) fn1::BORDER_COLOR = (byte*) 53280
(void()) fn2()
(label) fn2::@return
(const nomodify byte*) fn2::BG_COLOR = (byte*) 53281
(void()) main()
(byte~) main::$0 reg byte a 22.0
(label) main::@1
(label) main::@2
(label) main::@3
(label) main::@4
(void()*) main::f
(void()*) main::f#3 f zp[2]:3
(byte) main::i
(byte) main::i#1 i zp[1]:2 5.5
(byte) main::i#2 i zp[1]:2 22.0

zp[1]:2 [ main::i#2 main::i#1 ]
zp[2]:3 [ main::f#3 ]
reg byte a [ main::$0 ]
