__stackcall (void()) fn1()
(label) fn1::@return
(const nomodify byte*) fn1::BORDER_COLOR = (byte*) 53280
(void()) main()
(label) main::@1
(label) main::@2
(label) main::@3
(byte) main::i
(byte) main::i#1 reg byte x 7.333333333333333
(byte) main::i#2 reg byte x 22.0

reg byte x [ main::i#2 main::i#1 ]
