(const nomodify byte*) SCREEN = (byte*) 1024
(void()) __start()
(label) __start::@1
(label) __start::@return
(label) __start::__init1
__stackcall (void()) fn1()
(label) fn1::@return
(volatile byte) idx loadstore zp[1]:2 28.25
(void()) main()
(label) main::@return

zp[1]:2 [ idx ]
