(void()) main()
(byte~) main::$0 reg byte a 22.0
(label) main::@1
(label) main::@2
(label) main::@3
(label) main::@return
(byte) main::i
(byte) main::i#1 reg byte x 16.5
(byte) main::i#2 reg byte x 8.25

reg byte x [ main::i#2 main::i#1 ]
reg byte a [ main::$0 ]
