__stackcall (void()) fn1()
(label) fn1::@1
(label) fn1::@2
(label) fn1::@return
(byte*) fn1::screen
(byte*) fn1::screen#1 screen zp[2]:4 20002.0
(byte*) fn1::screen#2 screen zp[2]:4 16668.333333333332
(void()) main()
(label) main::@1
(label) main::@2
(label) main::@return
(byte*) main::cols
(byte*) main::cols#1 cols zp[2]:2 22.0
(byte*) main::cols#2 cols zp[2]:2 11.0

zp[2]:2 [ main::cols#2 main::cols#1 ]
zp[2]:4 [ fn1::screen#2 fn1::screen#1 ]
