(const nomodify byte*) SCREEN = (byte*) 1024
(void()) __start()
(label) __start::@1
(label) __start::@return
(label) __start::__init1
(void()) do10((void()*) do10::fn)
(label) do10::@1
(label) do10::@return
(void()*) do10::fn
(byte) do10::i
(byte) do10::i#1 i zp[1]:2 1501.5
(byte) do10::i#2 i zp[1]:2 1001.0
__stackcall (void()) hello()
(label) hello::@1
(label) hello::@return
(byte) hello::i
(byte) hello::i#1 reg byte y 150001.5
(byte) hello::i#2 reg byte y 100001.0
(volatile byte) idx loadstore zp[1]:5 16666.944444444445
(void()) main()
(label) main::@1
(label) main::@return
(volatile byte*) msg loadstore zp[2]:3 14287.571428571428
(const to_nomodify byte*) msg1[]  = (byte*) "hello "
(const to_nomodify byte*) msg2[]  = (byte*) "world "

reg byte y [ hello::i#2 hello::i#1 ]
zp[1]:2 [ do10::i#2 do10::i#1 ]
zp[2]:3 [ msg ]
zp[1]:5 [ idx ]
