(const byte*) SCREEN = (byte*) 1024
(void()) main()
(label) main::@1
(label) main::@return
(byte) main::i
(byte) main::i#1 reg byte x 16.5
(byte) main::i#2 reg byte x 11.0

reg byte x [ main::i#2 main::i#1 ]
