(void()) main()
(label) main::@1
(label) main::@2
(label) main::@3
(label) main::@4
(label) main::@5
(label) main::@return
(byte) main::i
(byte) main::i#1 reg byte a 16.5
(byte) main::i#6 reg byte a 2.75
(byte) main::j
(byte) main::j#1 reg byte x 151.5
(byte) main::j#4 reg byte x 40.4
(byte) main::k
(byte) main::k#1 reg byte y 1501.5
(byte) main::k#2 reg byte y 1001.0

reg byte a [ main::i#6 main::i#1 ]
reg byte x [ main::j#4 main::j#1 ]
reg byte y [ main::k#2 main::k#1 ]
