(void()) main()
(label) main::@1
(label) main::@return
(byte*) main::cols
(byte*) main::cols#1 cols zp[2]:4 7.333333333333333
(byte*) main::cols#2 cols zp[2]:4 6.6000000000000005
(byte) main::i
(byte) main::i#1 reg byte x 16.5
(byte) main::i#2 reg byte x 5.5
(byte*) main::screen
(byte*) main::screen#1 screen zp[2]:2 4.4
(byte*) main::screen#2 screen zp[2]:2 11.0
(byte) main::sin
(byte) main::sin#0 reg byte y 11.0
(const byte*) sintab[]  = kickasm {{ .fill 25, 20 + 20*sin(toRadians(i*360/25))
 }}

reg byte x [ main::i#2 main::i#1 ]
zp[2]:2 [ main::screen#2 main::screen#1 ]
zp[2]:4 [ main::cols#2 main::cols#1 ]
reg byte y [ main::sin#0 ]
