(void()) main()
(label) main::@return
(const nomodify byte*) main::PTR = (byte*) 40958
(const nomodify byte*) main::SCREEN = (byte*) 1024
(const to_nomodify byte*) main::STRING[]  = (byte*) "camelot"z
(byte*) main::ptr
(word) main::ptr#0 ptr zp[2]:2 2.0

zp[2]:2 [ main::ptr#0 ]
