
CONTROL FLOW GRAPH SSA

(void()) main()
main: scope:[main]  from __start
  (byte*) main::screen#0 ← (byte*)(number) $400
  (word) main::i#0 ← (word) 0
  to:main::@1
main::@1: scope:[main]  from main main::@1
  (word) main::i#2 ← phi( main/(word) main::i#0 main::@1/(word) main::i#1 )
  (byte*) main::screen#2 ← phi( main/(byte*) main::screen#0 main::@1/(byte*) main::screen#1 )
  (byte~) main::$3 ← *((byte*) main::screen#2) * (const byte) SIZEOF_WORD
  *((const to_nomodify word*) CHAR_COUNTS + (byte~) main::$3) ← ++ *((const to_nomodify word*) CHAR_COUNTS + (byte~) main::$3)
  (byte*) main::screen#1 ← ++ (byte*) main::screen#2
  (word) main::i#1 ← (word) main::i#2 + rangenext(0,$3e7)
  (bool~) main::$1 ← (word) main::i#1 != rangelast(0,$3e7)
  if((bool~) main::$1) goto main::@1
  to:main::@return
main::@return: scope:[main]  from main::@1
  return 
  to:@return

(void()) __start()
__start: scope:[__start]  from
  call main 
  to:__start::@1
__start::@1: scope:[__start]  from __start
  to:__start::@return
__start::@return: scope:[__start]  from __start::@1
  return 
  to:@return

SYMBOL TABLE SSA
(const to_nomodify word*) CHAR_COUNTS[(number) $100]  = { fill( $100, 0) }
(const byte) SIZEOF_WORD = (byte) 2
(void()) __start()
(label) __start::@1
(label) __start::@return
(void()) main()
(bool~) main::$1
(byte~) main::$3
(label) main::@1
(label) main::@return
(word) main::i
(word) main::i#0
(word) main::i#1
(word) main::i#2
(byte*) main::screen
(byte*) main::screen#0
(byte*) main::screen#1
(byte*) main::screen#2

Simplifying constant pointer cast (byte*) 1024
Successful SSA optimization PassNCastSimplification
Simple Condition (bool~) main::$1 [8] if((word) main::i#1!=rangelast(0,$3e7)) goto main::@1
Successful SSA optimization Pass2ConditionalJumpSimplification
Constant (const byte*) main::screen#0 = (byte*) 1024
Constant (const word) main::i#0 = 0
Successful SSA optimization Pass2ConstantIdentification
Resolved ranged next value [6] main::i#1 ← ++ main::i#2 to ++
Resolved ranged comparison value [8] if(main::i#1!=rangelast(0,$3e7)) goto main::@1 to (number) $3e8
Removing unused procedure __start
Removing unused procedure block __start
Removing unused procedure block __start::@1
Removing unused procedure block __start::@return
Successful SSA optimization PassNEliminateEmptyStart
Adding number conversion cast (unumber) $3e8 in [5] if((word) main::i#1!=(number) $3e8) goto main::@1
Successful SSA optimization PassNAddNumberTypeConversions
Simplifying constant integer cast $3e8
Successful SSA optimization PassNCastSimplification
Finalized unsigned number type (word) $3e8
Successful SSA optimization PassNFinalizeNumberTypeConversions
Rewriting multiplication to use shift [1] (byte~) main::$3 ← *((byte*) main::screen#2) * (const byte) SIZEOF_WORD
Successful SSA optimization Pass2MultiplyToShiftRewriting
Inlining constant with var siblings (const byte*) main::screen#0
Inlining constant with var siblings (const word) main::i#0
Constant inlined main::screen#0 = (byte*) 1024
Constant inlined main::i#0 = (word) 0
Successful SSA optimization Pass2ConstantInlining
Eliminating unused constant (const byte) SIZEOF_WORD
Successful SSA optimization PassNEliminateUnusedVars
Added new block during phi lifting main::@2(between main::@1 and main::@1)
Adding NOP phi() at start of main
CALL GRAPH

Created 2 initial phi equivalence classes
Coalesced [8] main::screen#3 ← main::screen#1
Coalesced [9] main::i#3 ← main::i#1
Coalesced down to 2 phi equivalence classes
Culled Empty Block (label) main::@2
Adding NOP phi() at start of main

FINAL CONTROL FLOW GRAPH

(void()) main()
main: scope:[main]  from
  [0] phi()
  to:main::@1
main::@1: scope:[main]  from main main::@1
  [1] (word) main::i#2 ← phi( main/(word) 0 main::@1/(word) main::i#1 )
  [1] (byte*) main::screen#2 ← phi( main/(byte*) 1024 main::@1/(byte*) main::screen#1 )
  [2] (byte~) main::$3 ← *((byte*) main::screen#2) << (byte) 1
  [3] *((const to_nomodify word*) CHAR_COUNTS + (byte~) main::$3) ← ++ *((const to_nomodify word*) CHAR_COUNTS + (byte~) main::$3)
  [4] (byte*) main::screen#1 ← ++ (byte*) main::screen#2
  [5] (word) main::i#1 ← ++ (word) main::i#2
  [6] if((word) main::i#1!=(word) $3e8) goto main::@1
  to:main::@return
main::@return: scope:[main]  from main::@1
  [7] return 
  to:@return


VARIABLE REGISTER WEIGHTS
(void()) main()
(byte~) main::$3 33.0
(word) main::i
(word) main::i#1 16.5
(word) main::i#2 5.5
(byte*) main::screen
(byte*) main::screen#1 7.333333333333333
(byte*) main::screen#2 11.0

Initial phi equivalence classes
[ main::screen#2 main::screen#1 ]
[ main::i#2 main::i#1 ]
Added variable main::$3 to live range equivalence class [ main::$3 ]
Complete equivalence classes
[ main::screen#2 main::screen#1 ]
[ main::i#2 main::i#1 ]
[ main::$3 ]
Allocated zp[2]:2 [ main::screen#2 main::screen#1 ]
Allocated zp[2]:4 [ main::i#2 main::i#1 ]
Allocated zp[1]:6 [ main::$3 ]

INITIAL ASM
Target platform is c64basic / MOS6502X
  // File Comments
// Inner increment is not being done properly (screen++)
  // Upstart
.pc = $801 "Basic"
:BasicUpstart(main)
.pc = $80d "Program"
  // Global Constants & labels
  // main
main: {
    .label __3 = 6
    // Count the number of the different chars on the screen
    .label screen = 2
    .label i = 4
    // [1] phi from main to main::@1 [phi:main->main::@1]
  __b1_from_main:
    // [1] phi (word) main::i#2 = (word) 0 [phi:main->main::@1#0] -- vwuz1=vwuc1 
    lda #<0
    sta.z i
    lda #>0
    sta.z i+1
    // [1] phi (byte*) main::screen#2 = (byte*) 1024 [phi:main->main::@1#1] -- pbuz1=pbuc1 
    lda #<$400
    sta.z screen
    lda #>$400
    sta.z screen+1
    jmp __b1
    // [1] phi from main::@1 to main::@1 [phi:main::@1->main::@1]
  __b1_from___b1:
    // [1] phi (word) main::i#2 = (word) main::i#1 [phi:main::@1->main::@1#0] -- register_copy 
    // [1] phi (byte*) main::screen#2 = (byte*) main::screen#1 [phi:main::@1->main::@1#1] -- register_copy 
    jmp __b1
    // main::@1
  __b1:
    // [2] (byte~) main::$3 ← *((byte*) main::screen#2) << (byte) 1 -- vbuz1=_deref_pbuz2_rol_1 
    ldy #0
    lda (screen),y
    asl
    sta.z __3
    // [3] *((const to_nomodify word*) CHAR_COUNTS + (byte~) main::$3) ← ++ *((const to_nomodify word*) CHAR_COUNTS + (byte~) main::$3) -- pwuc1_derefidx_vbuz1=_inc_pwuc1_derefidx_vbuz1 
    ldx.z __3
    inc CHAR_COUNTS,x
    bne !+
    inc CHAR_COUNTS+1,x
  !:
    // [4] (byte*) main::screen#1 ← ++ (byte*) main::screen#2 -- pbuz1=_inc_pbuz1 
    inc.z screen
    bne !+
    inc.z screen+1
  !:
    // [5] (word) main::i#1 ← ++ (word) main::i#2 -- vwuz1=_inc_vwuz1 
    inc.z i
    bne !+
    inc.z i+1
  !:
    // [6] if((word) main::i#1!=(word) $3e8) goto main::@1 -- vwuz1_neq_vwuc1_then_la1 
    lda.z i+1
    cmp #>$3e8
    bne __b1_from___b1
    lda.z i
    cmp #<$3e8
    bne __b1_from___b1
    jmp __breturn
    // main::@return
  __breturn:
    // [7] return 
    rts
}
  // File Data
  CHAR_COUNTS: .fill 2*$100, 0

REGISTER UPLIFT POTENTIAL REGISTERS
Statement [2] (byte~) main::$3 ← *((byte*) main::screen#2) << (byte) 1 [ main::screen#2 main::i#2 main::$3 ] (  [ main::screen#2 main::i#2 main::$3 ] { }  ) always clobbers reg byte a reg byte y 
Statement [6] if((word) main::i#1!=(word) $3e8) goto main::@1 [ main::screen#1 main::i#1 ] (  [ main::screen#1 main::i#1 ] { }  ) always clobbers reg byte a 
Potential registers zp[2]:2 [ main::screen#2 main::screen#1 ] : zp[2]:2 , 
Potential registers zp[2]:4 [ main::i#2 main::i#1 ] : zp[2]:4 , 
Potential registers zp[1]:6 [ main::$3 ] : zp[1]:6 , reg byte a , reg byte x , reg byte y , 

REGISTER UPLIFT SCOPES
Uplift Scope [main] 33: zp[1]:6 [ main::$3 ] 22: zp[2]:4 [ main::i#2 main::i#1 ] 18.33: zp[2]:2 [ main::screen#2 main::screen#1 ] 
Uplift Scope [] 

Uplifting [main] best 976 combination reg byte a [ main::$3 ] zp[2]:4 [ main::i#2 main::i#1 ] zp[2]:2 [ main::screen#2 main::screen#1 ] 
Uplifting [] best 976 combination 

ASSEMBLER BEFORE OPTIMIZATION
  // File Comments
// Inner increment is not being done properly (screen++)
  // Upstart
.pc = $801 "Basic"
:BasicUpstart(main)
.pc = $80d "Program"
  // Global Constants & labels
  // main
main: {
    // Count the number of the different chars on the screen
    .label screen = 2
    .label i = 4
    // [1] phi from main to main::@1 [phi:main->main::@1]
  __b1_from_main:
    // [1] phi (word) main::i#2 = (word) 0 [phi:main->main::@1#0] -- vwuz1=vwuc1 
    lda #<0
    sta.z i
    lda #>0
    sta.z i+1
    // [1] phi (byte*) main::screen#2 = (byte*) 1024 [phi:main->main::@1#1] -- pbuz1=pbuc1 
    lda #<$400
    sta.z screen
    lda #>$400
    sta.z screen+1
    jmp __b1
    // [1] phi from main::@1 to main::@1 [phi:main::@1->main::@1]
  __b1_from___b1:
    // [1] phi (word) main::i#2 = (word) main::i#1 [phi:main::@1->main::@1#0] -- register_copy 
    // [1] phi (byte*) main::screen#2 = (byte*) main::screen#1 [phi:main::@1->main::@1#1] -- register_copy 
    jmp __b1
    // main::@1
  __b1:
    // [2] (byte~) main::$3 ← *((byte*) main::screen#2) << (byte) 1 -- vbuaa=_deref_pbuz1_rol_1 
    ldy #0
    lda (screen),y
    asl
    // [3] *((const to_nomodify word*) CHAR_COUNTS + (byte~) main::$3) ← ++ *((const to_nomodify word*) CHAR_COUNTS + (byte~) main::$3) -- pwuc1_derefidx_vbuaa=_inc_pwuc1_derefidx_vbuaa 
    tax
    inc CHAR_COUNTS,x
    bne !+
    inc CHAR_COUNTS+1,x
  !:
    // [4] (byte*) main::screen#1 ← ++ (byte*) main::screen#2 -- pbuz1=_inc_pbuz1 
    inc.z screen
    bne !+
    inc.z screen+1
  !:
    // [5] (word) main::i#1 ← ++ (word) main::i#2 -- vwuz1=_inc_vwuz1 
    inc.z i
    bne !+
    inc.z i+1
  !:
    // [6] if((word) main::i#1!=(word) $3e8) goto main::@1 -- vwuz1_neq_vwuc1_then_la1 
    lda.z i+1
    cmp #>$3e8
    bne __b1_from___b1
    lda.z i
    cmp #<$3e8
    bne __b1_from___b1
    jmp __breturn
    // main::@return
  __breturn:
    // [7] return 
    rts
}
  // File Data
  CHAR_COUNTS: .fill 2*$100, 0

ASSEMBLER OPTIMIZATIONS
Removing instruction jmp __b1
Removing instruction jmp __breturn
Succesful ASM optimization Pass5NextJumpElimination
Removing instruction lda #>0
Succesful ASM optimization Pass5UnnecesaryLoadElimination
Replacing label __b1_from___b1 with __b1
Replacing label __b1_from___b1 with __b1
Removing instruction __b1_from___b1:
Succesful ASM optimization Pass5RedundantLabelElimination
Removing instruction __b1_from_main:
Removing instruction __breturn:
Succesful ASM optimization Pass5UnusedLabelElimination
Removing instruction jmp __b1
Succesful ASM optimization Pass5NextJumpElimination

FINAL SYMBOL TABLE
(const to_nomodify word*) CHAR_COUNTS[(number) $100]  = { fill( $100, 0) }
(void()) main()
(byte~) main::$3 reg byte a 33.0
(label) main::@1
(label) main::@return
(word) main::i
(word) main::i#1 i zp[2]:4 16.5
(word) main::i#2 i zp[2]:4 5.5
(byte*) main::screen
(byte*) main::screen#1 screen zp[2]:2 7.333333333333333
(byte*) main::screen#2 screen zp[2]:2 11.0

zp[2]:2 [ main::screen#2 main::screen#1 ]
zp[2]:4 [ main::i#2 main::i#1 ]
reg byte a [ main::$3 ]


FINAL ASSEMBLER
Score: 866

  // File Comments
// Inner increment is not being done properly (screen++)
  // Upstart
.pc = $801 "Basic"
:BasicUpstart(main)
.pc = $80d "Program"
  // Global Constants & labels
  // main
main: {
    // Count the number of the different chars on the screen
    .label screen = 2
    .label i = 4
    // [1] phi from main to main::@1 [phi:main->main::@1]
    // [1] phi (word) main::i#2 = (word) 0 [phi:main->main::@1#0] -- vwuz1=vwuc1 
    lda #<0
    sta.z i
    sta.z i+1
    // [1] phi (byte*) main::screen#2 = (byte*) 1024 [phi:main->main::@1#1] -- pbuz1=pbuc1 
    lda #<$400
    sta.z screen
    lda #>$400
    sta.z screen+1
    // [1] phi from main::@1 to main::@1 [phi:main::@1->main::@1]
    // [1] phi (word) main::i#2 = (word) main::i#1 [phi:main::@1->main::@1#0] -- register_copy 
    // [1] phi (byte*) main::screen#2 = (byte*) main::screen#1 [phi:main::@1->main::@1#1] -- register_copy 
    // main::@1
  __b1:
    // CHAR_COUNTS[*screen++]++;
    // [2] (byte~) main::$3 ← *((byte*) main::screen#2) << (byte) 1 -- vbuaa=_deref_pbuz1_rol_1 
    ldy #0
    lda (screen),y
    asl
    // [3] *((const to_nomodify word*) CHAR_COUNTS + (byte~) main::$3) ← ++ *((const to_nomodify word*) CHAR_COUNTS + (byte~) main::$3) -- pwuc1_derefidx_vbuaa=_inc_pwuc1_derefidx_vbuaa 
    tax
    inc CHAR_COUNTS,x
    bne !+
    inc CHAR_COUNTS+1,x
  !:
    // [4] (byte*) main::screen#1 ← ++ (byte*) main::screen#2 -- pbuz1=_inc_pbuz1 
    inc.z screen
    bne !+
    inc.z screen+1
  !:
    // for( word i:0..999)
    // [5] (word) main::i#1 ← ++ (word) main::i#2 -- vwuz1=_inc_vwuz1 
    inc.z i
    bne !+
    inc.z i+1
  !:
    // [6] if((word) main::i#1!=(word) $3e8) goto main::@1 -- vwuz1_neq_vwuc1_then_la1 
    lda.z i+1
    cmp #>$3e8
    bne __b1
    lda.z i
    cmp #<$3e8
    bne __b1
    // main::@return
    // }
    // [7] return 
    rts
}
  // File Data
  CHAR_COUNTS: .fill 2*$100, 0

