(const nomodify byte*) COLS = (byte*) 55296
(const nomodify byte) GREEN = (byte) 5
(const nomodify byte) RED = (byte) 2
(const nomodify byte*) SCREEN = (byte*) 1024
(const byte) TYPEID_BYTE = (number) 1
(const byte) TYPEID_DWORD = (number) 5
(const byte) TYPEID_SIGNED_BYTE = (number) 2
(const byte) TYPEID_SIGNED_DWORD = (number) 6
(const byte) TYPEID_SIGNED_WORD = (number) 4
(const byte) TYPEID_WORD = (number) 3
(void()) assertType((byte) assertType::t1 , (byte) assertType::t2)
(label) assertType::@1
(label) assertType::@2
(label) assertType::@3
(label) assertType::@return
(byte) assertType::t1
(byte) assertType::t1#42 reg byte y 50.5
(byte) assertType::t2
(byte) assertType::t2#42 t2 zp[1]:4 101.0
(byte) idx
(byte) idx#106 reg byte x 166.60000000000005
(byte) idx#109 reg byte x 6.973684210526315
(byte) idx#18 reg byte x 22.0
(byte) idx#25 reg byte x 22.0
(byte) idx#39 reg byte x 22.0
(byte) idx#46 reg byte x 22.0
(void()) main()
(label) main::@1
(label) main::@2
(label) main::@3
(label) main::@4
(label) main::@return
(byte*) main::s
(byte*) main::s#1 s zp[2]:2 22.0
(byte*) main::s#2 s zp[2]:2 14.666666666666666
(void()) testBinaryOperator()
(label) testBinaryOperator::@1
(label) testBinaryOperator::@10
(label) testBinaryOperator::@11
(label) testBinaryOperator::@12
(label) testBinaryOperator::@13
(label) testBinaryOperator::@14
(label) testBinaryOperator::@15
(label) testBinaryOperator::@16
(label) testBinaryOperator::@17
(label) testBinaryOperator::@18
(label) testBinaryOperator::@19
(label) testBinaryOperator::@2
(label) testBinaryOperator::@20
(label) testBinaryOperator::@21
(label) testBinaryOperator::@22
(label) testBinaryOperator::@23
(label) testBinaryOperator::@24
(label) testBinaryOperator::@25
(label) testBinaryOperator::@26
(label) testBinaryOperator::@27
(label) testBinaryOperator::@28
(label) testBinaryOperator::@29
(label) testBinaryOperator::@3
(label) testBinaryOperator::@30
(label) testBinaryOperator::@31
(label) testBinaryOperator::@32
(label) testBinaryOperator::@33
(label) testBinaryOperator::@34
(label) testBinaryOperator::@35
(label) testBinaryOperator::@4
(label) testBinaryOperator::@5
(label) testBinaryOperator::@6
(label) testBinaryOperator::@7
(label) testBinaryOperator::@8
(label) testBinaryOperator::@9
(label) testBinaryOperator::@return
(void()) testUnaryOperator()
(label) testUnaryOperator::@1
(label) testUnaryOperator::@2
(label) testUnaryOperator::@3
(label) testUnaryOperator::@4
(label) testUnaryOperator::@5
(label) testUnaryOperator::@return

zp[2]:2 [ main::s#2 main::s#1 ]
reg byte y [ assertType::t1#42 ]
zp[1]:4 [ assertType::t2#42 ]
reg byte x [ idx#106 idx#109 idx#25 idx#39 idx#46 idx#18 ]
