(const nomodify void()**) KERNEL_IRQ = (void()**) 788
(const nomodify byte*) SCREEN = (byte*) 1024
(void()) __start()
(label) __start::@1
(label) __start::@return
(label) __start::__init1
(volatile byte) col1 loadstore zp[1]:2 8.0
(volatile byte) col2 loadstore zp[1]:3 2.6666666666666665
interrupt(KERNEL_MIN)(void()) irq()
(label) irq::@return
(void()) main()
(label) main::@return

zp[1]:2 [ col1 ]
zp[1]:3 [ col2 ]
