(const nomodify byte*) BG_COLOR = (byte*) 53280
(const nomodify byte) BLACK = (byte) 0
(const nomodify byte*) CIA1_INTERRUPT = (byte*) 56333
(const nomodify byte) CIA_INTERRUPT_CLEAR = (byte) $7f
(const nomodify byte*) FGCOL = (byte*) 53281
(const nomodify void()**) HARDWARE_IRQ = (void()**) 65534
(const nomodify byte*) IRQ_ENABLE = (byte*) 53274
(const nomodify byte) IRQ_RASTER = (byte) 1
(const nomodify byte*) IRQ_STATUS = (byte*) 53273
(const nomodify byte*) PROCPORT = (byte*) 1
(const nomodify byte*) PROCPORT_DDR = (byte*) 0
(const nomodify byte) PROCPORT_DDR_MEMORY_MASK = (byte) 7
(const nomodify byte) PROCPORT_RAM_IO = (byte) $35
(const nomodify byte*) RASTER = (byte*) 53266
(const nomodify byte*) VIC_CONTROL = (byte*) 53265
(const nomodify byte) WHITE = (byte) 1
interrupt(HARDWARE_CLOBBER)(void()) irq()
(label) irq::@return
(void()) main()
(label) main::@1

