(const nomodify struct MOS6526_CIA*) CIA1 = (struct MOS6526_CIA*) 56320
(const nomodify byte) CIA_INTERRUPT_CLEAR = (byte) $7f
(const byte*) IRQ_CHANGE_IDX[]  = { (byte) $20, (byte) $21, (const nomodify byte) IRQ_CHANGE_NEXT, (byte) $20, (byte) $21, (const nomodify byte) IRQ_CHANGE_NEXT, (byte) $20, (byte) $21, (const nomodify byte) IRQ_CHANGE_NEXT, (byte) $20, (byte) $21, (const nomodify byte) IRQ_CHANGE_NEXT }
(const nomodify byte) IRQ_CHANGE_NEXT = (byte) $7f
(const byte*) IRQ_CHANGE_VAL[]  = { (byte) $b, (byte) $b, (byte) $63, (byte) 0, (byte) 0, (byte) $80, (byte) 7, (byte) 7, (byte) $83, (byte) 0, (byte) 0, (byte) $60 }
(const nomodify byte*) IRQ_ENABLE = (byte*) 53274
(const nomodify byte) IRQ_RASTER = (byte) 1
(const nomodify byte*) IRQ_STATUS = (byte*) 53273
(const nomodify void()**) KERNEL_IRQ = (void()**) 788
(byte) MOS6526_CIA::INTERRUPT
(byte) MOS6526_CIA::PORT_A
(byte) MOS6526_CIA::PORT_A_DDR
(byte) MOS6526_CIA::PORT_B
(byte) MOS6526_CIA::PORT_B_DDR
(byte) MOS6526_CIA::SERIAL_DATA
(word) MOS6526_CIA::TIMER_A
(byte) MOS6526_CIA::TIMER_A_CONTROL
(word) MOS6526_CIA::TIMER_B
(byte) MOS6526_CIA::TIMER_B_CONTROL
(byte) MOS6526_CIA::TOD_10THS
(byte) MOS6526_CIA::TOD_HOURS
(byte) MOS6526_CIA::TOD_MIN
(byte) MOS6526_CIA::TOD_SEC
(byte) MOS6569_VICII::BG_COLOR
(byte) MOS6569_VICII::BG_COLOR1
(byte) MOS6569_VICII::BG_COLOR2
(byte) MOS6569_VICII::BG_COLOR3
(byte) MOS6569_VICII::BORDER_COLOR
(byte) MOS6569_VICII::CONTROL1
(byte) MOS6569_VICII::CONTROL2
(byte) MOS6569_VICII::IRQ_ENABLE
(byte) MOS6569_VICII::IRQ_STATUS
(byte) MOS6569_VICII::LIGHTPEN_X
(byte) MOS6569_VICII::LIGHTPEN_Y
(byte) MOS6569_VICII::MEMORY
(byte) MOS6569_VICII::RASTER
(byte) MOS6569_VICII::SPRITE0_COLOR
(byte) MOS6569_VICII::SPRITE0_X
(byte) MOS6569_VICII::SPRITE0_Y
(byte) MOS6569_VICII::SPRITE1_COLOR
(byte) MOS6569_VICII::SPRITE1_X
(byte) MOS6569_VICII::SPRITE1_Y
(byte) MOS6569_VICII::SPRITE2_COLOR
(byte) MOS6569_VICII::SPRITE2_X
(byte) MOS6569_VICII::SPRITE2_Y
(byte) MOS6569_VICII::SPRITE3_COLOR
(byte) MOS6569_VICII::SPRITE3_X
(byte) MOS6569_VICII::SPRITE3_Y
(byte) MOS6569_VICII::SPRITE4_COLOR
(byte) MOS6569_VICII::SPRITE4_X
(byte) MOS6569_VICII::SPRITE4_Y
(byte) MOS6569_VICII::SPRITE5_COLOR
(byte) MOS6569_VICII::SPRITE5_X
(byte) MOS6569_VICII::SPRITE5_Y
(byte) MOS6569_VICII::SPRITE6_COLOR
(byte) MOS6569_VICII::SPRITE6_X
(byte) MOS6569_VICII::SPRITE6_Y
(byte) MOS6569_VICII::SPRITE7_COLOR
(byte) MOS6569_VICII::SPRITE7_X
(byte) MOS6569_VICII::SPRITE7_Y
(byte) MOS6569_VICII::SPRITES_BG_COLLISION
(byte) MOS6569_VICII::SPRITES_COLLISION
(byte) MOS6569_VICII::SPRITES_ENABLE
(byte) MOS6569_VICII::SPRITES_EXPAND_X
(byte) MOS6569_VICII::SPRITES_EXPAND_Y
(byte) MOS6569_VICII::SPRITES_MC
(byte) MOS6569_VICII::SPRITES_MCOLOR1
(byte) MOS6569_VICII::SPRITES_MCOLOR2
(byte) MOS6569_VICII::SPRITES_PRIORITY
(byte) MOS6569_VICII::SPRITES_XMSB
(byte) MOS6581_SID::CH1_ATTACK_DECAY
(byte) MOS6581_SID::CH1_CONTROL
(word) MOS6581_SID::CH1_FREQ
(word) MOS6581_SID::CH1_PULSE_WIDTH
(byte) MOS6581_SID::CH1_SUSTAIN_RELEASE
(byte) MOS6581_SID::CH2_ATTACK_DECAY
(byte) MOS6581_SID::CH2_CONTROL
(word) MOS6581_SID::CH2_FREQ
(word) MOS6581_SID::CH2_PULSE_WIDTH
(byte) MOS6581_SID::CH2_SUSTAIN_RELEASE
(byte) MOS6581_SID::CH3_ATTACK_DECAY
(byte) MOS6581_SID::CH3_CONTROL
(byte) MOS6581_SID::CH3_ENV
(word) MOS6581_SID::CH3_FREQ
(byte) MOS6581_SID::CH3_OSC
(word) MOS6581_SID::CH3_PULSE_WIDTH
(byte) MOS6581_SID::CH3_SUSTAIN_RELEASE
(byte) MOS6581_SID::FILTER_CUTOFF_HIGH
(byte) MOS6581_SID::FILTER_CUTOFF_LOW
(byte) MOS6581_SID::FILTER_SETUP
(byte) MOS6581_SID::POT_X
(byte) MOS6581_SID::POT_Y
(byte) MOS6581_SID::VOLUME_FILTER_MODE
(const byte) OFFSET_STRUCT_MOS6526_CIA_INTERRUPT = (byte) $d
(const nomodify byte*) RASTER = (byte*) 53266
(const nomodify byte*) SCREEN = (byte*) 1024
(const nomodify byte*) VIC_BASE = (byte*) 53248
(const nomodify byte*) VIC_CONTROL = (byte*) 53265
(const nomodify byte) VIC_SIZE = (byte) $30
(void()) __start()
(label) __start::@1
(label) __start::@return
(label) __start::__init1
(volatile byte) irq_idx loadstore zp[1]:2 6.0
(void()) main()
(label) main::@return
interrupt(KERNEL_MIN)(void()) table_driven_irq()
(label) table_driven_irq::@1
(label) table_driven_irq::@2
(label) table_driven_irq::@3
(label) table_driven_irq::@4
(label) table_driven_irq::@5
(label) table_driven_irq::@6
(label) table_driven_irq::@return
(byte) table_driven_irq::idx
(byte) table_driven_irq::idx#0 reg byte a 11.0
(byte) table_driven_irq::val
(byte) table_driven_irq::val#0 reg byte x 6.166666666666666

zp[1]:2 [ irq_idx ]
reg byte a [ table_driven_irq::idx#0 ]
reg byte x [ table_driven_irq::val#0 ]
