(const byte*) SCREEN = (byte*) 1024
(const byte) ch = (byte) 'a'
(void()) main()
(label) main::@1
(label) main::@return
(byte) main::i
(byte) main::i#1 reg byte x 16.5
(byte) main::i#2 reg byte x 22.0
(const byte) num = (byte) 1
(const byte*) nums[]  = { (byte) 2, (byte) 3, (byte) 4, (byte) 5 }
(const byte*) str[]  = (byte*) "bcde"

reg byte x [ main::i#2 main::i#1 ]
