(const nomodify byte*) BG_COLOR = (byte*) 53280
(const nomodify void()**) KERNEL_IRQ = (void()**) 788
(void()) __start()
(label) __start::@1
(label) __start::@return
(label) __start::__init1
(volatile byte) col loadstore zp[1]:2 139.0
interrupt(KERNEL_MIN)(void()) irq()
(label) irq::@1
(label) irq::@return
(void()) main()
(label) main::@1
(label) main::@2

zp[1]:2 [ col ]
