(const nomodify byte*) SCREEN = (byte*) 1024
(void()) b((byte) b::i)
(label) b::@return
(byte) b::i
(byte) b::i#0 reg byte a 112.0
(void()) c((byte) c::i)
(label) c::@1
(label) c::@return
(byte) c::i
(byte) c::i#0 reg byte a 16683.666666666664
(byte) c::j
(byte) c::j#1 reg byte x 150001.5
(byte) c::j#2 reg byte x 150001.5
(void()) main()
(label) main::@1
(label) main::@2
(label) main::@return
(byte) main::i
(byte) main::i#1 reg byte a 16.5
(byte) main::i#2 reg byte a 11.0

reg byte a [ main::i#2 main::i#1 ]
reg byte x [ c::j#2 c::j#1 ]
reg byte a [ b::i#0 ]
reg byte a [ c::i#0 ]
