(const byte*) SCREEN[(number) $100]  = (byte*) 1024
(byte) cnt
(byte) cnt#1 reg byte x 4.0
(byte) cnt#12 reg byte x 4.0
(byte) cnt#13 reg byte x 13.0
(byte) cnt#14 reg byte x 3.4000000000000004
(void()) inccnt()
(label) inccnt::@return
(void()) main()
(label) main::@1
(label) main::@2
(label) main::@return

reg byte x [ cnt#13 cnt#1 ]
reg byte x [ cnt#12 ]
reg byte x [ cnt#14 ]
