(const nomodify byte*) SCREEN = (byte*) 1024
(void()) main()
(byte~) main::$2 reg byte a 22.0
(byte~) main::$3 reg byte a 22.0
(byte~) main::$4 reg byte a 22.0
(label) main::@1
(label) main::@2
(label) main::@return
(byte) main::c1
(byte) main::c1#1 reg byte x 22.0
(byte) main::c1#2 reg byte x 8.25
(byte) main::c3
(byte) main::c3#0 reg byte a 22.0
(byte) main::i
(byte) main::i#1 reg byte y 11.0
(byte) main::i#2 reg byte y 4.714285714285714

reg byte x [ main::c1#2 main::c1#1 ]
reg byte y [ main::i#2 main::i#1 ]
reg byte a [ main::$2 ]
reg byte a [ main::$3 ]
reg byte a [ main::$4 ]
reg byte a [ main::c3#0 ]
