(void()) main()
(byte~) main::$1 reg byte a 22.0
(byte~) main::$2 reg byte a 22.0
(byte~) main::$3 reg byte a 22.0
(signed byte~) main::$5 reg byte a 11.0
(label) main::@1
(label) main::@return
(const nomodify byte*) main::SCREEN = (byte*) 1024
(byte) main::i
(byte) main::i#1 reg byte x 16.5
(byte) main::i#2 reg byte x 11.0
(signed byte) main::sb
(signed byte) main::sb#0 reg byte a 22.0

reg byte x [ main::i#2 main::i#1 ]
reg byte a [ main::$1 ]
reg byte a [ main::$2 ]
reg byte a [ main::$3 ]
reg byte a [ main::sb#0 ]
reg byte a [ main::$5 ]
