(byte) ba
(byte) ba#0 ba zp[1]:2 22.0
(byte) ba#1 ba zp[1]:2 19.471698113207548
(byte) bb
(byte) bb#1 bb zp[1]:3 71.0
(byte) bb#10 bb zp[1]:3 101.0
(byte) bb#102 bb_1 zp[1]:4 202.0
(byte) bb#103 bb_1 zp[1]:4 202.0
(byte) bb#104 bb_1 zp[1]:4 202.0
(byte) bb#105 bb_1 zp[1]:4 202.0
(byte) bb#106 bb_1 zp[1]:4 202.0
(byte) bb#107 bb_1 zp[1]:4 202.0
(byte) bb#108 bb_1 zp[1]:4 202.0
(byte) bb#109 bb_1 zp[1]:4 202.0
(byte) bb#110 bb_1 zp[1]:4 202.0
(byte) bb#12 bb zp[1]:3 28.0
(byte) bb#19 bb zp[1]:3 202.0
(byte) bb#2 bb zp[1]:3 101.0
(byte) bb#20 bb zp[1]:3 202.0
(byte) bb#21 bb zp[1]:3 202.0
(byte) bb#22 bb zp[1]:3 202.0
(byte) bb#23 bb zp[1]:3 202.0
(byte) bb#24 bb zp[1]:3 202.0
(byte) bb#25 bb zp[1]:3 202.0
(byte) bb#26 bb zp[1]:3 202.0
(byte) bb#28 bb_1 zp[1]:4 237.36956521739125
(byte) bb#3 bb zp[1]:3 101.0
(byte) bb#4 bb zp[1]:3 101.0
(byte) bb#5 bb zp[1]:3 101.0
(byte) bb#52 bb zp[1]:3 151.5
(byte) bb#6 bb zp[1]:3 101.0
(byte) bb#69 bb zp[1]:3 101.0
(byte) bb#70 bb zp[1]:3 101.0
(byte) bb#71 bb zp[1]:3 101.0
(byte) bc
(byte) bc#1 reg byte x 42.599999999999994
(byte) bc#100 reg byte x 101.0
(byte) bc#101 reg byte x 101.0
(byte) bc#102 reg byte x 101.0
(byte) bc#103 reg byte x 101.0
(byte) bc#104 reg byte x 101.0
(byte) bc#105 reg byte x 101.0
(byte) bc#106 reg byte x 1001.0
(byte) bc#107 reg byte x 1001.0
(byte) bc#108 reg byte x 1001.0
(byte) bc#109 reg byte x 1001.0
(byte) bc#110 reg byte x 1001.0
(byte) bc#111 reg byte x 1001.0
(byte) bc#112 reg byte x 1001.0
(byte) bc#113 reg byte x 1001.0
(byte) bc#114 reg byte x 1001.0
(byte) bc#115 bc zp[1]:5 2369.978260869566
(byte) bc#12 reg byte x 53.25
(byte) bc#174 bc zp[1]:5 2002.0
(byte) bc#175 bc zp[1]:5 2002.0
(byte) bc#176 bc zp[1]:5 2002.0
(byte) bc#177 bc zp[1]:5 2002.0
(byte) bc#178 bc zp[1]:5 2002.0
(byte) bc#179 bc zp[1]:5 2002.0
(byte) bc#180 bc zp[1]:5 2002.0
(byte) bc#181 bc zp[1]:5 2002.0
(byte) bc#182 bc zp[1]:5 2002.0
(byte) bc#23 reg byte x 167.58333333333334
(byte) bc#40 reg byte x 1506.0
(byte) bc#41 reg byte x 2002.0
(byte) bc#42 reg byte x 2002.0
(byte) bc#43 reg byte x 2002.0
(byte) bc#44 reg byte x 2002.0
(byte) bc#45 reg byte x 2002.0
(byte) bc#46 reg byte x 2002.0
(byte) bc#47 reg byte x 2002.0
(byte) bc#48 reg byte x 2002.0
(byte) bc#65 reg byte x 101.0
(byte) bc#66 reg byte x 101.0
(byte) bc#73 reg byte x 134.66666666666666
(byte) bc#85 reg byte x 1501.5
(byte) bd
(byte) bd#1 reg byte y 42.599999999999994
(byte) bd#100 reg byte y 1001.0
(byte) bd#101 reg byte y 1001.0
(byte) bd#102 reg byte y 1001.0
(byte) bd#103 reg byte y 1001.0
(byte) bd#104 reg byte y 1001.0
(byte) bd#105 reg byte y 1001.0
(byte) bd#106 reg byte y 1334.6666666666667
(byte) bd#108 reg byte y 15006.0
(byte) bd#109 reg byte y 20002.0
(byte) bd#110 reg byte y 20002.0
(byte) bd#111 reg byte y 20002.0
(byte) bd#112 reg byte y 20002.0
(byte) bd#113 reg byte y 20002.0
(byte) bd#114 reg byte y 20002.0
(byte) bd#115 reg byte y 20002.0
(byte) bd#116 reg byte y 20002.0
(byte) bd#118 reg byte y 15001.5
(byte) bd#119 reg byte a 57369.421052631566
(byte) bd#12 reg byte y 53.25
(byte) bd#131 reg byte y 101.0
(byte) bd#132 reg byte y 101.0
(byte) bd#133 reg byte y 101.0
(byte) bd#134 reg byte y 101.0
(byte) bd#135 reg byte y 101.0
(byte) bd#136 reg byte y 101.0
(byte) bd#137 reg byte y 101.0
(byte) bd#138 reg byte y 101.0
(byte) bd#139 reg byte y 753.0
(byte) bd#140 reg byte y 1001.0
(byte) bd#141 reg byte y 1001.0
(byte) bd#148 reg byte y 10001.0
(byte) bd#149 reg byte y 10001.0
(byte) bd#150 reg byte y 10001.0
(byte) bd#151 reg byte y 10001.0
(byte) bd#152 reg byte y 10001.0
(byte) bd#153 reg byte y 10001.0
(byte) bd#154 reg byte y 10001.0
(byte) bd#155 reg byte y 10001.0
(byte) bd#156 reg byte y 10001.0
(byte) bd#23 reg byte y 251.0
(byte) bd#237 reg byte a 20002.0
(byte) bd#238 reg byte a 20002.0
(byte) bd#239 reg byte a 20002.0
(byte) bd#240 reg byte a 20002.0
(byte) bd#241 reg byte a 20002.0
(byte) bd#242 reg byte a 20002.0
(byte) bd#243 reg byte a 20002.0
(byte) bd#244 reg byte a 20002.0
(byte) bd#245 reg byte a 20002.0
(byte) bd#34 reg byte y 1667.5833333333333
(byte) bd#95 reg byte y 134.66666666666666
(void()) f0()
(label) f0::@1
(label) f0::@10
(label) f0::@11
(label) f0::@12
(label) f0::@13
(label) f0::@14
(label) f0::@15
(label) f0::@16
(label) f0::@17
(label) f0::@18
(label) f0::@19
(label) f0::@2
(label) f0::@3
(label) f0::@4
(label) f0::@5
(label) f0::@6
(label) f0::@7
(label) f0::@8
(label) f0::@9
(label) f0::@return
(void()) fa()
(label) fa::@1
(label) fa::@10
(label) fa::@11
(label) fa::@12
(label) fa::@13
(label) fa::@14
(label) fa::@15
(label) fa::@16
(label) fa::@17
(label) fa::@18
(label) fa::@19
(label) fa::@2
(label) fa::@3
(label) fa::@4
(label) fa::@5
(label) fa::@6
(label) fa::@7
(label) fa::@8
(label) fa::@9
(label) fa::@return
(void()) fb()
(label) fb::@1
(label) fb::@10
(label) fb::@11
(label) fb::@12
(label) fb::@13
(label) fb::@14
(label) fb::@15
(label) fb::@16
(label) fb::@17
(label) fb::@18
(label) fb::@19
(label) fb::@2
(label) fb::@3
(label) fb::@4
(label) fb::@5
(label) fb::@6
(label) fb::@7
(label) fb::@8
(label) fb::@9
(label) fb::@return
(void()) fc()
(label) fc::@1
(label) fc::@10
(label) fc::@11
(label) fc::@12
(label) fc::@13
(label) fc::@14
(label) fc::@15
(label) fc::@16
(label) fc::@17
(label) fc::@18
(label) fc::@19
(label) fc::@2
(label) fc::@3
(label) fc::@4
(label) fc::@5
(label) fc::@6
(label) fc::@7
(label) fc::@8
(label) fc::@9
(label) fc::@return
(void()) main()
(label) main::@1
(label) main::@2
(label) main::@3

zp[1]:2 [ ba#1 ba#0 ]
zp[1]:3 [ bb#52 bb#10 bb#26 bb#71 bb#25 bb#70 bb#24 bb#69 bb#23 bb#6 bb#22 bb#5 bb#21 bb#20 bb#19 bb#1 bb#12 bb#2 bb#3 bb#4 ]
zp[1]:4 [ bb#28 bb#102 bb#103 bb#104 bb#105 bb#106 bb#107 bb#108 bb#109 bb#110 ]
reg byte x [ bc#85 bc#114 bc#48 bc#113 bc#47 bc#112 bc#46 bc#111 bc#45 bc#110 bc#44 bc#109 bc#43 bc#42 bc#41 bc#40 bc#73 bc#105 bc#104 bc#103 bc#102 bc#101 bc#100 bc#66 bc#65 bc#1 bc#12 bc#23 bc#106 bc#107 bc#108 ]
zp[1]:5 [ bc#115 bc#174 bc#175 bc#176 bc#177 bc#178 bc#179 bc#180 bc#181 bc#182 ]
reg byte y [ bd#118 bd#156 bd#116 bd#155 bd#115 bd#154 bd#114 bd#153 bd#113 bd#152 bd#112 bd#151 bd#111 bd#110 bd#109 bd#108 bd#106 bd#105 bd#104 bd#103 bd#102 bd#101 bd#100 bd#141 bd#140 bd#139 bd#95 bd#138 bd#137 bd#136 bd#135 bd#134 bd#133 bd#132 bd#131 bd#1 bd#12 bd#23 bd#34 bd#148 bd#149 bd#150 ]
reg byte a [ bd#119 bd#237 bd#238 bd#239 bd#240 bd#241 bd#242 bd#243 bd#244 bd#245 ]
