(const nomodify byte*) COLS = (byte*)(word) $d800
(const nomodify byte) GREEN = (byte) 5
(const nomodify byte) RED = (byte) 2
(const nomodify byte*) SCREEN = (byte*)(word) $400
(const byte) TYPEID_BYTE = (number) 1
(const byte) TYPEID_DWORD = (number) 5
(const byte) TYPEID_SIGNED_BYTE = (number) 2
(const byte) TYPEID_SIGNED_DWORD = (number) 6
(const byte) TYPEID_SIGNED_WORD = (number) 4
(const byte) TYPEID_WORD = (number) 3
(void()) assertType((byte) assertType::t1 , (byte) assertType::t2)
(label) assertType::@1
(label) assertType::@2
(label) assertType::@3
(label) assertType::@return
(byte) assertType::t1
(byte) assertType::t1#35 reg byte y 5.5
(byte) assertType::t2
(byte) assertType::t2#35 t2 zp[1]:2 11.0
(byte) idx
(byte) idx#39 reg byte x 1.1363636363636358
(byte) idx#80 reg byte x 21.600000000000005
(void()) main()
(label) main::@1
(label) main::@10
(label) main::@11
(label) main::@12
(label) main::@13
(label) main::@14
(label) main::@15
(label) main::@16
(label) main::@17
(label) main::@18
(label) main::@19
(label) main::@2
(label) main::@20
(label) main::@21
(label) main::@22
(label) main::@23
(label) main::@24
(label) main::@25
(label) main::@26
(label) main::@27
(label) main::@28
(label) main::@29
(label) main::@3
(label) main::@30
(label) main::@31
(label) main::@32
(label) main::@33
(label) main::@34
(label) main::@4
(label) main::@5
(label) main::@6
(label) main::@7
(label) main::@8
(label) main::@9
(label) main::@return

reg byte y [ assertType::t1#35 ]
zp[1]:2 [ assertType::t2#35 ]
reg byte x [ idx#80 idx#39 ]
