Inlined call call __init 

CONTROL FLOW GRAPH SSA

(void()) main()
main: scope:[main]  from __start::@1
  (byte) main::i#0 ← (byte) 0
  to:main::@1
main::@1: scope:[main]  from main main::@4
  (byte) main::i#2 ← phi( main/(byte) main::i#0 main::@4/(byte) main::i#1 )
  (byte) line::l#0 ← (byte) main::i#2
  call line 
  to:main::@4
main::@4: scope:[main]  from main::@1
  (byte) main::i#3 ← phi( main::@1/(byte) main::i#2 )
  (byte) main::i#1 ← (byte) main::i#3 + rangenext(0,8)
  (bool~) main::$1 ← (byte) main::i#1 != rangelast(0,8)
  if((bool~) main::$1) goto main::@1
  to:main::@2
main::@2: scope:[main]  from main::@4
  (byte) main::j#0 ← (byte) $a
  to:main::@3
main::@3: scope:[main]  from main::@2 main::@5
  (byte) main::j#2 ← phi( main::@2/(byte) main::j#0 main::@5/(byte) main::j#1 )
  (byte) line::l#1 ← (byte) main::j#2
  call line 
  to:main::@5
main::@5: scope:[main]  from main::@3
  (byte) main::j#3 ← phi( main::@3/(byte) main::j#2 )
  (byte) main::j#1 ← (byte) main::j#3 + rangenext($a,$12)
  (bool~) main::$3 ← (byte) main::j#1 != rangelast($a,$12)
  if((bool~) main::$3) goto main::@3
  to:main::@return
main::@return: scope:[main]  from main::@5
  return 
  to:@return

(void()) line((byte) line::l)
line: scope:[line]  from main::@1 main::@3
  (byte) line::l#2 ← phi( main::@1/(byte) line::l#0 main::@3/(byte) line::l#1 )
  (byte) plot::x#0 ← (byte) line::l#2
  call plot 
  to:line::@1
line::@1: scope:[line]  from line
  (byte) line::l#3 ← phi( line/(byte) line::l#2 )
  (number~) line::$1 ← (byte) line::l#3 + (number) $14
  (byte) plot::x#1 ← (number~) line::$1
  call plot 
  to:line::@2
line::@2: scope:[line]  from line::@1
  to:line::@return
line::@return: scope:[line]  from line::@2
  return 
  to:@return

(void()) plot((byte) plot::x)
plot: scope:[plot]  from line line::@1
  (byte) plot::x#2 ← phi( line/(byte) plot::x#0 line::@1/(byte) plot::x#1 )
  *((const byte*) SCREEN + (byte) plot::x#2) ← (byte) '*'
  to:plot::@return
plot::@return: scope:[plot]  from plot
  return 
  to:@return

(void()) __start()
__start: scope:[__start]  from
  to:__start::__init1
__start::__init1: scope:[__start]  from __start
  to:__start::@1
__start::@1: scope:[__start]  from __start::__init1
  call main 
  to:__start::@2
__start::@2: scope:[__start]  from __start::@1
  to:__start::@return
__start::@return: scope:[__start]  from __start::@2
  return 
  to:@return

SYMBOL TABLE SSA
(const byte*) SCREEN = (byte*)(number) $400
(void()) __start()
(label) __start::@1
(label) __start::@2
(label) __start::@return
(label) __start::__init1
(void()) line((byte) line::l)
(number~) line::$1
(label) line::@1
(label) line::@2
(label) line::@return
(byte) line::l
(byte) line::l#0
(byte) line::l#1
(byte) line::l#2
(byte) line::l#3
(void()) main()
(bool~) main::$1
(bool~) main::$3
(label) main::@1
(label) main::@2
(label) main::@3
(label) main::@4
(label) main::@5
(label) main::@return
(byte) main::i
(byte) main::i#0
(byte) main::i#1
(byte) main::i#2
(byte) main::i#3
(byte) main::j
(byte) main::j#0
(byte) main::j#1
(byte) main::j#2
(byte) main::j#3
(void()) plot((byte) plot::x)
(label) plot::@return
(byte) plot::x
(byte) plot::x#0
(byte) plot::x#1
(byte) plot::x#2

Adding number conversion cast (unumber) $14 in (number~) line::$1 ← (byte) line::l#3 + (number) $14
Adding number conversion cast (unumber) line::$1 in (number~) line::$1 ← (byte) line::l#3 + (unumber)(number) $14
Successful SSA optimization PassNAddNumberTypeConversions
Simplifying constant pointer cast (byte*) 1024
Simplifying constant integer cast $14
Successful SSA optimization PassNCastSimplification
Finalized unsigned number type (byte) $14
Successful SSA optimization PassNFinalizeNumberTypeConversions
Inferred type updated to byte in (unumber~) line::$1 ← (byte) line::l#3 + (byte) $14
Alias main::i#2 = main::i#3 
Alias main::j#2 = main::j#3 
Alias line::l#2 = line::l#3 
Alias plot::x#1 = line::$1 
Successful SSA optimization Pass2AliasElimination
Simple Condition (bool~) main::$1 [6] if((byte) main::i#1!=rangelast(0,8)) goto main::@1
Simple Condition (bool~) main::$3 [13] if((byte) main::j#1!=rangelast($a,$12)) goto main::@3
Successful SSA optimization Pass2ConditionalJumpSimplification
Constant (const byte) main::i#0 = 0
Constant (const byte) main::j#0 = $a
Successful SSA optimization Pass2ConstantIdentification
Resolved ranged next value [4] main::i#1 ← ++ main::i#2 to ++
Resolved ranged comparison value [6] if(main::i#1!=rangelast(0,8)) goto main::@1 to (number) 9
Resolved ranged next value [11] main::j#1 ← ++ main::j#2 to ++
Resolved ranged comparison value [13] if(main::j#1!=rangelast($a,$12)) goto main::@3 to (number) $13
Removing unused procedure __start
Removing unused procedure block __start
Removing unused procedure block __start::__init1
Removing unused procedure block __start::@1
Removing unused procedure block __start::@2
Removing unused procedure block __start::@return
Successful SSA optimization PassNEliminateEmptyStart
Adding number conversion cast (unumber) 9 in [4] if((byte) main::i#1!=(number) 9) goto main::@1
Adding number conversion cast (unumber) $13 in [9] if((byte) main::j#1!=(number) $13) goto main::@3
Successful SSA optimization PassNAddNumberTypeConversions
Simplifying constant integer cast 9
Simplifying constant integer cast $13
Successful SSA optimization PassNCastSimplification
Finalized unsigned number type (byte) 9
Finalized unsigned number type (byte) $13
Successful SSA optimization PassNFinalizeNumberTypeConversions
Inlining constant with var siblings (const byte) main::i#0
Inlining constant with var siblings (const byte) main::j#0
Constant inlined main::i#0 = (byte) 0
Constant inlined main::j#0 = (byte) $a
Successful SSA optimization Pass2ConstantInlining
Added new block during phi lifting main::@6(between main::@4 and main::@1)
Added new block during phi lifting main::@7(between main::@5 and main::@3)
Adding NOP phi() at start of main
Adding NOP phi() at start of main::@2
Adding NOP phi() at start of line::@2
CALL GRAPH
Calls in [main] to line:4 line:11 
Calls in [line] to plot:20 plot:23 

Created 4 initial phi equivalence classes
Coalesced [3] line::l#4 ← line::l#0
Coalesced [10] line::l#5 ← line::l#1
Coalesced [15] main::j#4 ← main::j#1
Coalesced [16] main::i#4 ← main::i#1
Coalesced [19] plot::x#3 ← plot::x#0
Coalesced [22] plot::x#4 ← plot::x#1
Coalesced down to 4 phi equivalence classes
Culled Empty Block (label) main::@2
Culled Empty Block (label) main::@7
Culled Empty Block (label) main::@6
Culled Empty Block (label) line::@2
Renumbering block main::@3 to main::@2
Renumbering block main::@4 to main::@3
Renumbering block main::@5 to main::@4
Adding NOP phi() at start of main

FINAL CONTROL FLOW GRAPH

(void()) main()
main: scope:[main]  from
  [0] phi()
  to:main::@1
main::@1: scope:[main]  from main main::@3
  [1] (byte) main::i#2 ← phi( main/(byte) 0 main::@3/(byte) main::i#1 )
  [2] (byte) line::l#0 ← (byte) main::i#2
  [3] call line 
  to:main::@3
main::@3: scope:[main]  from main::@1
  [4] (byte) main::i#1 ← ++ (byte) main::i#2
  [5] if((byte) main::i#1!=(byte) 9) goto main::@1
  to:main::@2
main::@2: scope:[main]  from main::@3 main::@4
  [6] (byte) main::j#2 ← phi( main::@3/(byte) $a main::@4/(byte) main::j#1 )
  [7] (byte) line::l#1 ← (byte) main::j#2
  [8] call line 
  to:main::@4
main::@4: scope:[main]  from main::@2
  [9] (byte) main::j#1 ← ++ (byte) main::j#2
  [10] if((byte) main::j#1!=(byte) $13) goto main::@2
  to:main::@return
main::@return: scope:[main]  from main::@4
  [11] return 
  to:@return

(void()) line((byte) line::l)
line: scope:[line]  from main::@1 main::@2
  [12] (byte) line::l#2 ← phi( main::@1/(byte) line::l#0 main::@2/(byte) line::l#1 )
  [13] (byte) plot::x#0 ← (byte) line::l#2
  [14] call plot 
  to:line::@1
line::@1: scope:[line]  from line
  [15] (byte) plot::x#1 ← (byte) line::l#2 + (byte) $14
  [16] call plot 
  to:line::@return
line::@return: scope:[line]  from line::@1
  [17] return 
  to:@return

(void()) plot((byte) plot::x)
plot: scope:[plot]  from line line::@1
  [18] (byte) plot::x#2 ← phi( line/(byte) plot::x#0 line::@1/(byte) plot::x#1 )
  [19] *((const byte*) SCREEN + (byte) plot::x#2) ← (byte) '*'
  to:plot::@return
plot::@return: scope:[plot]  from plot
  [20] return 
  to:@return


VARIABLE REGISTER WEIGHTS
(void()) line((byte) line::l)
(byte) line::l
(byte) line::l#0 22.0
(byte) line::l#1 22.0
(byte) line::l#2 74.66666666666666
(void()) main()
(byte) main::i
(byte) main::i#1 16.5
(byte) main::i#2 11.0
(byte) main::j
(byte) main::j#1 16.5
(byte) main::j#2 11.0
(void()) plot((byte) plot::x)
(byte) plot::x
(byte) plot::x#0 202.0
(byte) plot::x#1 202.0
(byte) plot::x#2 1203.0

Initial phi equivalence classes
[ main::i#2 main::i#1 ]
[ main::j#2 main::j#1 ]
[ line::l#2 line::l#0 line::l#1 ]
[ plot::x#2 plot::x#0 plot::x#1 ]
Complete equivalence classes
[ main::i#2 main::i#1 ]
[ main::j#2 main::j#1 ]
[ line::l#2 line::l#0 line::l#1 ]
[ plot::x#2 plot::x#0 plot::x#1 ]
Allocated zp[1]:2 [ main::i#2 main::i#1 ]
Allocated zp[1]:3 [ main::j#2 main::j#1 ]
Allocated zp[1]:4 [ line::l#2 line::l#0 line::l#1 ]
Allocated zp[1]:5 [ plot::x#2 plot::x#0 plot::x#1 ]

INITIAL ASM
Target platform is c64basic / MOS6502X
  // File Comments
// Two levels of functions to test that register allocation handles live ranges and call-ranges optimally to allocate the fewest possible ZP-variables
  // Upstart
.pc = $801 "Basic"
:BasicUpstart(main)
.pc = $80d "Program"
  // Global Constants & labels
  .label SCREEN = $400
  // main
main: {
    .label i = 2
    .label j = 3
    // [1] phi from main to main::@1 [phi:main->main::@1]
  __b1_from_main:
    // [1] phi (byte) main::i#2 = (byte) 0 [phi:main->main::@1#0] -- vbuz1=vbuc1 
    lda #0
    sta.z i
    jmp __b1
    // [1] phi from main::@3 to main::@1 [phi:main::@3->main::@1]
  __b1_from___b3:
    // [1] phi (byte) main::i#2 = (byte) main::i#1 [phi:main::@3->main::@1#0] -- register_copy 
    jmp __b1
    // main::@1
  __b1:
    // [2] (byte) line::l#0 ← (byte) main::i#2 -- vbuz1=vbuz2 
    lda.z i
    sta.z line.l
    // [3] call line 
    // [12] phi from main::@1 to line [phi:main::@1->line]
  line_from___b1:
    // [12] phi (byte) line::l#2 = (byte) line::l#0 [phi:main::@1->line#0] -- register_copy 
    jsr line
    jmp __b3
    // main::@3
  __b3:
    // [4] (byte) main::i#1 ← ++ (byte) main::i#2 -- vbuz1=_inc_vbuz1 
    inc.z i
    // [5] if((byte) main::i#1!=(byte) 9) goto main::@1 -- vbuz1_neq_vbuc1_then_la1 
    lda #9
    cmp.z i
    bne __b1_from___b3
    // [6] phi from main::@3 to main::@2 [phi:main::@3->main::@2]
  __b2_from___b3:
    // [6] phi (byte) main::j#2 = (byte) $a [phi:main::@3->main::@2#0] -- vbuz1=vbuc1 
    lda #$a
    sta.z j
    jmp __b2
    // [6] phi from main::@4 to main::@2 [phi:main::@4->main::@2]
  __b2_from___b4:
    // [6] phi (byte) main::j#2 = (byte) main::j#1 [phi:main::@4->main::@2#0] -- register_copy 
    jmp __b2
    // main::@2
  __b2:
    // [7] (byte) line::l#1 ← (byte) main::j#2 -- vbuz1=vbuz2 
    lda.z j
    sta.z line.l
    // [8] call line 
    // [12] phi from main::@2 to line [phi:main::@2->line]
  line_from___b2:
    // [12] phi (byte) line::l#2 = (byte) line::l#1 [phi:main::@2->line#0] -- register_copy 
    jsr line
    jmp __b4
    // main::@4
  __b4:
    // [9] (byte) main::j#1 ← ++ (byte) main::j#2 -- vbuz1=_inc_vbuz1 
    inc.z j
    // [10] if((byte) main::j#1!=(byte) $13) goto main::@2 -- vbuz1_neq_vbuc1_then_la1 
    lda #$13
    cmp.z j
    bne __b2_from___b4
    jmp __breturn
    // main::@return
  __breturn:
    // [11] return 
    rts
}
  // line
// line(byte zp(4) l)
line: {
    .label l = 4
    // [13] (byte) plot::x#0 ← (byte) line::l#2 -- vbuz1=vbuz2 
    lda.z l
    sta.z plot.x
    // [14] call plot 
    // [18] phi from line to plot [phi:line->plot]
  plot_from_line:
    // [18] phi (byte) plot::x#2 = (byte) plot::x#0 [phi:line->plot#0] -- register_copy 
    jsr plot
    jmp __b1
    // line::@1
  __b1:
    // [15] (byte) plot::x#1 ← (byte) line::l#2 + (byte) $14 -- vbuz1=vbuz2_plus_vbuc1 
    lax.z l
    axs #-[$14]
    stx.z plot.x
    // [16] call plot 
    // [18] phi from line::@1 to plot [phi:line::@1->plot]
  plot_from___b1:
    // [18] phi (byte) plot::x#2 = (byte) plot::x#1 [phi:line::@1->plot#0] -- register_copy 
    jsr plot
    jmp __breturn
    // line::@return
  __breturn:
    // [17] return 
    rts
}
  // plot
// plot(byte zp(5) x)
plot: {
    .label x = 5
    // [19] *((const byte*) SCREEN + (byte) plot::x#2) ← (byte) '*' -- pbuc1_derefidx_vbuz1=vbuc2 
    lda #'*'
    ldy.z x
    sta SCREEN,y
    jmp __breturn
    // plot::@return
  __breturn:
    // [20] return 
    rts
}
  // File Data

REGISTER UPLIFT POTENTIAL REGISTERS
Statement [19] *((const byte*) SCREEN + (byte) plot::x#2) ← (byte) '*' [ ] ( line:3::plot:14 [ main::i#2 line::l#2 ] { { plot::x#0 = plot::x#2 line::l#2 line::l#0 main::i#2 } }  line:8::plot:14 [ main::j#2 line::l#2 ] { { plot::x#0 = plot::x#2 line::l#2 line::l#1 main::j#2 } }  line:3::plot:16 [ main::i#2 ] { { line::l#0 = line::l#2 main::i#2 } { plot::x#1 = plot::x#2 } }  line:8::plot:16 [ main::j#2 ] { { line::l#1 = line::l#2 main::j#2 } { plot::x#1 = plot::x#2 } }  ) always clobbers reg byte a 
Removing always clobbered register reg byte a as potential for zp[1]:2 [ main::i#2 main::i#1 ]
Removing always clobbered register reg byte a as potential for zp[1]:4 [ line::l#2 line::l#0 line::l#1 ]
Removing always clobbered register reg byte a as potential for zp[1]:3 [ main::j#2 main::j#1 ]
Statement [15] (byte) plot::x#1 ← (byte) line::l#2 + (byte) $14 [ plot::x#1 ] ( line:3 [ main::i#2 plot::x#1 ] { { line::l#0 = line::l#2 main::i#2 } { plot::x#1 = plot::x#2 } }  line:8 [ main::j#2 plot::x#1 ] { { line::l#1 = line::l#2 main::j#2 } { plot::x#1 = plot::x#2 } }  ) always clobbers reg byte a 
Statement [19] *((const byte*) SCREEN + (byte) plot::x#2) ← (byte) '*' [ ] ( line:3::plot:14 [ main::i#2 line::l#2 ] { { plot::x#0 = plot::x#2 line::l#2 line::l#0 main::i#2 } }  line:8::plot:14 [ main::j#2 line::l#2 ] { { plot::x#0 = plot::x#2 line::l#2 line::l#1 main::j#2 } }  line:3::plot:16 [ main::i#2 ] { { line::l#0 = line::l#2 main::i#2 } { plot::x#1 = plot::x#2 } }  line:8::plot:16 [ main::j#2 ] { { line::l#1 = line::l#2 main::j#2 } { plot::x#1 = plot::x#2 } }  ) always clobbers reg byte a 
Potential registers zp[1]:2 [ main::i#2 main::i#1 ] : zp[1]:2 , reg byte x , reg byte y , 
Potential registers zp[1]:3 [ main::j#2 main::j#1 ] : zp[1]:3 , reg byte x , reg byte y , 
Potential registers zp[1]:4 [ line::l#2 line::l#0 line::l#1 ] : zp[1]:4 , reg byte x , reg byte y , 
Potential registers zp[1]:5 [ plot::x#2 plot::x#0 plot::x#1 ] : zp[1]:5 , reg byte a , reg byte x , reg byte y , 

REGISTER UPLIFT SCOPES
Uplift Scope [plot] 1,607: zp[1]:5 [ plot::x#2 plot::x#0 plot::x#1 ] 
Uplift Scope [line] 118.67: zp[1]:4 [ line::l#2 line::l#0 line::l#1 ] 
Uplift Scope [main] 27.5: zp[1]:2 [ main::i#2 main::i#1 ] 27.5: zp[1]:3 [ main::j#2 main::j#1 ] 
Uplift Scope [] 

Uplifting [plot] best 692 combination reg byte x [ plot::x#2 plot::x#0 plot::x#1 ] 
Uplifting [line] best 628 combination reg byte x [ line::l#2 line::l#0 line::l#1 ] 
Uplifting [main] best 468 combination reg byte y [ main::i#2 main::i#1 ] reg byte y [ main::j#2 main::j#1 ] 
Uplifting [] best 468 combination 

ASSEMBLER BEFORE OPTIMIZATION
  // File Comments
// Two levels of functions to test that register allocation handles live ranges and call-ranges optimally to allocate the fewest possible ZP-variables
  // Upstart
.pc = $801 "Basic"
:BasicUpstart(main)
.pc = $80d "Program"
  // Global Constants & labels
  .label SCREEN = $400
  // main
main: {
    // [1] phi from main to main::@1 [phi:main->main::@1]
  __b1_from_main:
    // [1] phi (byte) main::i#2 = (byte) 0 [phi:main->main::@1#0] -- vbuyy=vbuc1 
    ldy #0
    jmp __b1
    // [1] phi from main::@3 to main::@1 [phi:main::@3->main::@1]
  __b1_from___b3:
    // [1] phi (byte) main::i#2 = (byte) main::i#1 [phi:main::@3->main::@1#0] -- register_copy 
    jmp __b1
    // main::@1
  __b1:
    // [2] (byte) line::l#0 ← (byte) main::i#2 -- vbuxx=vbuyy 
    tya
    tax
    // [3] call line 
    // [12] phi from main::@1 to line [phi:main::@1->line]
  line_from___b1:
    // [12] phi (byte) line::l#2 = (byte) line::l#0 [phi:main::@1->line#0] -- register_copy 
    jsr line
    jmp __b3
    // main::@3
  __b3:
    // [4] (byte) main::i#1 ← ++ (byte) main::i#2 -- vbuyy=_inc_vbuyy 
    iny
    // [5] if((byte) main::i#1!=(byte) 9) goto main::@1 -- vbuyy_neq_vbuc1_then_la1 
    cpy #9
    bne __b1_from___b3
    // [6] phi from main::@3 to main::@2 [phi:main::@3->main::@2]
  __b2_from___b3:
    // [6] phi (byte) main::j#2 = (byte) $a [phi:main::@3->main::@2#0] -- vbuyy=vbuc1 
    ldy #$a
    jmp __b2
    // [6] phi from main::@4 to main::@2 [phi:main::@4->main::@2]
  __b2_from___b4:
    // [6] phi (byte) main::j#2 = (byte) main::j#1 [phi:main::@4->main::@2#0] -- register_copy 
    jmp __b2
    // main::@2
  __b2:
    // [7] (byte) line::l#1 ← (byte) main::j#2 -- vbuxx=vbuyy 
    tya
    tax
    // [8] call line 
    // [12] phi from main::@2 to line [phi:main::@2->line]
  line_from___b2:
    // [12] phi (byte) line::l#2 = (byte) line::l#1 [phi:main::@2->line#0] -- register_copy 
    jsr line
    jmp __b4
    // main::@4
  __b4:
    // [9] (byte) main::j#1 ← ++ (byte) main::j#2 -- vbuyy=_inc_vbuyy 
    iny
    // [10] if((byte) main::j#1!=(byte) $13) goto main::@2 -- vbuyy_neq_vbuc1_then_la1 
    cpy #$13
    bne __b2_from___b4
    jmp __breturn
    // main::@return
  __breturn:
    // [11] return 
    rts
}
  // line
// line(byte register(X) l)
line: {
    // [13] (byte) plot::x#0 ← (byte) line::l#2
    // [14] call plot 
    // [18] phi from line to plot [phi:line->plot]
  plot_from_line:
    // [18] phi (byte) plot::x#2 = (byte) plot::x#0 [phi:line->plot#0] -- register_copy 
    jsr plot
    jmp __b1
    // line::@1
  __b1:
    // [15] (byte) plot::x#1 ← (byte) line::l#2 + (byte) $14 -- vbuxx=vbuxx_plus_vbuc1 
    txa
    axs #-[$14]
    // [16] call plot 
    // [18] phi from line::@1 to plot [phi:line::@1->plot]
  plot_from___b1:
    // [18] phi (byte) plot::x#2 = (byte) plot::x#1 [phi:line::@1->plot#0] -- register_copy 
    jsr plot
    jmp __breturn
    // line::@return
  __breturn:
    // [17] return 
    rts
}
  // plot
// plot(byte register(X) x)
plot: {
    // [19] *((const byte*) SCREEN + (byte) plot::x#2) ← (byte) '*' -- pbuc1_derefidx_vbuxx=vbuc2 
    lda #'*'
    sta SCREEN,x
    jmp __breturn
    // plot::@return
  __breturn:
    // [20] return 
    rts
}
  // File Data

ASSEMBLER OPTIMIZATIONS
Removing instruction jmp __b1
Removing instruction jmp __b3
Removing instruction jmp __b2
Removing instruction jmp __b4
Removing instruction jmp __breturn
Removing instruction jmp __b1
Removing instruction jmp __breturn
Removing instruction jmp __breturn
Succesful ASM optimization Pass5NextJumpElimination
Replacing label __b1_from___b3 with __b1
Replacing label __b2_from___b4 with __b2
Removing instruction __b1_from___b3:
Removing instruction __b2_from___b4:
Succesful ASM optimization Pass5RedundantLabelElimination
Removing instruction __b1_from_main:
Removing instruction line_from___b1:
Removing instruction __b3:
Removing instruction __b2_from___b3:
Removing instruction line_from___b2:
Removing instruction __b4:
Removing instruction __breturn:
Removing instruction plot_from_line:
Removing instruction __b1:
Removing instruction plot_from___b1:
Removing instruction __breturn:
Removing instruction __breturn:
Succesful ASM optimization Pass5UnusedLabelElimination
Removing instruction jmp __b1
Removing instruction jmp __b2
Succesful ASM optimization Pass5NextJumpElimination

FINAL SYMBOL TABLE
(const byte*) SCREEN = (byte*) 1024
(void()) line((byte) line::l)
(label) line::@1
(label) line::@return
(byte) line::l
(byte) line::l#0 reg byte x 22.0
(byte) line::l#1 reg byte x 22.0
(byte) line::l#2 reg byte x 74.66666666666666
(void()) main()
(label) main::@1
(label) main::@2
(label) main::@3
(label) main::@4
(label) main::@return
(byte) main::i
(byte) main::i#1 reg byte y 16.5
(byte) main::i#2 reg byte y 11.0
(byte) main::j
(byte) main::j#1 reg byte y 16.5
(byte) main::j#2 reg byte y 11.0
(void()) plot((byte) plot::x)
(label) plot::@return
(byte) plot::x
(byte) plot::x#0 reg byte x 202.0
(byte) plot::x#1 reg byte x 202.0
(byte) plot::x#2 reg byte x 1203.0

reg byte y [ main::i#2 main::i#1 ]
reg byte y [ main::j#2 main::j#1 ]
reg byte x [ line::l#2 line::l#0 line::l#1 ]
reg byte x [ plot::x#2 plot::x#0 plot::x#1 ]


FINAL ASSEMBLER
Score: 303

  // File Comments
// Two levels of functions to test that register allocation handles live ranges and call-ranges optimally to allocate the fewest possible ZP-variables
  // Upstart
.pc = $801 "Basic"
:BasicUpstart(main)
.pc = $80d "Program"
  // Global Constants & labels
  .label SCREEN = $400
  // main
main: {
    // [1] phi from main to main::@1 [phi:main->main::@1]
    // [1] phi (byte) main::i#2 = (byte) 0 [phi:main->main::@1#0] -- vbuyy=vbuc1 
    ldy #0
    // [1] phi from main::@3 to main::@1 [phi:main::@3->main::@1]
    // [1] phi (byte) main::i#2 = (byte) main::i#1 [phi:main::@3->main::@1#0] -- register_copy 
    // main::@1
  __b1:
    // line(i)
    // [2] (byte) line::l#0 ← (byte) main::i#2 -- vbuxx=vbuyy 
    tya
    tax
    // [3] call line 
    // [12] phi from main::@1 to line [phi:main::@1->line]
    // [12] phi (byte) line::l#2 = (byte) line::l#0 [phi:main::@1->line#0] -- register_copy 
    jsr line
    // main::@3
    // for(byte i : 0..8)
    // [4] (byte) main::i#1 ← ++ (byte) main::i#2 -- vbuyy=_inc_vbuyy 
    iny
    // [5] if((byte) main::i#1!=(byte) 9) goto main::@1 -- vbuyy_neq_vbuc1_then_la1 
    cpy #9
    bne __b1
    // [6] phi from main::@3 to main::@2 [phi:main::@3->main::@2]
    // [6] phi (byte) main::j#2 = (byte) $a [phi:main::@3->main::@2#0] -- vbuyy=vbuc1 
    ldy #$a
    // [6] phi from main::@4 to main::@2 [phi:main::@4->main::@2]
    // [6] phi (byte) main::j#2 = (byte) main::j#1 [phi:main::@4->main::@2#0] -- register_copy 
    // main::@2
  __b2:
    // line(j)
    // [7] (byte) line::l#1 ← (byte) main::j#2 -- vbuxx=vbuyy 
    tya
    tax
    // [8] call line 
    // [12] phi from main::@2 to line [phi:main::@2->line]
    // [12] phi (byte) line::l#2 = (byte) line::l#1 [phi:main::@2->line#0] -- register_copy 
    jsr line
    // main::@4
    // for(byte j : 10..18)
    // [9] (byte) main::j#1 ← ++ (byte) main::j#2 -- vbuyy=_inc_vbuyy 
    iny
    // [10] if((byte) main::j#1!=(byte) $13) goto main::@2 -- vbuyy_neq_vbuc1_then_la1 
    cpy #$13
    bne __b2
    // main::@return
    // }
    // [11] return 
    rts
}
  // line
// line(byte register(X) l)
line: {
    // plot(l)
    // [13] (byte) plot::x#0 ← (byte) line::l#2
    // [14] call plot 
    // [18] phi from line to plot [phi:line->plot]
    // [18] phi (byte) plot::x#2 = (byte) plot::x#0 [phi:line->plot#0] -- register_copy 
    jsr plot
    // line::@1
    // plot(l+20)
    // [15] (byte) plot::x#1 ← (byte) line::l#2 + (byte) $14 -- vbuxx=vbuxx_plus_vbuc1 
    txa
    axs #-[$14]
    // [16] call plot 
    // [18] phi from line::@1 to plot [phi:line::@1->plot]
    // [18] phi (byte) plot::x#2 = (byte) plot::x#1 [phi:line::@1->plot#0] -- register_copy 
    jsr plot
    // line::@return
    // }
    // [17] return 
    rts
}
  // plot
// plot(byte register(X) x)
plot: {
    // SCREEN[x] = '*'
    // [19] *((const byte*) SCREEN + (byte) plot::x#2) ← (byte) '*' -- pbuc1_derefidx_vbuxx=vbuc2 
    lda #'*'
    sta SCREEN,x
    // plot::@return
    // }
    // [20] return 
    rts
}
  // File Data

