(byte*()) first((byte*) first::msg)
(label) first::@return
(byte*) first::msg
(byte*) first::return
(byte*) first::return#0 return zp[2]:2 4.0
(byte*) first::return#1 return zp[2]:2 4.0
(byte*) first::return#2 return zp[2]:2 1.0
(void()) main()
(byte*~) main::$0 zp[2]:2 4.0
(byte*~) main::$2 zp[2]:2 4.0
(label) main::@1
(label) main::@2
(label) main::@return
(const nomodify byte*) main::SCREEN = (byte*) 1024
(const byte*) msg1[]  = (byte*) "hello world!"
(const byte*) msg2[]  = (byte*) "goodbye sky?"

zp[2]:2 [ first::return#2 first::return#0 first::return#1 main::$0 main::$2 ]
