(void()) main()
(label) main::@return
(const nomodify byte*) main::SCREEN = (byte*) 1024
(byte*) main::bp
(const byte*) main::bp#0 bp = (byte*)(const void*) main::vp#0
(void*) main::vp
(const void*) main::vp#0 vp = (void*)(const word*) main::wp
(volatile word) main::w loadstore zp[2]:2 20.0
(const word*) main::wp = &(volatile word) main::w

zp[2]:2 [ main::w ]
