(void()) cputs((byte*) cputs::str)
(label) cputs::@1
(label) cputs::@2
(label) cputs::@return
(byte*) cputs::str
(byte*) cputs::str#0 str zp[2]:4 2002.0
(byte*) cputs::str#4 str zp[2]:4 1026.25
(byte*) cputs::str#6 str zp[2]:4 101.0
(void()) main()
(label) main::@1
(label) main::@2
(label) main::@return
(const byte*) main::name = (byte*) "Jesper"
(const byte*) main::str[(byte) $d]  = (byte*) "Hello, I am "
(const byte*) main::str1[(byte) $f]  = (byte*) ". who are you?"
(byte) printf_format_string::justify_left
(byte) printf_format_string::min_length
(void()) printf_string((byte*) printf_string::str , (byte) printf_string::format_min_length , (byte) printf_string::format_justify_left)
(label) printf_string::@return
(struct printf_format_string) printf_string::format
(byte) printf_string::format_justify_left
(byte) printf_string::format_min_length
(byte*) printf_string::str
(byte*) screen
(byte*) screen#0 screen zp[2]:2 1001.0
(byte*) screen#1 screen zp[2]:2 283.3636363636364
(byte*) screen#25 screen zp[2]:2 114.0

zp[2]:2 [ screen#25 screen#1 screen#0 ]
zp[2]:4 [ cputs::str#4 cputs::str#6 cputs::str#0 ]
