(const nomodify byte*) SCREEN = (byte*) 1024
(byte) format::postfix
(byte) format::prefix
(byte) idx
(void()) main()
(label) main::@return
(void()) print((byte) print::c , (byte) print::fmt_prefix , (byte) print::fmt_postfix)
(label) print::@return
(byte) print::c
(const byte) print::c#0 c = (byte) 'c'
(struct format) print::fmt
(byte) print::fmt_postfix
(const byte) print::fmt_postfix#0 fmt_postfix = (byte) '-'
(byte) print::fmt_prefix
(const byte) print::fmt_prefix#0 fmt_prefix = (byte) '-'

