(const nomodify byte*) SCREEN = (byte*) 1024
(void()) __start()
(label) __start::@1
(label) __start::@return
(label) __start::__init1
__stackcall (void()) main()
(label) main::@return
__stackcall (void()) printline()
(label) printline::@1
(label) printline::@2
(label) printline::@return
(byte) printline::i
(byte) printline::i#1 reg byte x 2002.0
(byte) printline::i#2 reg byte x 1334.6666666666667
(byte) val loadstore zp[1]:2 12.0

reg byte x [ printline::i#2 printline::i#1 ]
zp[1]:2 [ val ]
