(const nomodify signed word*) SCREEN = (signed word*) 1024
(const byte) SIZEOF_SIGNED_WORD = (byte) 2
(const word) STACK_BASE = (word) $103
(void()) __start()
(label) __start::@1
(label) __start::@return
(label) __start::__init1
(signed word) current loadstore zp[2]:4 27.727272727272727
(void()) main()
(signed word~) main::$0 zp[2]:2 22.0
(signed word~) main::$1 zp[2]:4 22.0
(label) main::@return
__stackcall (signed word()) next()
(label) next::@return
(const byte) next::OFFSET_STACK_RETURN = (byte) 0
(signed word) next::return
(signed word) next::return#0 return zp[2]:2 101.0

zp[2]:2 [ main::$0 next::return#0 ]
zp[2]:4 [ main::$1 current ]
