(void()) main()
(label) main::@1
(label) main::@return
(volatile byte*) main::screen loadstore zp[2]:2 0.2857142857142857
(void()) sub((byte) sub::ch , (byte**) sub::dst)
(label) sub::@return
(byte) sub::ch
(byte) sub::ch#2 reg byte a 11.0
(byte**) sub::dst

reg byte a [ sub::ch#2 ]
zp[2]:2 [ main::screen ]
