(const nomodify byte*) SCREEN = (byte*) 1024
(void()) __start()
(label) __start::@1
(label) __start::@return
(label) __start::__init1
(volatile byte) idx loadstore !zp[-1]:3 zp[1]:3 0.18181818181818182
(void()) main()
(label) main::@1
(label) main::@2
(label) main::@return
(void()) print((byte) print::ch)
(label) print::@return
(byte) print::ch !reg byte a
(byte) print::ch#3 !reg byte a

reg byte a [ print::ch#3 ]
zp[1]:3 [ idx ]
