(const nomodify byte*) BG_COLOR = (byte*) 53281
(const nomodify byte*) BG_COLOR1 = (byte*) 53282
(const nomodify byte*) BG_COLOR2 = (byte*) 53283
(const nomodify byte*) BG_COLOR3 = (byte*) 53284
(const nomodify byte) BLACK = (byte) 0
(const nomodify byte) BLUE = (byte) 6
(const nomodify byte*) BORDER_COLOR = (byte*) 53280
(const nomodify byte*) D018 = (byte*) 53272
(const nomodify byte) GREEN = (byte) 5
(byte) MOS6526_CIA::INTERRUPT
(byte) MOS6526_CIA::PORT_A
(byte) MOS6526_CIA::PORT_A_DDR
(byte) MOS6526_CIA::PORT_B
(byte) MOS6526_CIA::PORT_B_DDR
(byte) MOS6526_CIA::SERIAL_DATA
(word) MOS6526_CIA::TIMER_A
(byte) MOS6526_CIA::TIMER_A_CONTROL
(word) MOS6526_CIA::TIMER_B
(byte) MOS6526_CIA::TIMER_B_CONTROL
(byte) MOS6526_CIA::TOD_10THS
(byte) MOS6526_CIA::TOD_HOURS
(byte) MOS6526_CIA::TOD_MIN
(byte) MOS6526_CIA::TOD_SEC
(byte) MOS6569_VICII::BG_COLOR
(byte) MOS6569_VICII::BG_COLOR1
(byte) MOS6569_VICII::BG_COLOR2
(byte) MOS6569_VICII::BG_COLOR3
(byte) MOS6569_VICII::BORDER_COLOR
(byte) MOS6569_VICII::CONTROL1
(byte) MOS6569_VICII::CONTROL2
(byte) MOS6569_VICII::IRQ_ENABLE
(byte) MOS6569_VICII::IRQ_STATUS
(byte) MOS6569_VICII::LIGHTPEN_X
(byte) MOS6569_VICII::LIGHTPEN_Y
(byte) MOS6569_VICII::MEMORY
(byte) MOS6569_VICII::RASTER
(byte) MOS6569_VICII::SPRITE0_COLOR
(byte) MOS6569_VICII::SPRITE0_X
(byte) MOS6569_VICII::SPRITE0_Y
(byte) MOS6569_VICII::SPRITE1_COLOR
(byte) MOS6569_VICII::SPRITE1_X
(byte) MOS6569_VICII::SPRITE1_Y
(byte) MOS6569_VICII::SPRITE2_COLOR
(byte) MOS6569_VICII::SPRITE2_X
(byte) MOS6569_VICII::SPRITE2_Y
(byte) MOS6569_VICII::SPRITE3_COLOR
(byte) MOS6569_VICII::SPRITE3_X
(byte) MOS6569_VICII::SPRITE3_Y
(byte) MOS6569_VICII::SPRITE4_COLOR
(byte) MOS6569_VICII::SPRITE4_X
(byte) MOS6569_VICII::SPRITE4_Y
(byte) MOS6569_VICII::SPRITE5_COLOR
(byte) MOS6569_VICII::SPRITE5_X
(byte) MOS6569_VICII::SPRITE5_Y
(byte) MOS6569_VICII::SPRITE6_COLOR
(byte) MOS6569_VICII::SPRITE6_X
(byte) MOS6569_VICII::SPRITE6_Y
(byte) MOS6569_VICII::SPRITE7_COLOR
(byte) MOS6569_VICII::SPRITE7_X
(byte) MOS6569_VICII::SPRITE7_Y
(byte) MOS6569_VICII::SPRITES_BG_COLLISION
(byte) MOS6569_VICII::SPRITES_COLLISION
(byte) MOS6569_VICII::SPRITES_ENABLE
(byte) MOS6569_VICII::SPRITES_EXPAND_X
(byte) MOS6569_VICII::SPRITES_EXPAND_Y
(byte) MOS6569_VICII::SPRITES_MC
(byte) MOS6569_VICII::SPRITES_MCOLOR1
(byte) MOS6569_VICII::SPRITES_MCOLOR2
(byte) MOS6569_VICII::SPRITES_PRIORITY
(byte) MOS6569_VICII::SPRITES_XMSB
(byte) MOS6581_SID::CH1_ATTACK_DECAY
(byte) MOS6581_SID::CH1_CONTROL
(word) MOS6581_SID::CH1_FREQ
(word) MOS6581_SID::CH1_PULSE_WIDTH
(byte) MOS6581_SID::CH1_SUSTAIN_RELEASE
(byte) MOS6581_SID::CH2_ATTACK_DECAY
(byte) MOS6581_SID::CH2_CONTROL
(word) MOS6581_SID::CH2_FREQ
(word) MOS6581_SID::CH2_PULSE_WIDTH
(byte) MOS6581_SID::CH2_SUSTAIN_RELEASE
(byte) MOS6581_SID::CH3_ATTACK_DECAY
(byte) MOS6581_SID::CH3_CONTROL
(byte) MOS6581_SID::CH3_ENV
(word) MOS6581_SID::CH3_FREQ
(byte) MOS6581_SID::CH3_OSC
(word) MOS6581_SID::CH3_PULSE_WIDTH
(byte) MOS6581_SID::CH3_SUSTAIN_RELEASE
(byte) MOS6581_SID::FILTER_CUTOFF_HIGH
(byte) MOS6581_SID::FILTER_CUTOFF_LOW
(byte) MOS6581_SID::FILTER_SETUP
(byte) MOS6581_SID::POT_X
(byte) MOS6581_SID::POT_Y
(byte) MOS6581_SID::VOLUME_FILTER_MODE
(const nomodify byte) RED = (byte) 2
(const nomodify byte*) SPRITES_COLOR = (byte*) 53287
(const nomodify byte*) SPRITES_ENABLE = (byte*) 53269
(const nomodify byte*) SPRITES_EXPAND_X = (byte*) 53277
(const nomodify byte*) SPRITES_EXPAND_Y = (byte*) 53271
(const nomodify byte*) SPRITES_MC = (byte*) 53276
(const nomodify byte*) SPRITES_XMSB = (byte*) 53264
(const nomodify byte) WHITE = (byte) 1
(const nomodify byte) YELLOW = (byte) 7
(const nomodify byte*) charset = (byte*) 8192
(const nomodify byte*) colors = (byte*) 55296
(void()) draw_block((byte) draw_block::tileno , (byte) draw_block::x , (byte) draw_block::y , (byte) draw_block::color)
(byte*~) draw_block::$11 zp[2]:6 2002.0
(byte*~) draw_block::$12 zp[2]:8 2002.0
(byte*~) draw_block::$13 zp[2]:10 2002.0
(byte*~) draw_block::$14 zp[2]:12 2002.0
(byte*~) draw_block::$15 zp[2]:14 2002.0
(byte*~) draw_block::$16 zp[2]:16 2002.0
(byte*~) draw_block::$17 zp[2]:18 2002.0
(byte*~) draw_block::$18 zp[2]:20 2002.0
(label) draw_block::@1
(label) draw_block::@return
(byte) draw_block::color
(byte) draw_block::drawtile
(byte) draw_block::drawtile#0 reg byte x 1001.0
(byte) draw_block::tileno
(byte) draw_block::tileno#0 reg byte y 367.33333333333337
(byte) draw_block::tileno#1 reg byte y 250.25
(byte) draw_block::x
(byte) draw_block::x#0 reg byte x 367.33333333333337
(word) draw_block::x1
(word) draw_block::x1#0 x1 zp[2]:20 333.6666666666667
(byte) draw_block::y
(byte) draw_block::y#0 y zp[1]:3 367.33333333333337
(byte) draw_block::y#1 reg byte a 2002.0
(word) draw_block::z
(word) draw_block::z#0 z zp[2]:4 2002.0
(word) draw_block::z#1 z_1 zp[2]:20 563.0625
(void()) init()
(label) init::@1
(label) init::@2
(label) init::@3
(label) init::@return
(label) init::toD0181
(byte*) init::toD0181_gfx
(byte) init::toD0181_return
(const byte) init::toD0181_return#0 toD0181_return = >(word)(const nomodify byte*) screen&(word) $3fff*(byte) 4|>(word)(const nomodify byte*) charset/(byte) 4&(byte) $f
(byte*) init::toD0181_screen
(void()) init_sprites()
(label) init_sprites::@return
(const nomodify byte*) level_address = (byte*) 12288
(void()) main()
(label) main::@1
(label) main::@2
(label) main::@3
(label) main::@4
(label) main::@5
(label) main::@6
(byte) main::tile
(byte) main::tile#0 reg byte y 202.0
(byte) main::x
(byte) main::x#1 x zp[1]:2 22.0
(byte) main::x#2 x zp[1]:2 21.363636363636363
(byte) main::y
(byte) main::y#1 y zp[1]:3 202.0
(byte) main::y#2 y zp[1]:3 63.125
(byte) main::z
(byte) main::z#0 reg byte a 202.0
(void*()) memset((void*) memset::str , (byte) memset::c , (word) memset::num)
(label) memset::@1
(label) memset::@2
(label) memset::@3
(label) memset::@return
(byte) memset::c
(byte) memset::c#4 reg byte x 143.0
(byte*) memset::dst
(byte*) memset::dst#1 dst zp[2]:4 2002.0
(byte*) memset::dst#2 dst zp[2]:4 1368.3333333333335
(byte*) memset::dst#4 dst zp[2]:4 202.0
(byte*) memset::end
(byte*) memset::end#0 end zp[2]:20 183.66666666666669
(word) memset::num
(void*) memset::return
(void*) memset::str
(void*) memset::str#3 str zp[2]:4
(word()) mul8u((byte) mul8u::a , (byte) mul8u::b)
(byte~) mul8u::$1 reg byte a 2.0000002E7
(label) mul8u::@1
(label) mul8u::@2
(label) mul8u::@3
(label) mul8u::@4
(label) mul8u::@return
(byte) mul8u::a
(byte) mul8u::a#0 reg byte x 1.0000001E7
(byte) mul8u::a#1 reg byte x 5501.0
(byte) mul8u::a#2 reg byte x 6668334.166666666
(byte) mul8u::b
(const byte) mul8u::b#0 b = (byte) $28
(word) mul8u::mb
(word) mul8u::mb#1 mb zp[2]:6 2.0000002E7
(word) mul8u::mb#2 mb zp[2]:6 4285714.714285715
(word) mul8u::res
(word) mul8u::res#1 res zp[2]:4 2.0000002E7
(word) mul8u::res#2 res zp[2]:4 5000167.333333333
(word) mul8u::res#6 res zp[2]:4 1.0000001E7
(word) mul8u::return
(word) mul8u::return#2 return zp[2]:4 2002.0
(const nomodify byte*) screen = (byte*) 1024
(const nomodify byte*) tileset = (byte*) 10240

zp[1]:2 [ main::x#2 main::x#1 ]
zp[1]:3 [ main::y#2 main::y#1 draw_block::y#0 ]
reg byte x [ memset::c#4 ]
reg byte x [ mul8u::a#2 mul8u::a#1 mul8u::a#0 ]
zp[2]:4 [ mul8u::res#2 mul8u::res#6 mul8u::res#1 mul8u::return#2 draw_block::z#0 memset::str#3 memset::dst#2 memset::dst#4 memset::dst#1 ]
reg byte a [ main::z#0 ]
reg byte y [ main::tile#0 ]
reg byte y [ draw_block::tileno#0 ]
reg byte x [ draw_block::x#0 ]
reg byte y [ draw_block::tileno#1 ]
reg byte a [ draw_block::y#1 ]
reg byte x [ draw_block::drawtile#0 ]
zp[2]:6 [ draw_block::$11 mul8u::mb#2 mul8u::mb#1 ]
zp[2]:8 [ draw_block::$12 ]
zp[2]:10 [ draw_block::$13 ]
zp[2]:12 [ draw_block::$14 ]
zp[2]:14 [ draw_block::$15 ]
zp[2]:16 [ draw_block::$16 ]
zp[2]:18 [ draw_block::$17 ]
zp[2]:20 [ memset::end#0 draw_block::x1#0 draw_block::z#1 draw_block::$18 ]
reg byte a [ mul8u::$1 ]
