(byte) MOS6526_CIA::INTERRUPT
(byte) MOS6526_CIA::PORT_A
(byte) MOS6526_CIA::PORT_A_DDR
(byte) MOS6526_CIA::PORT_B
(byte) MOS6526_CIA::PORT_B_DDR
(byte) MOS6526_CIA::SERIAL_DATA
(word) MOS6526_CIA::TIMER_A
(byte) MOS6526_CIA::TIMER_A_CONTROL
(word) MOS6526_CIA::TIMER_B
(byte) MOS6526_CIA::TIMER_B_CONTROL
(byte) MOS6526_CIA::TOD_10THS
(byte) MOS6526_CIA::TOD_HOURS
(byte) MOS6526_CIA::TOD_MIN
(byte) MOS6526_CIA::TOD_SEC
(byte) MOS6569_VICII::BG_COLOR
(byte) MOS6569_VICII::BG_COLOR1
(byte) MOS6569_VICII::BG_COLOR2
(byte) MOS6569_VICII::BG_COLOR3
(byte) MOS6569_VICII::BORDER_COLOR
(byte) MOS6569_VICII::CONTROL1
(byte) MOS6569_VICII::CONTROL2
(byte) MOS6569_VICII::IRQ_ENABLE
(byte) MOS6569_VICII::IRQ_STATUS
(byte) MOS6569_VICII::LIGHTPEN_X
(byte) MOS6569_VICII::LIGHTPEN_Y
(byte) MOS6569_VICII::MEMORY
(byte) MOS6569_VICII::RASTER
(byte) MOS6569_VICII::SPRITE0_COLOR
(byte) MOS6569_VICII::SPRITE0_X
(byte) MOS6569_VICII::SPRITE0_Y
(byte) MOS6569_VICII::SPRITE1_COLOR
(byte) MOS6569_VICII::SPRITE1_X
(byte) MOS6569_VICII::SPRITE1_Y
(byte) MOS6569_VICII::SPRITE2_COLOR
(byte) MOS6569_VICII::SPRITE2_X
(byte) MOS6569_VICII::SPRITE2_Y
(byte) MOS6569_VICII::SPRITE3_COLOR
(byte) MOS6569_VICII::SPRITE3_X
(byte) MOS6569_VICII::SPRITE3_Y
(byte) MOS6569_VICII::SPRITE4_COLOR
(byte) MOS6569_VICII::SPRITE4_X
(byte) MOS6569_VICII::SPRITE4_Y
(byte) MOS6569_VICII::SPRITE5_COLOR
(byte) MOS6569_VICII::SPRITE5_X
(byte) MOS6569_VICII::SPRITE5_Y
(byte) MOS6569_VICII::SPRITE6_COLOR
(byte) MOS6569_VICII::SPRITE6_X
(byte) MOS6569_VICII::SPRITE6_Y
(byte) MOS6569_VICII::SPRITE7_COLOR
(byte) MOS6569_VICII::SPRITE7_X
(byte) MOS6569_VICII::SPRITE7_Y
(byte) MOS6569_VICII::SPRITES_BG_COLLISION
(byte) MOS6569_VICII::SPRITES_COLLISION
(byte) MOS6569_VICII::SPRITES_ENABLE
(byte) MOS6569_VICII::SPRITES_EXPAND_X
(byte) MOS6569_VICII::SPRITES_EXPAND_Y
(byte) MOS6569_VICII::SPRITES_MC
(byte) MOS6569_VICII::SPRITES_MCOLOR1
(byte) MOS6569_VICII::SPRITES_MCOLOR2
(byte) MOS6569_VICII::SPRITES_PRIORITY
(byte) MOS6569_VICII::SPRITES_XMSB
(byte) MOS6581_SID::CH1_ATTACK_DECAY
(byte) MOS6581_SID::CH1_CONTROL
(word) MOS6581_SID::CH1_FREQ
(word) MOS6581_SID::CH1_PULSE_WIDTH
(byte) MOS6581_SID::CH1_SUSTAIN_RELEASE
(byte) MOS6581_SID::CH2_ATTACK_DECAY
(byte) MOS6581_SID::CH2_CONTROL
(word) MOS6581_SID::CH2_FREQ
(word) MOS6581_SID::CH2_PULSE_WIDTH
(byte) MOS6581_SID::CH2_SUSTAIN_RELEASE
(byte) MOS6581_SID::CH3_ATTACK_DECAY
(byte) MOS6581_SID::CH3_CONTROL
(byte) MOS6581_SID::CH3_ENV
(word) MOS6581_SID::CH3_FREQ
(byte) MOS6581_SID::CH3_OSC
(word) MOS6581_SID::CH3_PULSE_WIDTH
(byte) MOS6581_SID::CH3_SUSTAIN_RELEASE
(byte) MOS6581_SID::FILTER_CUTOFF_HIGH
(byte) MOS6581_SID::FILTER_CUTOFF_LOW
(byte) MOS6581_SID::FILTER_SETUP
(byte) MOS6581_SID::POT_X
(byte) MOS6581_SID::POT_Y
(byte) MOS6581_SID::VOLUME_FILTER_MODE
(const nomodify byte*) RASTER = (byte*) 53266
(const nomodify byte*) SCREEN = (byte*) 1024
(const nomodify byte*) SPRITE = (byte*) 8192
(const nomodify byte*) SPRITES_COLOR = (byte*) 53287
(const nomodify byte*) SPRITES_ENABLE = (byte*) 53269
(const nomodify byte*) SPRITES_EXPAND_X = (byte*) 53277
(const nomodify byte*) SPRITES_EXPAND_Y = (byte*) 53271
(const nomodify byte*) SPRITES_PTR = (const nomodify byte*) SCREEN+(word) $3f8
(const nomodify byte*) SPRITES_XMSB = (byte*) 53264
(const nomodify byte*) SPRITES_XPOS = (byte*) 53248
(const nomodify byte*) SPRITES_YPOS = (byte*) 53249
(const nomodify byte) WHITE = (byte) 1
(void()) anim()
(signed word~) anim::$5 zp[2]:12 202.0
(signed word~) anim::$7 zp[2]:14 202.0
(byte~) anim::$9 reg byte a 202.0
(label) anim::@1
(label) anim::@2
(label) anim::@3
(label) anim::@4
(label) anim::@return
(signed word) anim::sprite_x
(signed word) anim::sprite_x#0 sprite_x zp[2]:12 40.4
(signed word) anim::sprite_y
(signed word) anim::sprite_y#0 sprite_y zp[2]:14 50.5
(const nomodify signed word) g = (signed word) -5
(void()) init()
(label) init::@1
(label) init::@2
(label) init::@3
(label) init::@return
(byte) init::i
(byte) init::i#1 reg byte x 151.5
(byte) init::i#2 reg byte x 151.5
(byte*) init::sc
(byte*) init::sc#1 sc zp[2]:4 202.0
(byte*) init::sc#2 sc zp[2]:4 134.66666666666666
(void()) main()
(label) main::@1
(label) main::@2
(signed word) xpos
(signed word) xpos#10 xpos zp[2]:8 101.0
(signed word) xpos#11 xpos zp[2]:8 17.75
(signed word) xpos#14 xpos zp[2]:8 78.5
(signed word) xvel
(signed word) xvel#11 xvel zp[2]:4 22.42857142857143
(signed word) xvel#14 xvel zp[2]:4 103.75
(signed word) xvel#16 xvel zp[2]:4 33.666666666666664
(signed word) ypos
(signed word) ypos#11 ypos zp[2]:10 67.33333333333333
(signed word) ypos#12 ypos zp[2]:10 19.363636363636363
(signed word) ypos#15 ypos zp[2]:10 103.75
(signed word) yvel
(signed word) yvel#10 yvel_1 zp[2]:6 303.0
(signed word) yvel#11 yvel_1 zp[2]:6 16.384615384615383
(signed word) yvel#14 yvel_1 zp[2]:6 78.5
(signed word) yvel#23 yvel_1 zp[2]:6 202.0
(signed word) yvel#3 yvel zp[2]:2 151.5
(signed word) yvel_init
(signed word) yvel_init#12 yvel_init zp[2]:2 15.214285714285715
(signed word) yvel_init#15 yvel_init zp[2]:2 83.0
(signed word) yvel_init#2 yvel_init zp[2]:2 101.0

zp[2]:2 [ yvel_init#15 yvel_init#12 yvel#3 yvel_init#2 ]
zp[2]:4 [ init::sc#2 init::sc#1 xvel#14 xvel#11 xvel#16 ]
reg byte x [ init::i#2 init::i#1 ]
zp[2]:6 [ yvel#10 yvel#14 yvel#11 yvel#23 ]
zp[2]:8 [ xpos#10 xpos#14 xpos#11 ]
zp[2]:10 [ ypos#11 ypos#15 ypos#12 ]
zp[2]:12 [ anim::$5 anim::sprite_x#0 ]
zp[2]:14 [ anim::$7 anim::sprite_y#0 ]
reg byte a [ anim::$9 ]
