(struct Point) Circle::center
(byte) Circle::radius
(byte) Point::x
(byte) Point::y
(const nomodify byte*) SCREEN = (byte*) 1024
(const byte) SIZEOF_STRUCT_CIRCLE = (byte) 3
(const byte) SIZEOF_STRUCT_POINT = (byte) 2
(void()) main()
(label) main::@return
(const nomodify byte) main::NUM_CIRCLES = (const nomodify byte) main::NUM_POINTS-(byte) 1
(const nomodify byte) main::NUM_POINTS = (byte) 4
(struct Point) main::c_center
(byte) main::idx

