(const nomodify byte*) SCREEN = (byte*) 1024
(const byte) SIZEOF_BOOL = (byte) 1
(const byte) SIZEOF_BYTE = (byte) 1
(const byte) SIZEOF_DWORD = (byte) 4
(const byte) SIZEOF_POINTER = (byte) 2
(const byte) SIZEOF_SIGNED_BYTE = (byte) 1
(const byte) SIZEOF_SIGNED_DWORD = (byte) 4
(const byte) SIZEOF_SIGNED_WORD = (byte) 2
(const byte) SIZEOF_WORD = (byte) 2
(void()) main()
(label) main::@return
(byte) main::idx

