(void()) main()
(byte~) main::$1 reg byte x 11.0
(byte*~) main::$2 zp[2]:6 22.0
(label) main::@1
(label) main::@2
(label) main::@return
(signed word) main::i
(signed word) main::i#1 i zp[2]:2 22.0
(signed word) main::i#2 i zp[2]:2 9.166666666666666
(signed word) main::lasti
(signed word) main::lasti#1 lasti zp[2]:4 11.0
(signed word) main::lasti#2 lasti zp[2]:4 11.0
(const byte*) main::screen = (byte*) 1024

zp[2]:2 [ main::i#2 main::i#1 ]
zp[2]:4 [ main::lasti#2 main::lasti#1 ]
reg byte x [ main::$1 ]
zp[2]:6 [ main::$2 ]
