(const byte*) dst1 = (byte*) 1024
(const byte*) dst2 = (byte*) 1064
(void()) main()
(label) main::@1
(label) main::@return
(const byte*) main::src[(byte) 6]  = (byte*) "hello"
(const byte*) main::src1[(byte) 6]  = (byte*) "world"
(void()) str_cpy((byte*) str_cpy::dst , (to_nomodify byte*) str_cpy::src)
(byte~) str_cpy::$0 reg byte a 67.33333333333333
(label) str_cpy::@1
(label) str_cpy::@return
(byte*) str_cpy::dst
(byte*) str_cpy::dst#0 dst zp[2]:4 67.33333333333333
(byte*) str_cpy::dst#3 dst zp[2]:4 138.33333333333331
(byte*) str_cpy::dst#4 dst zp[2]:4 11.0
(to_nomodify byte*) str_cpy::src
(to_nomodify byte*) str_cpy::src#0 src zp[2]:2 101.0
(to_nomodify byte*) str_cpy::src#3 src zp[2]:2 78.5
(to_nomodify byte*) str_cpy::src#4 src zp[2]:2 11.0

zp[2]:2 [ str_cpy::src#3 str_cpy::src#4 str_cpy::src#0 ]
zp[2]:4 [ str_cpy::dst#3 str_cpy::dst#4 str_cpy::dst#0 ]
reg byte a [ str_cpy::$0 ]
