(const byte*) MESSAGE[]  = (byte*) "hello
world\"pm
(void()) chrout((byte) chrout::c)
(label) chrout::@return
(byte) chrout::c
(byte) chrout::c#0 reg byte a 112.0
(void()) main()
(label) main::@1
(label) main::@2
(label) main::@3
(label) main::@return
(byte) main::i
(byte) main::i#1 i zp[1]:2 22.0
(byte) main::i#2 i zp[1]:2 11.0
(const nomodify byte*) memA = (byte*) 255

zp[1]:2 [ main::i#2 main::i#1 ]
reg byte a [ chrout::c#0 ]
