(const byte) OFFSET_STRUCT_POINT_INITIALS = (byte) 1
(const byte*) Point::initials[(number) 2]  = { fill( 2, 0) }
(byte) Point::x
(const nomodify byte*) SCREEN = (byte*) 1024
(const byte) SIZEOF_STRUCT_POINT = (byte) 3
(void()) main()
(label) main::@return
(struct Point) main::point1 loadstore zp[3]:2

zp[3]:2 [ main::point1 ]
