(const word*) RADIX_DECIMAL_VALUES[]  = { (word) $2710, (word) $3e8, (word) $64, (word) $a }
(word*) RadixInfo::values
(const byte) SIZEOF_WORD = (byte) 2
(void()) main()
(label) main::@return
(const nomodify word*) main::SCREEN = (word*) 1024

