(const byte) OFFSET_STRUCT_POINT_Y = (byte) 1
(byte) Point::x
(byte) Point::y
(const byte) SIZEOF_STRUCT_POINT = (byte) 2
(void()) main()
(label) main::@return
(const nomodify byte*) main::SCREEN = (byte*) 1024
(struct Point*) points

