(const byte) RADIX::BINARY = (number) 2
(const byte) RADIX::DECIMAL = (number) $a
(const byte) RADIX::HEXADECIMAL = (number) $10
(const byte) RADIX::OCTAL = (number) 8
(struct fileentry*) file
(byte*) fileentry::bufEdit
(const struct fileentry*) files[(number) $a]  = { fill( $a, 0) }
(signed word()) main()
(byte*~) main::$13 zp[2]:6 4.0
(label) main::@1
(label) main::@2
(label) main::@3
(label) main::@4
(label) main::@5
(label) main::@6
(label) main::@return
(signed word) main::return
(const byte*) main::str[(byte) 7]  = (byte*) "$0000="
(const byte*) main::str1[(byte) 7]  = (byte*) "$4004="
(void*()) memset((void*) memset::str , (byte) memset::c , (word) memset::num)
(label) memset::@1
(label) memset::@2
(label) memset::@return
(byte) memset::c
(const byte) memset::c#0 c = (byte) ' '
(byte*) memset::dst
(byte*) memset::dst#1 dst zp[2]:2 2002.0
(byte*) memset::dst#2 dst zp[2]:2 1334.6666666666667
(byte*) memset::end
(const byte*) memset::end#0 end = (byte*)(const void*) memset::str#0+(const word) memset::num#0
(word) memset::num
(const word) memset::num#0 num = (word) $3e8
(void*) memset::return
(void*) memset::str
(const void*) memset::str#0 str = (void*)(const byte*) print_screen#0
(void()) print_char((byte) print_char::ch)
(label) print_char::@return
(byte) print_char::ch
(byte) print_char::ch#0 reg byte a 202.0
(byte) print_char::ch#1 reg byte a 22.0
(byte) print_char::ch#2 reg byte a 22.0
(byte) print_char::ch#3 reg byte a 1124.0
(byte*) print_char_cursor
(byte*) print_char_cursor#1 print_char_cursor zp[2]:4 20.363636363636363
(byte*) print_char_cursor#29 print_char_cursor zp[2]:4 1062.5
(byte*) print_char_cursor#30 print_char_cursor zp[2]:4 71.41176470588235
(byte*) print_char_cursor#48 print_char_cursor zp[2]:4 13.0
(byte*) print_char_cursor#49 print_char_cursor zp[2]:4 4.0
(void()) print_cls()
(label) print_cls::@return
(const to_nomodify byte*) print_hextab[]  = (byte*) "0123456789abcdef"z
(byte*) print_line_cursor
(byte*) print_line_cursor#0 print_line_cursor zp[2]:6 34.11111111111111
(byte*) print_line_cursor#11 print_line_cursor zp[2]:6 213.0
(byte*) print_line_cursor#21 print_line_cursor zp[2]:6 13.0
(void()) print_ln()
(label) print_ln::@1
(label) print_ln::@return
(byte*) print_screen
(const byte*) print_screen#0 print_screen = (byte*) 1024
(void()) print_str((byte*) print_str::str)
(label) print_str::@1
(label) print_str::@2
(label) print_str::@3
(label) print_str::@return
(byte*) print_str::str
(byte*) print_str::str#0 str zp[2]:2 202.0
(byte*) print_str::str#3 str zp[2]:2 103.75
(byte*) print_str::str#6 str zp[2]:2 11.0
(void()) print_uchar((byte) print_uchar::b)
(byte~) print_uchar::$0 reg byte a 22.0
(byte~) print_uchar::$2 reg byte x 22.0
(label) print_uchar::@1
(label) print_uchar::@return
(byte) print_uchar::b
(byte) print_uchar::b#0 reg byte x 4.0
(byte) print_uchar::b#1 reg byte x 4.0
(byte) print_uchar::b#2 reg byte x 6.5

reg byte x [ print_uchar::b#2 print_uchar::b#0 print_uchar::b#1 ]
zp[2]:2 [ memset::dst#2 memset::dst#1 print_str::str#3 print_str::str#6 print_str::str#0 ]
reg byte a [ print_char::ch#3 print_char::ch#0 print_char::ch#1 print_char::ch#2 ]
zp[2]:4 [ print_char_cursor#29 print_char_cursor#1 print_char_cursor#48 print_char_cursor#49 print_char_cursor#30 ]
zp[2]:6 [ main::$13 print_line_cursor#11 print_line_cursor#21 print_line_cursor#0 ]
reg byte a [ print_uchar::$0 ]
reg byte x [ print_uchar::$2 ]
