(const byte) OFFSET_STRUCT_POINT_Y = (byte) 1
(byte) Point::x
(byte) Point::y
(void()) main()
(label) main::@return
(const nomodify byte*) main::SCREEN = (byte*) 1024
(const struct Point*) points = (struct Point*) 4096

