(const nomodify byte) OFFS_Y = (byte) 1
(byte) Point::x
(byte) Point::y
(void()) main()
(byte~) main::$10 reg byte y 16.5
(byte~) main::$3 reg byte a 22.0
(byte~) main::$9 reg byte y 16.5
(label) main::@1
(label) main::@2
(label) main::@return
(const nomodify byte*) main::SCREEN = (byte*) 1024
(byte) main::i
(byte) main::i#1 reg byte x 16.5
(byte) main::i#2 reg byte x 9.166666666666666
(byte) main::i1
(byte) main::i1#1 reg byte x 16.5
(byte) main::i1#2 reg byte x 11.0
(struct Point*) main::point_i
(struct Point*) main::point_i#0 point_i zp[2]:2 3.6666666666666665
(struct Point*) main::point_i1
(struct Point*) main::point_i1#0 point_i1 zp[2]:4 5.5
(const struct Point*) points[(number) 4]  = { fill( 4, 0) }

reg byte x [ main::i#2 main::i#1 ]
reg byte x [ main::i1#2 main::i1#1 ]
reg byte y [ main::$9 ]
zp[2]:2 [ main::point_i#0 ]
reg byte a [ main::$3 ]
reg byte y [ main::$10 ]
zp[2]:4 [ main::point_i1#0 ]
