(const nomodify byte*) BG_COLOR = (byte*)(const nomodify struct SCREEN_COLORS*) COLORS+(const byte) OFFSET_STRUCT_SCREEN_COLORS_BG0
(const nomodify struct SCREEN_COLORS*) COLORS = (struct SCREEN_COLORS*) 53280
(const byte) OFFSET_STRUCT_SCREEN_COLORS_BG0 = (byte) 1
(byte) SCREEN_COLORS::BG0
(byte) SCREEN_COLORS::BG1
(byte) SCREEN_COLORS::BG2
(byte) SCREEN_COLORS::BG3
(byte) SCREEN_COLORS::BORDER
(void()) main()
(label) main::@return

