(const struct Point) $0 = { x: (byte) 2, y: (byte) 3 }
(const byte) OFFSET_STRUCT_POINT_Y = (byte) 1
(byte) Point::x
(byte) Point::y
(const byte) SIZEOF_STRUCT_POINT = (byte) 2
(void()) main()
(label) main::@1
(label) main::@return
(const nomodify byte*) main::SCREEN = (byte*) 1024
(volatile struct Point) main::p loadstore zp[2]:2
(const struct Point*) main::q = &(volatile struct Point) main::p
(void()) set((struct Point*) set::ptr)
(label) set::@return
(struct Point*) set::ptr

zp[2]:2 [ main::p ]
