(const byte) OFFSET_STRUCT_POINT_Y = (byte) 1
(byte) Point::x
(byte) Point::y
(const nomodify struct Point*) SCREEN = (struct Point*) 1024
(struct Point()) get((byte) get::i)
(label) get::@1
(label) get::@2
(label) get::@3
(label) get::@4
(label) get::@return
(byte) get::i
(byte) get::i#1 reg byte a 22.0
(byte) get::i#2 reg byte a 106.5
(struct Point) get::return
(byte) get::return_x
(byte) get::return_x#0 reg byte a 2.0
(byte) get::return_x#1 reg byte a 11.0
(byte) get::return_x#2 reg byte a 101.0
(byte) get::return_x#3 reg byte a 101.0
(byte) get::return_x#4 reg byte a 101.0
(byte) get::return_x#5 reg byte a 79.0
(byte) get::return_y
(byte) get::return_y#0 reg byte x 2.0
(byte) get::return_y#1 reg byte x 11.0
(byte) get::return_y#2 reg byte x 202.0
(byte) get::return_y#3 reg byte x 202.0
(byte) get::return_y#4 reg byte x 202.0
(byte) get::return_y#5 reg byte x 52.66666666666666
(void()) main()
(byte~) main::$0_x reg byte a 2.0
(byte~) main::$0_y reg byte x 2.0
(byte~) main::$1_x zp[1]:2 7.333333333333333
(byte~) main::$1_y zp[1]:3 7.333333333333333
(byte~) main::$3 reg byte x 16.5
(label) main::@1
(label) main::@2
(label) main::@3
(label) main::@return
(byte) main::i
(byte) main::i#1 reg byte y 16.5
(byte) main::i#2 reg byte y 4.4
(const struct Point*) p0 = (struct Point*) 40960
(const struct Point*) p1 = (struct Point*) 45056
(const struct Point*) p2 = (struct Point*) 57344

reg byte y [ main::i#2 main::i#1 ]
reg byte a [ get::i#2 get::i#1 ]
reg byte a [ get::return_x#5 get::return_x#2 get::return_x#3 get::return_x#4 ]
reg byte x [ get::return_y#5 get::return_y#2 get::return_y#3 get::return_y#4 ]
reg byte a [ get::return_x#0 ]
reg byte x [ get::return_y#0 ]
reg byte a [ main::$0_x ]
reg byte x [ main::$0_y ]
reg byte a [ get::return_x#1 ]
reg byte x [ get::return_y#1 ]
zp[1]:2 [ main::$1_x ]
zp[1]:3 [ main::$1_y ]
reg byte x [ main::$3 ]
