(void()) main()
(byte~) main::$0 reg byte a 4.0
(byte~) main::$1 reg byte a 4.0
(label) main::@return
(const nomodify byte*) main::SCREEN = (byte*) 1024
(volatile word) main::p loadstore zp[2]:2 20.0
(const word*) main::q = &(volatile word) main::p

zp[2]:2 [ main::p ]
reg byte a [ main::$0 ]
reg byte a [ main::$1 ]
