(const byte) OFFSET_STRUCT_POINT_Y = (byte) 1
(byte) Point::x
(byte) Point::y
(const nomodify byte*) SCREEN = (byte*) 1024
(const byte) SIZEOF_STRUCT_POINT = (byte) 2
(void()) main()
(label) main::@return
(struct Point) point loadstore mem[2] = {}

mem[2] [ point ]
