(const byte) OFFSET_STRUCT_POS_Y = (byte) 1
(const byte) XSPACE = (byte) $14
(const byte) YSPACE = (byte) $14
(byte) idx
(byte) idx#0 idx zp[1]:4 67.33333333333333
(byte) idx#1 idx zp[1]:4 7.333333333333333
(byte) idx#13 idx zp[1]:4 46.42857142857143
(byte) line
(byte) line#1 line zp[1]:2 22.0
(byte) line#13 line zp[1]:2 2.75
(void()) main()
(byte~) main::$3 reg byte x 151.5
(label) main::@1
(label) main::@2
(label) main::@3
(label) main::@4
(label) main::@5
(label) main::@return
(const struct pos*) p[(number) $40]  = { fill( $40, 0) }
(byte) pos::x
(byte) pos::y
(byte) row
(byte) row#1 reg byte y 202.0
(byte) row#14 reg byte y 43.285714285714285
(byte) x
(byte) x#0 x zp[1]:3 22.0
(byte) x#1 x zp[1]:3 101.0
(byte) x#11 x zp[1]:3 11.0
(byte) x#12 x zp[1]:3 40.625
(byte) y
(byte) y#0 y zp[1]:5 11.0
(byte) y#1 y zp[1]:5 11.181818181818182

zp[1]:2 [ line#13 line#1 ]
zp[1]:3 [ x#11 x#12 x#0 x#1 ]
zp[1]:4 [ idx#1 idx#13 idx#0 ]
zp[1]:5 [ y#1 y#0 ]
reg byte y [ row#14 row#1 ]
reg byte x [ main::$3 ]
