(const string) $0 = (string) "jesper"
(const string) $1 = (string) "repsej"
(label) @1
(label) @begin
(label) @end
(const byte[]) DIGIT = (string) "0123456789"
(const byte) OFFSET_STRUCT_PERSON_NAME = (byte) 1
(byte) Person::id
(byte*) Person::name
(const byte*) SCREEN = (byte*) 1024
(const byte) SIZEOF_STRUCT_PERSON = (byte) 3
(byte) idx
(byte) idx#13 reg byte x 3.0
(byte) idx#14 reg byte x 9.75
(byte) idx#16 reg byte x 1.0
(byte) idx#4 reg byte x 3.0
(byte) idx#5 reg byte x 4.0
(byte) idx#6 reg byte x 11.0
(void()) main()
(label) main::@1
(label) main::@return
(const struct Person[2]) persons = { { id: (byte) 4, name: (const string) $0 }, { id: (byte) 7, name: (const string) $1 } }
(void()) print_person((struct Person*) print_person::person)
(label) print_person::@1
(label) print_person::@2
(label) print_person::@3
(label) print_person::@return
(byte) print_person::i
(byte) print_person::i#1 i zp[1]:4 22.0
(byte) print_person::i#2 i zp[1]:4 11.0
(struct Person*) print_person::person
(struct Person*) print_person::person#2 person zp[2]:2

zp[2]:2 [ print_person::person#2 ]
reg byte x [ idx#13 idx#16 ]
zp[1]:4 [ print_person::i#2 print_person::i#1 ]
reg byte x [ idx#14 idx#5 idx#6 ]
reg byte x [ idx#4 ]
