(void()) main()
(byte~) main::$0 reg byte a 22.0
(byte~) main::$10 reg byte a 22.0
(byte~) main::$11 reg byte a 33.0
(byte~) main::$2 reg byte a 22.0
(byte~) main::$4 reg byte a 22.0
(byte~) main::$5 reg byte a 33.0
(byte~) main::$6 reg byte a 22.0
(byte~) main::$8 reg byte a 22.0
(label) main::@1
(label) main::@2
(label) main::@3
(label) main::@4
(label) main::@5
(label) main::@6
(label) main::@7
(label) main::@return
(byte) main::i
(byte) main::i#1 reg byte x 16.5
(byte) main::i#2 reg byte x 5.866666666666666
(byte*) main::screen
(byte*) main::screen#1 screen zp[2]:2 4.714285714285714
(byte*) main::screen#2 screen zp[2]:2 7.333333333333333
(byte*) main::screen#3 screen zp[2]:2 4.714285714285714

reg byte x [ main::i#2 main::i#1 ]
zp[2]:2 [ main::screen#3 main::screen#2 main::screen#1 ]
reg byte a [ main::$5 main::$4 main::$2 ]
reg byte a [ main::$11 main::$10 main::$8 ]
reg byte a [ main::$0 ]
reg byte a [ main::$6 ]
