(void()) main()
(label) main::@1
(label) main::@return
(const nomodify byte*) main::SCREEN = (byte*) 1024
(byte) main::b
(byte) main::b#1 reg byte x 16.5
(byte) main::b#2 reg byte x 16.5

reg byte x [ main::b#2 main::b#1 ]
