(const nomodify byte*) BG_COLOR = (byte*) 53280
(const nomodify byte*) FGCOL = (byte*) 53281
(const nomodify void()**) KERNEL_IRQ = (void()**) 788
interrupt(KERNEL_MIN)(void()) irq()
(label) irq::@return
(void()) main()
(label) main::@1

