(const nomodify byte) EQ = (byte) 4
(const nomodify byte) FF = (byte) $57
(const nomodify byte) GE = (byte) 3
(const nomodify byte) GT = (byte) 2
(const nomodify byte) LE = (byte) 1
(const nomodify byte) LT = (byte) 0
(byte) MOS6526_CIA::INTERRUPT
(byte) MOS6526_CIA::PORT_A
(byte) MOS6526_CIA::PORT_A_DDR
(byte) MOS6526_CIA::PORT_B
(byte) MOS6526_CIA::PORT_B_DDR
(byte) MOS6526_CIA::SERIAL_DATA
(word) MOS6526_CIA::TIMER_A
(byte) MOS6526_CIA::TIMER_A_CONTROL
(word) MOS6526_CIA::TIMER_B
(byte) MOS6526_CIA::TIMER_B_CONTROL
(byte) MOS6526_CIA::TOD_10THS
(byte) MOS6526_CIA::TOD_HOURS
(byte) MOS6526_CIA::TOD_MIN
(byte) MOS6526_CIA::TOD_SEC
(byte) MOS6569_VICII::BG_COLOR
(byte) MOS6569_VICII::BG_COLOR1
(byte) MOS6569_VICII::BG_COLOR2
(byte) MOS6569_VICII::BG_COLOR3
(byte) MOS6569_VICII::BORDER_COLOR
(byte) MOS6569_VICII::CONTROL1
(byte) MOS6569_VICII::CONTROL2
(byte) MOS6569_VICII::IRQ_ENABLE
(byte) MOS6569_VICII::IRQ_STATUS
(byte) MOS6569_VICII::LIGHTPEN_X
(byte) MOS6569_VICII::LIGHTPEN_Y
(byte) MOS6569_VICII::MEMORY
(byte) MOS6569_VICII::RASTER
(byte) MOS6569_VICII::SPRITE0_COLOR
(byte) MOS6569_VICII::SPRITE0_X
(byte) MOS6569_VICII::SPRITE0_Y
(byte) MOS6569_VICII::SPRITE1_COLOR
(byte) MOS6569_VICII::SPRITE1_X
(byte) MOS6569_VICII::SPRITE1_Y
(byte) MOS6569_VICII::SPRITE2_COLOR
(byte) MOS6569_VICII::SPRITE2_X
(byte) MOS6569_VICII::SPRITE2_Y
(byte) MOS6569_VICII::SPRITE3_COLOR
(byte) MOS6569_VICII::SPRITE3_X
(byte) MOS6569_VICII::SPRITE3_Y
(byte) MOS6569_VICII::SPRITE4_COLOR
(byte) MOS6569_VICII::SPRITE4_X
(byte) MOS6569_VICII::SPRITE4_Y
(byte) MOS6569_VICII::SPRITE5_COLOR
(byte) MOS6569_VICII::SPRITE5_X
(byte) MOS6569_VICII::SPRITE5_Y
(byte) MOS6569_VICII::SPRITE6_COLOR
(byte) MOS6569_VICII::SPRITE6_X
(byte) MOS6569_VICII::SPRITE6_Y
(byte) MOS6569_VICII::SPRITE7_COLOR
(byte) MOS6569_VICII::SPRITE7_X
(byte) MOS6569_VICII::SPRITE7_Y
(byte) MOS6569_VICII::SPRITES_BG_COLLISION
(byte) MOS6569_VICII::SPRITES_COLLISION
(byte) MOS6569_VICII::SPRITES_ENABLE
(byte) MOS6569_VICII::SPRITES_EXPAND_X
(byte) MOS6569_VICII::SPRITES_EXPAND_Y
(byte) MOS6569_VICII::SPRITES_MC
(byte) MOS6569_VICII::SPRITES_MCOLOR1
(byte) MOS6569_VICII::SPRITES_MCOLOR2
(byte) MOS6569_VICII::SPRITES_PRIORITY
(byte) MOS6569_VICII::SPRITES_XMSB
(byte) MOS6581_SID::CH1_ATTACK_DECAY
(byte) MOS6581_SID::CH1_CONTROL
(word) MOS6581_SID::CH1_FREQ
(word) MOS6581_SID::CH1_PULSE_WIDTH
(byte) MOS6581_SID::CH1_SUSTAIN_RELEASE
(byte) MOS6581_SID::CH2_ATTACK_DECAY
(byte) MOS6581_SID::CH2_CONTROL
(word) MOS6581_SID::CH2_FREQ
(word) MOS6581_SID::CH2_PULSE_WIDTH
(byte) MOS6581_SID::CH2_SUSTAIN_RELEASE
(byte) MOS6581_SID::CH3_ATTACK_DECAY
(byte) MOS6581_SID::CH3_CONTROL
(byte) MOS6581_SID::CH3_ENV
(word) MOS6581_SID::CH3_FREQ
(byte) MOS6581_SID::CH3_OSC
(word) MOS6581_SID::CH3_PULSE_WIDTH
(byte) MOS6581_SID::CH3_SUSTAIN_RELEASE
(byte) MOS6581_SID::FILTER_CUTOFF_HIGH
(byte) MOS6581_SID::FILTER_CUTOFF_LOW
(byte) MOS6581_SID::FILTER_SETUP
(byte) MOS6581_SID::POT_X
(byte) MOS6581_SID::POT_Y
(byte) MOS6581_SID::VOLUME_FILTER_MODE
(const nomodify byte) NE = (byte) 5
(const byte) RADIX::BINARY = (number) 2
(const byte) RADIX::DECIMAL = (number) $a
(const byte) RADIX::HEXADECIMAL = (number) $10
(const byte) RADIX::OCTAL = (number) 8
(const nomodify byte) TT = (byte) $51
(void()) compare((signed word) compare::w1 , (signed word) compare::w2 , (byte) compare::op)
(label) compare::@1
(label) compare::@10
(label) compare::@11
(label) compare::@12
(label) compare::@13
(label) compare::@14
(label) compare::@15
(label) compare::@16
(label) compare::@17
(label) compare::@18
(label) compare::@19
(label) compare::@2
(label) compare::@20
(label) compare::@21
(label) compare::@22
(label) compare::@23
(label) compare::@24
(label) compare::@25
(label) compare::@26
(label) compare::@27
(label) compare::@3
(label) compare::@4
(label) compare::@5
(label) compare::@6
(label) compare::@7
(label) compare::@8
(label) compare::@9
(label) compare::@return
(byte) compare::op
(byte) compare::op#0 reg byte a 10167.833333333334
(byte*) compare::ops
(const byte*) compare::ops#1 ops_1 = (byte*) "!="
(const byte*) compare::ops#2 ops_2 = (byte*) "=="
(const byte*) compare::ops#3 ops_3 = (byte*) ">="
(const byte*) compare::ops#4 ops_4 = (byte*) "> "
(const byte*) compare::ops#5 ops_5 = (byte*) "<="
(const byte*) compare::ops#6 ops_6 = (byte*) "< "
(byte*) compare::ops#7 ops zp[2]:9 3333.6666666666665
(byte) compare::r
(byte) compare::r#10 r zp[1]:6 10001.000000000002
(byte) compare::r#12 r zp[1]:6 10001.0
(byte) compare::r#13 r zp[1]:6 10001.0
(byte) compare::r#14 r zp[1]:6 10001.0
(byte) compare::r#15 r zp[1]:6 10001.0
(byte) compare::r#16 r zp[1]:6 10001.0
(byte) compare::r#17 r zp[1]:6 10001.0
(signed word) compare::w1
(signed word) compare::w1#0 w1 zp[2]:11 2536.0000000000005
(signed word) compare::w2
(signed word) compare::w2#0 w2 zp[2]:17 2290.5806451612902
(void()) main()
(byte~) main::$8 reg byte a 22.0
(byte~) main::$9 reg byte a 202.0
(label) main::@1
(label) main::@10
(label) main::@2
(label) main::@3
(label) main::@4
(label) main::@5
(label) main::@6
(label) main::@7
(label) main::@8
(label) main::@9
(byte) main::i
(byte) main::i#1 i zp[1]:2 16.5
(byte) main::i#2 i zp[1]:2 1.5714285714285716
(byte) main::j
(byte) main::j#1 j zp[1]:3 151.5
(byte) main::j#2 j zp[1]:3 18.9375
(byte) main::op
(byte) main::op#1 op zp[1]:4 1501.5
(byte) main::op#2 op zp[1]:4 273.0
(byte) main::s
(byte) main::s#1 s zp[1]:5 1501.5
(byte) main::s#10 s zp[1]:5 302.0
(byte) main::s#3 s zp[1]:5 420.59999999999997
(byte) main::s#5 s zp[1]:5 71.0
(byte) main::s#7 s zp[1]:5 7.333333333333333
(signed word) main::w1
(signed word) main::w1#0 w1 zp[2]:15 53.26315789473684
(signed word) main::w2
(signed word) main::w2#0 w2 zp[2]:17 78.71428571428571
(void*()) memset((void*) memset::str , (byte) memset::c , (word) memset::num)
(label) memset::@1
(label) memset::@2
(label) memset::@return
(byte) memset::c
(const byte) memset::c#0 c = (byte) ' '
(byte*) memset::dst
(byte*) memset::dst#1 dst zp[2]:9 2002.0
(byte*) memset::dst#2 dst zp[2]:9 1334.6666666666667
(byte*) memset::end
(const byte*) memset::end#0 end = (byte*)(const void*) memset::str#0+(const word) memset::num#0
(word) memset::num
(const word) memset::num#0 num = (word) $3e8
(void*) memset::return
(void*) memset::str
(const void*) memset::str#0 str = (void*)(const byte*) print_screen#0
(void()) print_char((byte) print_char::ch)
(label) print_char::@return
(byte) print_char::ch
(byte) print_char::ch#0 reg byte a 2.000000002E9
(byte) print_char::ch#3 reg byte a 2.0000002E7
(byte) print_char::ch#4 reg byte a 2.0000002E7
(byte) print_char::ch#5 reg byte a 20002.0
(byte) print_char::ch#6 reg byte a 1.1020010005E10
(byte*) print_char_cursor
(byte*) print_char_cursor#117 print_char_cursor zp[2]:13 2002.0
(byte*) print_char_cursor#14 print_char_cursor zp[2]:13 2.4711157795555556E8
(byte*) print_char_cursor#44 print_char_cursor zp[2]:13 1.0510105004E10
(byte*) print_char_cursor#61 print_char_cursor zp[2]:13 55001.0
(byte*) print_char_cursor#67 print_char_cursor zp[2]:13 370.1
(byte*) print_char_cursor#74 print_char_cursor zp[2]:13 71.0
(byte*) print_char_cursor#75 print_char_cursor zp[2]:13 445.0
(byte*) print_char_cursor#84 print_char_cursor zp[2]:13 7.333333333333333
(void()) print_cls()
(label) print_cls::@return
(const to_nomodify byte*) print_hextab[]  = (byte*) "0123456789abcdef"z
(byte*) print_line_cursor
(byte*) print_line_cursor#0 print_line_cursor zp[2]:7 6.0000401E7
(byte*) print_line_cursor#10 print_line_cursor zp[2]:7 2.00010003E8
(byte*) print_line_cursor#21 print_line_cursor zp[2]:7 1344.888888888889
(byte*) print_line_cursor#25 print_line_cursor zp[2]:7 445.0
(byte*) print_line_cursor#28 print_line_cursor zp[2]:7 71.0
(byte*) print_line_cursor#30 print_line_cursor zp[2]:7 7.333333333333333
(void()) print_ln()
(label) print_ln::@1
(label) print_ln::@return
(byte*) print_screen
(const byte*) print_screen#0 print_screen = (byte*) 1024
(void()) print_sint((signed word) print_sint::w)
(label) print_sint::@1
(label) print_sint::@2
(label) print_sint::@3
(label) print_sint::@4
(label) print_sint::@return
(signed word) print_sint::w
(signed word) print_sint::w#0 w zp[2]:11 200002.0
(signed word) print_sint::w#1 w zp[2]:11 20002.0
(signed word) print_sint::w#2 w zp[2]:11 20002.0
(signed word) print_sint::w#3 w zp[2]:11 53334.16666666666
(signed word) print_sint::w#5 w zp[2]:11 200002.0
(void()) print_str((byte*) print_str::str)
(label) print_str::@1
(label) print_str::@2
(label) print_str::@3
(label) print_str::@return
(byte*) print_str::str
(byte*) print_str::str#0 str zp[2]:9 2.000000002E9
(byte*) print_str::str#1 str zp[2]:9 55001.0
(byte*) print_str::str#2 str zp[2]:9 1.00002500125E9
(void()) print_uchar((byte) print_uchar::b)
(byte~) print_uchar::$0 reg byte a 2.0000002E7
(byte~) print_uchar::$2 reg byte x 2.0000002E7
(label) print_uchar::@1
(label) print_uchar::@return
(byte) print_uchar::b
(byte) print_uchar::b#0 reg byte x 2000002.0
(byte) print_uchar::b#1 reg byte x 2000002.0
(byte) print_uchar::b#2 reg byte x 5500001.0
(void()) print_uint((word) print_uint::w)
(label) print_uint::@1
(label) print_uint::@return
(word) print_uint::w
(word) print_uint::w#0 w zp[2]:11 700001.0
(const signed word*) swords[]  = { (signed word) -$6fed, (signed word) $12, (signed word) $7fed }

zp[1]:2 [ main::i#2 main::i#1 ]
zp[1]:3 [ main::j#2 main::j#1 ]
zp[1]:4 [ main::op#2 main::op#1 ]
zp[1]:5 [ main::s#3 main::s#5 main::s#7 main::s#10 main::s#1 ]
zp[1]:6 [ compare::r#10 compare::r#12 compare::r#13 compare::r#14 compare::r#15 compare::r#16 compare::r#17 ]
zp[2]:7 [ print_line_cursor#10 print_line_cursor#21 print_line_cursor#28 print_line_cursor#30 print_line_cursor#25 print_line_cursor#0 ]
zp[2]:9 [ memset::dst#2 memset::dst#1 compare::ops#7 print_str::str#2 print_str::str#1 print_str::str#0 ]
zp[2]:11 [ print_sint::w#5 print_sint::w#0 print_sint::w#3 print_sint::w#2 print_sint::w#1 compare::w1#0 print_uint::w#0 ]
reg byte a [ print_char::ch#6 print_char::ch#5 print_char::ch#0 print_char::ch#3 print_char::ch#4 ]
zp[2]:13 [ print_char_cursor#44 print_char_cursor#61 print_char_cursor#67 print_char_cursor#74 print_char_cursor#84 print_char_cursor#75 print_char_cursor#14 print_char_cursor#117 ]
reg byte x [ print_uchar::b#2 print_uchar::b#0 print_uchar::b#1 ]
reg byte a [ main::$8 ]
zp[2]:15 [ main::w1#0 ]
reg byte a [ main::$9 ]
zp[2]:17 [ main::w2#0 compare::w2#0 ]
reg byte a [ compare::op#0 ]
reg byte a [ print_uchar::$0 ]
reg byte x [ print_uchar::$2 ]
