(void()) main()
(label) main::@return
(const nomodify byte*) main::D018 = (byte*) 53272
(const byte) main::d018val = >(const nomodify byte*) main::screen&(word) $3fff
(const nomodify byte*) main::screen = (byte*) 1024

