
CONTROL FLOW GRAPH SSA

(void()) main()
main: scope:[main]  from __start
  *((const nomodify byte*) SCREEN + (number) 0) ← *((const nomodify to_nomodify byte*) cp)
  *((const nomodify byte*) SCREEN + (number) 1) ← *((const nomodify to_volatile byte*) vp)
  to:main::@return
main::@return: scope:[main]  from main
  return 
  to:@return

(void()) __start()
__start: scope:[__start]  from
  call main 
  to:__start::@1
__start::@1: scope:[__start]  from __start
  to:__start::@return
__start::@return: scope:[__start]  from __start::@1
  return 
  to:@return

SYMBOL TABLE SSA
(const nomodify byte*) SCREEN = (byte*)(number) $400
(void()) __start()
(label) __start::@1
(label) __start::@return
(const nomodify to_nomodify byte*) cp = (byte*)(number) $a003
(void()) main()
(label) main::@return
(const nomodify to_volatile byte*) vp = (byte*)(number) $a004

Adding number conversion cast (unumber) 0 in *((const nomodify byte*) SCREEN + (number) 0) ← *((const nomodify to_nomodify byte*) cp)
Adding number conversion cast (unumber) 1 in *((const nomodify byte*) SCREEN + (number) 1) ← *((const nomodify to_volatile byte*) vp)
Successful SSA optimization PassNAddNumberTypeConversions
Simplifying constant pointer cast (byte*) 1024
Simplifying constant pointer cast (byte*) 40963
Simplifying constant pointer cast (byte*) 40964
Simplifying constant integer cast 0
Simplifying constant integer cast 1
Successful SSA optimization PassNCastSimplification
Finalized unsigned number type (byte) 0
Finalized unsigned number type (byte) 1
Successful SSA optimization PassNFinalizeNumberTypeConversions
Simplifying expression containing zero SCREEN in [0] *((const nomodify byte*) SCREEN + (byte) 0) ← *((const nomodify to_nomodify byte*) cp)
Successful SSA optimization PassNSimplifyExpressionWithZero
Removing unused procedure __start
Removing unused procedure block __start
Removing unused procedure block __start::@1
Removing unused procedure block __start::@return
Successful SSA optimization PassNEliminateEmptyStart
Consolidated array index constant in *(SCREEN+1)
Successful SSA optimization Pass2ConstantAdditionElimination
CALL GRAPH

Created 0 initial phi equivalence classes
Coalesced down to 0 phi equivalence classes

FINAL CONTROL FLOW GRAPH

(void()) main()
main: scope:[main]  from
  [0] *((const nomodify byte*) SCREEN) ← *((const nomodify to_nomodify byte*) cp)
  [1] *((const nomodify byte*) SCREEN+(byte) 1) ← *((const nomodify to_volatile byte*) vp)
  to:main::@return
main::@return: scope:[main]  from main
  [2] return 
  to:@return


VARIABLE REGISTER WEIGHTS
(void()) main()

Initial phi equivalence classes
Complete equivalence classes

INITIAL ASM
Target platform is c64basic / MOS6502X
  // File Comments
// Typedef pointer to const/volatile type and instantiate it to const variable
  // Upstart
.pc = $801 "Basic"
:BasicUpstart(main)
.pc = $80d "Program"
  // Global Constants & labels
  .label SCREEN = $400
  .label cp = $a003
  .label vp = $a004
  // main
main: {
    // [0] *((const nomodify byte*) SCREEN) ← *((const nomodify to_nomodify byte*) cp) -- _deref_pbuc1=_deref_pbuc2 
    lda cp
    sta SCREEN
    // [1] *((const nomodify byte*) SCREEN+(byte) 1) ← *((const nomodify to_volatile byte*) vp) -- _deref_pbuc1=_deref_pbuc2 
    lda vp
    sta SCREEN+1
    jmp __breturn
    // main::@return
  __breturn:
    // [2] return 
    rts
}
  // File Data

REGISTER UPLIFT POTENTIAL REGISTERS
Statement [0] *((const nomodify byte*) SCREEN) ← *((const nomodify to_nomodify byte*) cp) [ ] (  [ ] { }  ) always clobbers reg byte a 
Statement [1] *((const nomodify byte*) SCREEN+(byte) 1) ← *((const nomodify to_volatile byte*) vp) [ ] (  [ ] { }  ) always clobbers reg byte a 

REGISTER UPLIFT SCOPES
Uplift Scope [main] 
Uplift Scope [] 

Uplifting [main] best 25 combination 
Uplifting [] best 25 combination 

ASSEMBLER BEFORE OPTIMIZATION
  // File Comments
// Typedef pointer to const/volatile type and instantiate it to const variable
  // Upstart
.pc = $801 "Basic"
:BasicUpstart(main)
.pc = $80d "Program"
  // Global Constants & labels
  .label SCREEN = $400
  .label cp = $a003
  .label vp = $a004
  // main
main: {
    // [0] *((const nomodify byte*) SCREEN) ← *((const nomodify to_nomodify byte*) cp) -- _deref_pbuc1=_deref_pbuc2 
    lda cp
    sta SCREEN
    // [1] *((const nomodify byte*) SCREEN+(byte) 1) ← *((const nomodify to_volatile byte*) vp) -- _deref_pbuc1=_deref_pbuc2 
    lda vp
    sta SCREEN+1
    jmp __breturn
    // main::@return
  __breturn:
    // [2] return 
    rts
}
  // File Data

ASSEMBLER OPTIMIZATIONS
Removing instruction jmp __breturn
Succesful ASM optimization Pass5NextJumpElimination
Removing instruction __breturn:
Succesful ASM optimization Pass5UnusedLabelElimination

FINAL SYMBOL TABLE
(const nomodify byte*) SCREEN = (byte*) 1024
(const nomodify to_nomodify byte*) cp = (byte*) 40963
(void()) main()
(label) main::@return
(const nomodify to_volatile byte*) vp = (byte*) 40964



FINAL ASSEMBLER
Score: 22

  // File Comments
// Typedef pointer to const/volatile type and instantiate it to const variable
  // Upstart
.pc = $801 "Basic"
:BasicUpstart(main)
.pc = $80d "Program"
  // Global Constants & labels
  .label SCREEN = $400
  .label cp = $a003
  .label vp = $a004
  // main
main: {
    // SCREEN[0] = *cp
    // [0] *((const nomodify byte*) SCREEN) ← *((const nomodify to_nomodify byte*) cp) -- _deref_pbuc1=_deref_pbuc2 
    lda cp
    sta SCREEN
    // SCREEN[1] = *vp
    // [1] *((const nomodify byte*) SCREEN+(byte) 1) ← *((const nomodify to_volatile byte*) vp) -- _deref_pbuc1=_deref_pbuc2 
    lda vp
    sta SCREEN+1
    // main::@return
    // }
    // [2] return 
    rts
}
  // File Data

