(const nomodify byte*) SCREEN = (byte*) 1024
(void()) __start()
(label) __start::@1
(label) __start::@return
(label) __start::__init1
(void()) main()
(label) main::@return
(word) main::w
(volatile byte*) ptr loadstore zp[2]:2 1.0

zp[2]:2 [ ptr ]
