(void()) main()
(label) main::@1
(label) main::@2
(label) main::@3
(label) main::@3_1
(label) main::@3_10
(label) main::@3_11
(label) main::@3_12
(label) main::@3_13
(label) main::@3_14
(label) main::@3_15
(label) main::@3_16
(label) main::@3_17
(label) main::@3_18
(label) main::@3_19
(label) main::@3_2
(label) main::@3_20
(label) main::@3_21
(label) main::@3_22
(label) main::@3_23
(label) main::@3_24
(label) main::@3_3
(label) main::@3_4
(label) main::@3_5
(label) main::@3_6
(label) main::@3_7
(label) main::@3_8
(label) main::@3_9
(label) main::@return
(const byte*) main::SCREEN = (byte*) 1024
(byte) main::line
(byte) main::x
(byte) main::x#1 reg byte x 16.5
(byte) main::x#5 reg byte x 22.00000000000001

reg byte x [ main::x#5 main::x#1 ]
