(const signed word*) SCREEN = (signed word*) 1024
(void()) main()
(byte~) main::$2 reg byte a 22.0
(byte~) main::$3 reg byte a 22.0
(signed word~) main::$4 zp[2]:6 22.0
(label) main::@1
(label) main::@2
(label) main::@return
(byte) main::i loadstore !zp[-1]:2 zp[1]:2 6.583333333333334
(signed word) main::j loadstore !zp[-1]:4 zp[2]:4 3.1818181818181817
(signed word) main::k
(signed word) main::k#0 k zp[2]:6 11.0

zp[1]:2 [ main::i ]
zp[2]:4 [ main::j ]
reg byte a [ main::$2 ]
zp[2]:6 [ main::$4 main::k#0 ]
reg byte a [ main::$3 ]
