(void()) main()
(label) main::@1
(label) main::@return
(void()) model_ma_mem()
(label) model_ma_mem::@1
(label) model_ma_mem::@return
(byte) model_ma_mem::i loadstore mem[1] 62.8
(byte*) model_ma_mem::screen loadstore mem[2] 52.33333333333333
(void()) model_ssa_zp()
(label) model_ssa_zp::@1
(label) model_ssa_zp::@return
(byte) model_ssa_zp::i
(byte) model_ssa_zp::i#1 reg byte x 151.5
(byte) model_ssa_zp::i#2 reg byte x 67.33333333333333
(byte*) model_ssa_zp::screen
(byte*) model_ssa_zp::screen#1 screen zp[2]:2 67.33333333333333
(byte*) model_ssa_zp::screen#2 screen zp[2]:2 151.5

zp[2]:2 [ model_ssa_zp::screen#2 model_ssa_zp::screen#1 ]
reg byte x [ model_ssa_zp::i#2 model_ssa_zp::i#1 ]
mem[2] [ model_ma_mem::screen ]
mem[1] [ model_ma_mem::i ]
