(const nomodify byte*) SCREEN = (byte*) 1024
(void()) main()
(byte~) main::$1 reg byte a 11.0
(label) main::@1
(label) main::@return
(byte) main::i loadstore mem[1] 9.200000000000001

mem[1] [ main::i ]
reg byte a [ main::$1 ]
