(const byte) SIZEOF_WORD = (byte) 2
(void()) main()
(word~) main::$0 zp[2]:2 22.0
(word~) main::$1 zp[2]:2 5.5
(word~) main::$3 zp[2]:4 22.0
(word~) main::$6 zp[2]:2 22.0
(word~) main::$7 zp[2]:4 22.0
(word*~) main::$8 zp[2]:4 22.0
(label) main::@1
(label) main::@2
(label) main::@return
(const nomodify word*) main::SCREEN = (word*) 1024
(byte) main::i
(byte) main::i#1 reg byte x 16.5
(byte) main::i#2 reg byte x 4.125
(const word*) words[(number) $100]  = { fill( $100, 0) }

reg byte x [ main::i#2 main::i#1 ]
zp[2]:2 [ main::$6 main::$0 main::$1 ]
zp[2]:4 [ main::$7 main::$3 main::$8 ]
