(const byte) SIZEOF_WORD = (byte) 2
(void()) main()
(label) main::@return
(const nomodify word*) main::SCREEN = (word*) 1024
(const word*) main::w1 = (word*) 4096
(const word*) main::w2 = (word*) 4416
(word) main::wd
(const word) main::wd#0 wd = (const word*) main::w2-(const word*) main::w1/(const byte) SIZEOF_WORD

