(const byte) SIZEOF_WORD = (byte) 2
(void()) main()
(byte~) main::$0 reg byte a 4.0
(byte~) main::$1 reg byte a 4.0
(byte~) main::$2 reg byte a 4.0
(byte~) main::$3 reg byte a 4.0
(byte~) main::$4 reg byte a 4.0
(byte~) main::$5 reg byte a 4.0
(label) main::@return
(const nomodify byte*) main::SCREEN = (byte*)(number) $400+(number) $28*(number) 6
(word*) main::wp

reg byte a [ main::$0 ]
reg byte a [ main::$1 ]
reg byte a [ main::$2 ]
reg byte a [ main::$3 ]
reg byte a [ main::$4 ]
reg byte a [ main::$5 ]
