(const byte*) BG_COLOR = (byte*) 53280
(const byte*) RASTER = (byte*) 53266
(void()) loop()
(label) loop::@1
(label) loop::@return
(byte) loop::i
(byte) loop::i#1 reg byte x 15001.5
(byte) loop::i#2 reg byte x 10001.0
(void()) main()
(label) main::@1
(label) main::@2
(label) main::@3
(label) main::@4
(label) main::@5
(label) main::@6
(byte) main::i
(byte) main::i#1 reg byte x 22.0
(byte) main::i#2 reg byte x 18.333333333333332
(const byte*) main::zpCode = (byte*)&(void()) zpLoop()
(const byte*) zpCodeData[]  = kickasm {{ .segmentout [segments="ZpCode"]
 }}
(void()) zpLoop()
(label) zpLoop::@1
(label) zpLoop::@return
(byte) zpLoop::i
(byte) zpLoop::i#1 reg byte x 1501.5
(byte) zpLoop::i#2 reg byte x 1001.0

reg byte x [ zpLoop::i#2 zpLoop::i#1 ]
reg byte x [ main::i#2 main::i#1 ]
reg byte x [ loop::i#2 loop::i#1 ]
