(byte) ATARI_TIA_READ::CXBLPF
(byte) ATARI_TIA_READ::CXM0FB
(byte) ATARI_TIA_READ::CXM0P
(byte) ATARI_TIA_READ::CXM1FB
(byte) ATARI_TIA_READ::CXM1P
(byte) ATARI_TIA_READ::CXP0FB
(byte) ATARI_TIA_READ::CXP1FB
(byte) ATARI_TIA_READ::CXPPMM
(byte) ATARI_TIA_READ::INPT0
(byte) ATARI_TIA_READ::INPT1
(byte) ATARI_TIA_READ::INPT2
(byte) ATARI_TIA_READ::INPT3
(byte) ATARI_TIA_READ::INPT4
(byte) ATARI_TIA_READ::INPT5
(byte) ATARI_TIA_WRITE::AUDC0
(byte) ATARI_TIA_WRITE::AUDC1
(byte) ATARI_TIA_WRITE::AUDF0
(byte) ATARI_TIA_WRITE::AUDF1
(byte) ATARI_TIA_WRITE::AUDV0
(byte) ATARI_TIA_WRITE::AUDV1
(byte) ATARI_TIA_WRITE::COLUBK
(byte) ATARI_TIA_WRITE::COLUP0
(byte) ATARI_TIA_WRITE::COLUP1
(byte) ATARI_TIA_WRITE::COLUPF
(byte) ATARI_TIA_WRITE::CTRLPF
(byte) ATARI_TIA_WRITE::CXCLR
(byte) ATARI_TIA_WRITE::ENABL
(byte) ATARI_TIA_WRITE::ENAM0
(byte) ATARI_TIA_WRITE::ENAM1
(byte) ATARI_TIA_WRITE::GRP0
(byte) ATARI_TIA_WRITE::GRP1
(byte) ATARI_TIA_WRITE::HMBL
(byte) ATARI_TIA_WRITE::HMCLR
(byte) ATARI_TIA_WRITE::HMM0
(byte) ATARI_TIA_WRITE::HMM1
(byte) ATARI_TIA_WRITE::HMOVE
(byte) ATARI_TIA_WRITE::HMP0
(byte) ATARI_TIA_WRITE::HMP1
(byte) ATARI_TIA_WRITE::NUSIZ0
(byte) ATARI_TIA_WRITE::NUSIZ1
(byte) ATARI_TIA_WRITE::PF0
(byte) ATARI_TIA_WRITE::PF1
(byte) ATARI_TIA_WRITE::PF2
(byte) ATARI_TIA_WRITE::REFP0
(byte) ATARI_TIA_WRITE::REFP1
(byte) ATARI_TIA_WRITE::RESBL
(byte) ATARI_TIA_WRITE::RESM0
(byte) ATARI_TIA_WRITE::RESM1
(byte) ATARI_TIA_WRITE::RESMP0
(byte) ATARI_TIA_WRITE::RESMP1
(byte) ATARI_TIA_WRITE::RESP0
(byte) ATARI_TIA_WRITE::RESP1
(byte) ATARI_TIA_WRITE::RSYNC
(byte) ATARI_TIA_WRITE::VBLANK
(byte) ATARI_TIA_WRITE::VDELBL
(byte) ATARI_TIA_WRITE::VDELP0
(byte) ATARI_TIA_WRITE::VDELP1
(byte) ATARI_TIA_WRITE::VSYNC
(byte) ATARI_TIA_WRITE::WSYNC
(byte) MOS6532_RIOT::INTIM
(byte) MOS6532_RIOT::SWACNT
(byte) MOS6532_RIOT::SWBCNT
(byte) MOS6532_RIOT::SWCHA
(byte) MOS6532_RIOT::SWCHB
(byte) MOS6532_RIOT::T1024T
(byte) MOS6532_RIOT::TIM1T
(byte) MOS6532_RIOT::TIM64T
(byte) MOS6532_RIOT::TIM8T
(const byte*) MOS6532_RIOT::UNUSED[(number) $f]  = { fill( $f, 0) }
(const byte) OFFSET_STRUCT_ATARI_TIA_WRITE_COLUBK = (byte) 9
(const byte) OFFSET_STRUCT_ATARI_TIA_WRITE_COLUPF = (byte) 8
(const byte) OFFSET_STRUCT_ATARI_TIA_WRITE_HMOVE = (byte) $2a
(const byte) OFFSET_STRUCT_ATARI_TIA_WRITE_PF0 = (byte) $d
(const byte) OFFSET_STRUCT_ATARI_TIA_WRITE_PF1 = (byte) $e
(const byte) OFFSET_STRUCT_ATARI_TIA_WRITE_PF2 = (byte) $f
(const byte) OFFSET_STRUCT_ATARI_TIA_WRITE_VBLANK = (byte) 1
(const byte) OFFSET_STRUCT_ATARI_TIA_WRITE_WSYNC = (byte) 2
(const byte) OFFSET_STRUCT_MOS6532_RIOT_INTIM = (byte) 4
(const byte) OFFSET_STRUCT_MOS6532_RIOT_TIM64T = (byte) $16
(const nomodify struct MOS6532_RIOT*) RIOT = (struct MOS6532_RIOT*) 640
(const to_nomodify byte*) SINTABLE[(number) $100]  = kickasm {{ .fill $100, round(127.5+127.5*sin(2*PI*i/256))
 }}
(const nomodify struct ATARI_TIA_WRITE*) TIA = (struct ATARI_TIA_WRITE*) 0
(byte) idx
(byte) idx#0 idx zp[1]:128 6.588235294117648
(byte) idx#1 idx zp[1]:128 11.181818181818182
(void()) main()
(label) main::@1
(label) main::@10
(label) main::@2
(label) main::@3
(label) main::@4
(label) main::@5
(label) main::@6
(label) main::@7
(label) main::@8
(label) main::@9
(byte) main::c
(byte) main::c#0 reg byte x 11.0
(byte) main::c#1 reg byte x 101.0
(byte) main::c#2 reg byte x 89.75
(byte) main::i
(byte) main::i#1 reg byte y 202.0
(byte) main::i#2 reg byte y 33.666666666666664

zp[1]:128 [ idx#1 idx#0 ]
reg byte y [ main::i#2 main::i#1 ]
reg byte x [ main::c#2 main::c#0 main::c#1 ]
