(byte) ATARI_TIA_READ::CXBLPF
(byte) ATARI_TIA_READ::CXM0FB
(byte) ATARI_TIA_READ::CXM0P
(byte) ATARI_TIA_READ::CXM1FB
(byte) ATARI_TIA_READ::CXM1P
(byte) ATARI_TIA_READ::CXP0FB
(byte) ATARI_TIA_READ::CXP1FB
(byte) ATARI_TIA_READ::CXPPMM
(byte) ATARI_TIA_READ::INPT0
(byte) ATARI_TIA_READ::INPT1
(byte) ATARI_TIA_READ::INPT2
(byte) ATARI_TIA_READ::INPT3
(byte) ATARI_TIA_READ::INPT4
(byte) ATARI_TIA_READ::INPT5
(byte) ATARI_TIA_WRITE::AUDC0
(byte) ATARI_TIA_WRITE::AUDC1
(byte) ATARI_TIA_WRITE::AUDF0
(byte) ATARI_TIA_WRITE::AUDF1
(byte) ATARI_TIA_WRITE::AUDV0
(byte) ATARI_TIA_WRITE::AUDV1
(byte) ATARI_TIA_WRITE::COLUBK
(byte) ATARI_TIA_WRITE::COLUP0
(byte) ATARI_TIA_WRITE::COLUP1
(byte) ATARI_TIA_WRITE::COLUPF
(byte) ATARI_TIA_WRITE::CTRLPF
(byte) ATARI_TIA_WRITE::CXCLR
(byte) ATARI_TIA_WRITE::ENABL
(byte) ATARI_TIA_WRITE::ENAM0
(byte) ATARI_TIA_WRITE::ENAM1
(byte) ATARI_TIA_WRITE::GRP0
(byte) ATARI_TIA_WRITE::GRP1
(byte) ATARI_TIA_WRITE::HMBL
(byte) ATARI_TIA_WRITE::HMCLR
(byte) ATARI_TIA_WRITE::HMM0
(byte) ATARI_TIA_WRITE::HMM1
(byte) ATARI_TIA_WRITE::HMOVE
(byte) ATARI_TIA_WRITE::HMP0
(byte) ATARI_TIA_WRITE::HMP1
(byte) ATARI_TIA_WRITE::NUSIZ0
(byte) ATARI_TIA_WRITE::NUSIZ1
(byte) ATARI_TIA_WRITE::PF0
(byte) ATARI_TIA_WRITE::PF1
(byte) ATARI_TIA_WRITE::PF2
(byte) ATARI_TIA_WRITE::REFP0
(byte) ATARI_TIA_WRITE::REFP1
(byte) ATARI_TIA_WRITE::RESBL
(byte) ATARI_TIA_WRITE::RESM0
(byte) ATARI_TIA_WRITE::RESM1
(byte) ATARI_TIA_WRITE::RESMP0
(byte) ATARI_TIA_WRITE::RESMP1
(byte) ATARI_TIA_WRITE::RESP0
(byte) ATARI_TIA_WRITE::RESP1
(byte) ATARI_TIA_WRITE::RSYNC
(byte) ATARI_TIA_WRITE::VBLANK
(byte) ATARI_TIA_WRITE::VDELBL
(byte) ATARI_TIA_WRITE::VDELP0
(byte) ATARI_TIA_WRITE::VDELP1
(byte) ATARI_TIA_WRITE::VSYNC
(byte) ATARI_TIA_WRITE::WSYNC
(const nomodify byte) CYCLES_PER_SCANLINE = (byte) $4c
(byte) MOS6532_RIOT::INTIM
(byte) MOS6532_RIOT::SWACNT
(byte) MOS6532_RIOT::SWBCNT
(byte) MOS6532_RIOT::SWCHA
(byte) MOS6532_RIOT::SWCHB
(byte) MOS6532_RIOT::T1024T
(byte) MOS6532_RIOT::TIM1T
(byte) MOS6532_RIOT::TIM64T
(byte) MOS6532_RIOT::TIM8T
(const byte*) MOS6532_RIOT::UNUSED[(number) $f]  = { fill( $f, 0) }
(const byte) OFFSET_STRUCT_ATARI_TIA_WRITE_COLUBK = (byte) 9
(const byte) OFFSET_STRUCT_ATARI_TIA_WRITE_COLUP0 = (byte) 6
(const byte) OFFSET_STRUCT_ATARI_TIA_WRITE_GRP0 = (byte) $1b
(const byte) OFFSET_STRUCT_ATARI_TIA_WRITE_HMOVE = (byte) $2a
(const byte) OFFSET_STRUCT_ATARI_TIA_WRITE_NUSIZ0 = (byte) 4
(const byte) OFFSET_STRUCT_ATARI_TIA_WRITE_VBLANK = (byte) 1
(const byte) OFFSET_STRUCT_ATARI_TIA_WRITE_WSYNC = (byte) 2
(const byte) OFFSET_STRUCT_MOS6532_RIOT_INTIM = (byte) 4
(const byte) OFFSET_STRUCT_MOS6532_RIOT_TIM64T = (byte) $16
(const nomodify struct MOS6532_RIOT*) RIOT = (struct MOS6532_RIOT*) 640
(const to_nomodify byte*) SINTABLE_160[(number) $100]  = kickasm {{ .fill $100, 10+round(64.5+64.5*sin(2*PI*i/256))
 }}
(const byte*) SPRITE_C[]  = { (byte) 0, (byte) $18, (byte) $18, (byte) $18, (byte) $18, (byte) $3c, (byte) $3c, (byte) $3c, (byte) $3c, (byte) $66, (byte) $66, (byte) $66, (byte) $66, (byte) $c0, (byte) $c0, (byte) $c0, (byte) $c0, (byte) $c0, (byte) $c0, (byte) $c0, (byte) $c0, (byte) $66, (byte) $66, (byte) $66, (byte) $66, (byte) $3c, (byte) $3c, (byte) $3c, (byte) $3c, (byte) $18, (byte) $18, (byte) $18, (byte) $18, (byte) 0 }
(const nomodify struct ATARI_TIA_WRITE*) TIA = (struct ATARI_TIA_WRITE*) 0
(const nomodify byte*) TIA_HMP0 = (byte*) 32
(const nomodify byte*) TIA_RESP0 = (byte*) 16
(const nomodify byte*) TIA_WSYNC = (byte*) 2
(void()) __start()
(label) __start::@1
(label) __start::@return
(label) __start::__init1
(byte) idx
(byte) idx#0 idx zp[1]:128 39.357142857142854
(byte) idx#1 idx zp[1]:128 133.66666666666669
(byte) idx2
(byte) idx2#0 idx2 zp[1]:129 42.38461538461539
(byte) idx2#1 idx2 zp[1]:129 109.36363636363637
(void()) main()
(label) main::@1
(label) main::@10
(label) main::@11
(label) main::@12
(label) main::@13
(label) main::@14
(label) main::@15
(label) main::@2
(label) main::@3
(label) main::@4
(label) main::@5
(label) main::@6
(label) main::@7
(label) main::@8
(label) main::@9
(byte) main::gfx
(byte) main::gfx#0 reg byte a 1501.5
(byte) main::i
(byte) main::i#1 reg byte x 2002.0
(byte) main::i#2 reg byte x 417.08333333333337
(byte) main::p0_idx
(byte) main::p0_idx#3 reg byte y 2002.0
(byte) main::p0_idx#4 reg byte y 500.5
(byte) main::p0_idx#8 reg byte y 1501.5
(byte) p0_xpos loadstore zp[1]:130 2.452380952380952
(byte) p0_ypos
(byte) p0_ypos#0 p0_ypos zp[1]:131 52.476190476190474

zp[1]:128 [ idx#1 idx#0 ]
zp[1]:129 [ idx2#1 idx2#0 ]
reg byte x [ main::i#2 main::i#1 ]
reg byte y [ main::p0_idx#4 main::p0_idx#8 main::p0_idx#3 ]
zp[1]:130 [ p0_xpos ]
zp[1]:131 [ p0_ypos#0 ]
reg byte a [ main::gfx#0 ]
